sniffer/logs/42.vcd
$date
  December 29, 2011
$end
$version
  ChronoVu LA-8 Version 3.06 
$end
$comment
  File: C:\Users\Mat\Desktop\Snifeando 2\42.kdt
  from sample 0 to sample 4591618
$end
$timescale 10 ns $end
$scope module la8 $end
$var wire 1 0 SCL_(clock) $end
$var wire 1 1 SDA_(data) $end
$var wire 8 B I2C Bus $end
$upscope $end
$enddefinitions $end
$dumpvars
10
11
bxxxxxxxx B
$end
#0
10
11
bxxxxxxxx B
#24
bxxxxxxxx B
#151176
01
bxxxxxxxx B
#151272
00
#151344
11
#151368
10
#151392
b11010010 B
#151560
00
#151680
10
#151872
00
#151896
01
#151968
10
#152160
00
#152208
11
#152280
10
#152472
00
#152496
01
#152568
10
#152760
00
#152880
10
#153072
00
#153096
11
#153168
10
#153360
00
#153384
01
#153480
10
#153672
00
#153696
11
#153984
01
#154128
10
#154272
00
#154320
11
#154368
10
#154392
bxxxxxxxx B
#154560
00
#154584
01
#154680
10
#154872
00
#154896
11
#154968
10
#155160
00
#155184
01
#155280
10
#155400
11
#155424
01
bxxxxxxxx B
#155472
00
#155568
10
#155592
b00100110 B
#155760
00
#155880
10
#156072
00
#156096
11
#156168
10
#156360
00
#156384
01
#156480
10
#156672
00
#156696
11
#157080
01
#157128
10
#157272
00
#157320
11
#157368
10
#157560
00
#157680
10
#157872
00
#157896
01
#157968
10
#158160
00
#158280
10
#158472
00
#158496
11
#158568
10
#158592
bxxxxxxxx B
#158760
00
#158880
10
#159072
00
#159168
10
#159360
00
#159456
10
#159672
00
#160224
01
#160272
10
#160464
00
#160560
10
#160776
11
#160968
01
bxxxxxxxx B
#161064
00
#161136
11
#161232
10
#161256
b11010100 B
#161376
00
#161472
10
#161664
00
#161688
01
#161760
10
#161976
00
#162000
11
#162072
10
#162264
00
#162288
01
#162360
10
#162576
00
#162600
11
#162672
10
#162864
00
#162888
01
#162960
10
#163176
00
#163272
10
#163464
00
#163488
11
#163800
01
#163944
10
#164064
00
#164112
11
#164160
10
#164184
b10100010 B
#164376
00
#164400
01
#164472
10
#164664
00
#164688
11
#164760
10
#164976
00
#165000
01
#165072
10
#165264
00
#165360
10
#165576
00
#165672
10
#165864
00
#165888
11
#165960
10
#166176
00
#166200
01
#166272
10
#166488
00
11
#166872
01
#166920
10
#167064
00
#167112
11
#167160
10
#167184
b11001001 B
#167376
00
#167472
10
#167664
00
#167688
01
#167760
10
#167976
00
#168072
10
#168264
00
#168288
11
#168360
10
#168576
00
#168600
01
#168672
10
#168864
00
#168960
10
#169176
00
#169200
11
#169272
10
#169464
00
#170016
01
#170064
10
#170256
00
#170376
10
#170400
bxxxxxxxx B
#170568
11
#170760
01
bxxxxxxxx B
#170856
00
#170928
11
#170976
10
#171000
b11010110 B
#171168
00
#171264
10
#171456
00
#171480
01
#171576
10
#171768
00
#171792
11
#171864
10
#172056
00
#172080
01
#172176
10
#172368
00
#172392
11
#172464
10
#172656
00
#172776
10
#172968
00
#172992
01
#173064
10
#173256
00
#173304
11
#173592
01
#173736
10
#173856
00
#173928
11
#173976
10
#174000
b10100010 B
#174168
00
#174192
01
#174264
10
#174456
00
#174504
11
#174576
10
#174792
00
01
#174864
10
#175056
00
#175176
10
#175368
00
#175464
10
#175656
00
#175704
11
#175776
10
#175968
00
#175992
01
#176064
10
#176256
00
#176304
11
#176688
01
#176736
10
#176856
00
#176976
10
#177000
b01110011 B
#177168
00
#177192
11
#177264
10
#177456
00
#177528
10
#177552
00
#177576
10
#177768
00
#177792
01
#177864
10
#178056
00
#178176
10
#178368
00
#178392
11
#178464
10
#178656
00
#178776
10
#178968
00
#178992
01
#179064
10
#179256
00
#179304
11
#179832
01
#179880
10
#179904
bxxxxxxxx B
#180072
00
#180168
10
#180360
11
#180552
01
bxxxxxxxx B
#180672
00
#180720
11
#180768
10
#180792
b11010000 B
#180960
00
#181056
10
#181272
00
#181296
01
#181368
10
#181560
00
#181584
11
#181656
10
#181872
00
#181896
01
#181968
10
#182160
00
#182256
10
#182472
00
#182568
10
#182760
00
#182856
10
#183072
00
#183096
11
#183384
01
#184128
10
#184272
00
#184320
11
#184368
10
#184392
b10100010 B
#184560
00
#184584
01
#184656
10
#184872
00
#184896
11
#184968
10
#185160
00
#185184
01
#185256
10
#185472
00
#185568
10
#185760
00
#185856
10
#186072
00
#186096
11
#186168
10
#186360
00
#186384
01
#186456
10
#186672
00
#186696
11
#187080
01
#187128
10
#187272
00
#187368
10
#187392
b00110010 B
#187560
00
#187656
10
#187872
00
#187896
11
#187968
10
#188160
00
#188256
10
#188472
00
#188496
01
#188568
10
#188760
00
#188856
10
#189072
00
#189096
11
#189168
10
#189360
00
#189384
01
#189456
10
#189672
00
#189696
11
#190224
01
#190272
10
#190464
00
#190560
10
#190584
bxxxxxxxx B
#190776
11
#224544
00
#224568
10
#344952
01
bxxxxxxxx B
#345048
00
#345120
11
#345144
10
#345168
b11010010 B
#345336
00
#345456
10
#345648
00
#345672
01
#345744
10
#345936
00
#345984
11
#346056
10
#346248
00
#346272
01
#346344
10
#346536
00
#346656
10
#346848
00
#346872
11
#346944
10
#347136
00
#347184
01
#347256
10
#347448
00
#347472
11
#347760
01
#347928
10
#348048
00
#348096
11
#348144
10
#348168
b10100010 B
#348336
00
#348384
01
#348456
10
#348648
00
#348672
11
#348744
10
#348936
00
#348984
01
#349056
10
#349248
00
#349344
10
#349536
00
#349656
10
#349848
00
#349872
11
#349944
10
#350136
00
#350184
01
#350256
10
#350448
00
#350472
11
#350856
01
#350904
10
#351048
00
#351096
11
#351144
10
#351168
b11010000 B
#351336
00
#351456
10
#351648
00
#351672
01
#351744
10
#351936
00
#351984
11
#352056
10
#352248
00
#352272
01
#352344
10
#352536
00
#352656
10
#352848
00
#352944
10
#353136
00
#353256
10
#353448
00
#353472
11
#354000
01
#354048
10
#354240
00
#354336
10
#354360
bxxxxxxxx B
#354552
11
#354744
01
bxxxxxxxx B
#354840
00
#354912
11
#354936
10
#354960
b11010100 B
#355152
00
#355248
10
#355440
00
#355464
01
#355536
10
#355752
00
#355776
11
#355848
10
#356040
00
#356064
01
#356136
10
#356352
00
#356376
11
#356448
10
#356640
00
#356664
01
#356736
10
#356952
00
#357048
10
#357240
00
#357264
11
#357576
01
#357720
10
#357840
00
#357912
11
#357936
10
#357960
b10100010 B
#358152
00
#358176
01
#358248
10
#358440
00
#358464
11
#358536
10
#358752
00
#358776
01
#358848
10
#359040
00
#359136
10
#359352
00
#359448
10
#359640
00
#359664
11
#359736
10
#359952
00
#359976
01
#360048
10
#360240
00
#360264
11
#360672
01
#360696
10
#360840
00
#360912
11
#360936
10
#360960
b11001000 B
#361152
00
#361248
10
#361440
00
#361464
01
#361536
10
#361752
00
#361848
10
#362040
00
#362064
11
#362136
10
#362352
00
#362376
01
#362448
10
#362640
00
#362736
10
#362952
00
#363048
10
#363240
00
#363264
11
#363792
01
#363840
10
#364056
00
#364152
10
#364176
bxxxxxxxx B
#364344
11
#364536
01
bxxxxxxxx B
#364656
00
#364704
11
#364752
10
#364776
b11010110 B
#364944
00
#365040
10
#365232
00
#365280
01
#365352
10
#365544
00
#365568
11
#365640
10
#365832
00
#365880
01
#365952
10
#366144
00
#366168
11
#366240
10
#366432
00
#366552
10
#366744
00
#366768
01
#366840
10
#367032
00
#367080
11
#367368
01
#367512
10
#367632
00
#367704
11
#367752
10
#367776
b10100010 B
#367944
00
#367968
01
#368040
10
#368232
00
#368280
11
#368352
10
#368544
00
#368568
01
#368640
10
#368832
00
#368952
10
#369144
00
#369240
10
#369432
00
#369480
11
#369552
10
#369744
00
#369768
01
#369840
10
#370032
00
#370080
11
#370464
01
#370512
10
#370632
00
#370752
10
#370776
b01100111 B
#370944
00
#370968
11
#371040
10
#371232
00
#371352
10
#371544
00
#371568
01
#371640
10
#371832
00
#371952
10
#372144
00
#372168
11
#372240
10
#372432
00
#372552
10
#372744
00
#372840
10
#373032
00
#373608
01
#373656
10
#373848
00
#373944
10
#373968
bxxxxxxxx B
#374136
11
#374352
01
bxxxxxxxx B
#374448
00
#374520
11
#374544
10
#374568
b11010000 B
#374736
00
#374856
10
#375048
00
#375072
01
#375144
10
#375336
00
#375384
11
#375456
10
#375648
00
#375672
01
#375744
10
#375936
00
#376056
10
#376248
00
#376344
10
#376536
00
#376656
10
#376848
00
#376872
11
#377160
01
#377544
10
#377736
00
#377808
11
#377856
10
#377880
b10100010 B
#378048
00
#378072
01
#378144
10
#378336
00
#378384
11
#378456
10
#378648
00
#378672
01
#378744
10
#378936
00
#379056
10
#379248
00
#379344
10
#379536
00
#379584
11
#379656
10
#379848
00
#379872
01
#379944
10
#380136
00
#380184
11
#380544
01
#380592
10
#380736
00
#380856
10
#380880
b00110010 B
#381048
00
#381144
10
#381336
00
#381384
11
#381456
10
#381648
00
#381744
10
#381936
00
#381960
01
#382056
10
#382248
00
#382344
10
#382536
00
#382584
11
#382656
10
#382848
00
#382872
01
#382944
10
#383136
00
#383184
11
#383712
01
#383760
10
#383952
00
#384048
10
#384072
bxxxxxxxx B
#384240
11
#542136
01
bxxxxxxxx B
#542232
00
#542280
11
#542328
10
#542352
b11010010 B
#542520
00
#542616
10
#542832
00
#542856
01
#542928
10
#543120
00
#543144
11
#543216
10
#543432
00
#543456
01
#543528
10
#543720
00
#543816
10
#544032
00
#544056
11
#544128
10
#544320
00
#544344
01
#544416
10
#544632
00
#544656
11
#544944
01
#545088
10
#545232
00
#545280
11
#545328
10
#545352
b10100010 B
#545520
00
#545544
01
#545616
10
#545832
00
#545856
11
#545928
10
#546120
00
#546144
01
#546216
10
#546432
00
#546528
10
#546720
00
#546816
10
#547032
00
#547056
11
#547128
10
#547320
00
#547344
01
#547416
10
#547632
00
#547656
11
#548040
01
#548088
10
#548232
00
#548280
11
#548328
10
#548352
b11010001 B
#548520
00
#548616
10
#548832
00
#548856
01
#548928
10
#549120
00
#549144
11
#549216
10
#549432
00
#549456
01
#549528
10
#549720
00
#549816
10
#550032
00
#550128
10
#550320
00
#550344
11
#550416
10
#550632
00
#551184
01
#551232
10
#551424
00
#551520
10
#551544
bxxxxxxxx B
#551736
11
#551928
01
bxxxxxxxx B
#552024
00
#552096
11
#552120
10
#552144
b11010100 B
#552336
00
#552432
10
#552624
00
#552648
01
#552720
10
#552936
00
#552960
11
#553032
10
#553224
00
#553248
01
#553320
10
#553536
00
#553560
11
#553632
10
#553824
00
#553848
01
#553920
10
#554136
00
#554232
10
#554424
00
#554448
11
#554760
01
#554904
10
#555024
00
#555072
11
#555120
10
#555144
b10100010 B
#555336
00
#555360
01
#555432
10
#555624
00
#555648
11
#555720
10
#555936
00
#555960
01
#556032
10
#556224
00
#556320
10
#556512
00
#556632
10
#556824
00
#556848
11
#556920
10
#557112
00
#557160
01
#557232
10
#557424
00
#557448
11
#557832
01
#557880
10
#558024
00
#558072
11
#558120
10
#558144
b11001000 B
#558312
00
#558432
10
#558624
00
#558648
01
#558720
10
#558912
00
#559032
10
#559224
00
#559248
11
#559320
10
#559512
00
#559560
01
#559632
10
#559824
00
#559920
10
#560112
00
#560232
10
#560424
00
#560448
11
#560976
01
#561024
10
#561216
00
#561336
10
#561360
bxxxxxxxx B
#561528
11
#561720
01
bxxxxxxxx B
#561816
00
#561888
11
#561936
10
#561960
b11010110 B
#562128
00
#562224
10
#562416
00
#562440
01
#562536
10
#562728
00
#562752
11
#562824
10
#563016
00
#563040
01
#563136
10
#563328
00
#563352
11
#563424
10
#563616
00
#563736
10
#563928
00
#563952
01
#564024
10
#564216
00
#564264
11
#564552
01
#564696
10
#564816
00
#564888
11
#564936
10
#564960
b10100010 B
#565128
00
#565152
01
#565224
10
#565416
00
#565464
11
#565536
10
#565728
00
#565752
01
#565824
10
#566016
00
#566136
10
#566328
00
#566424
10
#566616
00
#566664
11
#566736
10
#566928
00
#566952
01
#567024
10
#567216
00
#567264
11
#567624
01
#567672
10
#567816
00
#567936
10
#567960
b01100111 B
#568128
00
#568152
11
#568224
10
#568416
00
#568536
10
#568728
00
#568752
01
#568824
10
#569016
00
#569136
10
#569328
00
#569352
11
#569424
10
#569616
00
#569736
10
#569928
00
#570024
10
#570216
00
#570792
01
#570840
10
#571032
00
#571128
10
#571152
bxxxxxxxx B
#571320
11
#571512
01
bxxxxxxxx B
#571632
00
#571680
11
#571728
10
#571752
b11010000 B
#571920
00
#572016
10
#572232
00
#572256
01
#572328
10
#572520
00
#572544
11
#572616
10
#572832
00
#572856
01
#572928
10
#573120
00
#573216
10
#573432
00
#573528
10
#573720
00
#573816
10
#574032
00
#574056
11
#574344
01
#574488
10
#574632
00
#574680
11
#574728
10
#574752
b10100010 B
#574920
00
#574944
01
#575016
10
#575232
00
#575256
11
#575328
10
#575520
00
#575544
01
#575616
10
#575832
00
#575928
10
#576120
00
#576216
10
#576432
00
#576456
11
#576528
10
#576720
00
#576744
01
#576816
10
#577032
00
#577056
11
#577440
01
#577488
10
#577632
00
#577728
10
#577752
b00110010 B
#577920
00
#578016
10
#578232
00
#578256
11
#578328
10
#578520
00
#578616
10
#578832
00
#578856
01
#578928
10
#579120
00
#579216
10
#579432
00
#579456
11
#579528
10
#579720
00
#579744
01
#579816
10
#580032
00
#580056
11
#580584
01
#580632
10
#580824
00
#580920
10
#580944
bxxxxxxxx B
#581136
11
#742896
01
bxxxxxxxx B
#743016
00
#743064
11
#743112
10
#743136
b11010010 B
#743304
00
#743400
10
#743616
00
#743640
01
#743712
10
#743904
00
#743928
11
#744000
10
#744216
00
#744240
01
#744312
10
#744504
00
#744600
10
#744816
00
#744840
11
#744912
10
#745104
00
#745128
01
#745200
10
#745416
00
#745440
11
#745728
01
#745872
10
#746016
00
#746064
11
#746112
10
#746136
b10100010 B
#746304
00
#746328
01
#746400
10
#746592
00
#746640
11
#746712
10
#746904
00
#746928
01
#747000
10
#747192
00
#747312
10
#747504
00
#747600
10
#747792
00
#747840
11
#747912
10
#748104
00
#748128
01
#748200
10
#748392
00
#748440
11
#748824
01
#748872
10
#748992
00
#749064
11
#749112
10
#749136
b11010000 B
#749304
00
#749400
10
#749592
00
#749640
01
#749712
10
#749904
00
#749928
11
#750000
10
#750192
00
#750240
01
#750312
10
#750504
00
#750600
10
#750792
00
#750912
10
#751104
00
#751200
10
#751392
00
#751440
11
#751968
01
#752016
10
#752208
00
#752304
10
#752328
bxxxxxxxx B
#752496
11
#752712
01
bxxxxxxxx B
#752808
00
#752880
11
#752904
10
#752928
b11010100 B
#753096
00
#753216
10
#753408
00
#753432
01
#753504
10
#753696
00
#753744
11
#753816
10
#754008
00
#754032
01
#754104
10
#754296
00
#754344
11
#754416
10
#754608
00
#754632
01
#754704
10
#754896
00
#755016
10
#755208
00
#755232
11
#755520
01
#755664
10
#755808
00
#755856
11
#755904
10
#755928
b10100010 B
#756096
00
#756120
01
#756216
10
#756408
00
#756432
11
#756504
10
#756696
00
#756720
01
#756816
10
#757008
00
#757104
10
#757296
00
#757416
10
#757608
00
#757632
11
#757704
10
#757896
00
#757920
01
#758016
10
#758208
00
#758232
11
#758808
01
#758856
10
#759000
00
#759048
11
#759096
10
#759120
b11001001 B
#759312
00
#759408
10
#759600
00
#759624
01
#759696
10
#759912
00
#760008
10
#760200
00
#760224
11
#760296
10
#760512
00
#760536
01
#760608
10
#760800
00
#760896
10
#761112
00
#761136
11
#761208
10
#761400
00
#761976
01
#762024
10
#762192
00
#762312
10
#762336
bxxxxxxxx B
#762504
11
#762696
01
bxxxxxxxx B
#762792
00
#762864
11
#762912
10
#762936
b11010110 B
#763104
00
#763200
10
#763392
00
#763440
01
#763512
10
#763704
00
#763728
11
#763800
10
#763992
00
#764040
01
#764112
10
#764304
00
#764328
11
#764400
10
#764592
00
#764712
10
#764904
00
#764928
01
#765000
10
#765192
00
#765240
11
#765528
01
#765672
10
#765792
00
#765864
11
#765912
10
#765936
b10100010 B
#766104
00
#766128
01
#766200
10
#766392
00
#766440
11
#766512
10
#766704
00
#766728
01
#766800
10
#766992
00
#767112
10
#767304
00
#767400
10
#767592
00
#767640
11
#767712
10
#767904
00
#767928
01
#768000
10
#768192
00
#768240
11
#768600
01
#768648
10
#768792
00
#768912
10
#768936
b01101001 B
#769104
00
#769128
11
#769200
10
#769392
00
#769512
10
#769704
00
#769728
01
#769800
10
#769992
00
#770040
11
#770112
10
#770304
00
#770328
01
#770400
10
#770592
00
#770712
10
#770904
00
#770928
11
#771000
10
#771192
00
#771768
01
#771816
10
#772008
00
#772104
10
#772128
bxxxxxxxx B
#772296
11
#772512
01
bxxxxxxxx B
#772608
00
#772680
11
#772704
10
#772728
b11010000 B
#772896
00
#772992
10
#773208
00
#773232
01
#773304
10
#773496
00
#773520
11
#773592
10
#773808
00
#773832
01
#773904
10
#774096
00
#774192
10
#774408
00
#774504
10
#774696
00
#774792
10
#775008
00
#775032
11
#775320
01
#775464
10
#775608
00
#775656
11
#775704
10
#775728
b10100010 B
#775896
00
#775920
01
#775992
10
#776208
00
#776232
11
#776304
10
#776496
00
#776520
01
#776592
10
#776808
00
#776904
10
#777096
00
#777192
10
#777408
00
#777432
11
#777504
10
#777696
00
#777720
01
#777792
10
#778008
00
#778032
11
#778416
01
#778464
10
#778608
00
#778704
10
#778728
b00110010 B
#778896
00
#778992
10
#779208
00
#779232
11
#779304
10
#779496
00
#779592
10
#779808
00
#779832
01
#779904
10
#780096
00
#780192
10
#780408
00
#780432
11
#780504
10
#780696
00
#780720
01
#780792
10
#781008
00
#781032
11
#781560
01
#781608
10
#781800
00
#781896
10
#781920
bxxxxxxxx B
#782112
11
#946776
01
bxxxxxxxx B
#946872
00
#946944
11
#946992
10
#947016
b11010010 B
#947184
00
#947280
10
#947472
00
#947520
01
#947592
10
#947784
00
#947808
11
#947880
10
#948072
00
#948120
01
#948192
10
#948384
00
#948480
10
#948672
00
#948720
11
#948792
10
#948984
00
#949008
01
#949080
10
#949272
00
#949320
11
#949608
01
#949752
10
#949872
00
#949944
11
#949992
10
#950016
b10100010 B
#950184
00
#950208
01
#950280
10
#950472
00
#950520
11
#950592
10
#950784
00
#950808
01
#950880
10
#951072
00
#951192
10
#951384
00
#951480
10
#951672
00
#951720
11
#951792
10
#951984
00
#952008
01
#952080
10
#952272
00
#952320
11
#952704
01
#952752
10
#952872
00
#952944
11
#952992
10
#953016
b11010000 B
#953184
00
#953280
10
#953472
00
#953520
01
#953592
10
#953784
00
#953808
11
#953880
10
#954072
00
#954120
01
#954192
10
#954384
00
#954480
10
#954672
00
#954792
10
#954984
00
#955080
10
#955272
00
#955320
11
#955848
01
#955896
10
#956088
00
#956184
10
#956208
bxxxxxxxx B
#956376
11
#956592
01
bxxxxxxxx B
#956688
00
#956736
11
#956784
10
#956808
b11010100 B
#956976
00
#957096
10
#957288
00
#957312
01
#957384
10
#957576
00
#957624
11
#957696
10
#957888
00
#957912
01
#957984
10
#958176
00
#958224
11
#958296
10
#958488
00
#958512
01
#958584
10
#958776
00
#958896
10
#959088
00
#959112
11
#959400
01
#959544
10
#959688
00
#959736
11
#959784
10
#959808
b10100010 B
#959976
00
#960000
01
#960072
10
#960288
00
#960312
11
#960384
10
#960576
00
#960600
01
#960672
10
#960888
00
#960984
10
#961176
00
#961272
10
#961488
00
#961512
11
#961584
10
#961776
00
#961800
01
#961872
10
#962088
00
#962112
11
#962496
01
#962544
10
#962688
00
#962736
11
#962784
10
#962808
b11001010 B
#962976
00
#963072
10
#963288
00
#963312
01
#963384
10
#963576
00
#963672
10
#963888
00
#963912
11
#963984
10
#964176
00
#964200
01
#964272
10
#964488
00
#964512
11
#964584
10
#964776
00
#964800
01
#964872
10
#965088
00
#965112
11
#965640
01
#965688
10
#965880
00
#965976
10
#966000
bxxxxxxxx B
#966192
11
#966384
01
bxxxxxxxx B
#966480
00
#966552
11
#966576
10
#966600
b11010110 B
#966792
00
#966888
10
#967080
00
#967104
01
#967176
10
#967392
00
#967416
11
#967488
10
#967680
00
#967704
01
#967776
10
#967992
00
#968016
11
#968088
10
#968280
00
#968376
10
#968592
00
#968616
01
#968688
10
#968880
00
#968904
11
#969192
01
#969336
10
#969480
00
#969528
11
#969576
10
#969600
b10100010 B
#969792
00
#969816
01
#969888
10
#970080
00
#970104
11
#970176
10
#970392
00
#970416
01
#970488
10
#970680
00
#970776
10
#970992
00
#971088
10
#971280
00
#971304
11
#971376
10
#971592
00
#971616
01
#971688
10
#971880
00
#971904
11
#972288
01
#972336
10
#972480
00
#972576
10
#972600
b01100110 B
#972792
00
#972816
11
#972888
10
#973080
00
#973176
10
#973392
00
#973416
01
#973488
10
#973680
00
#973776
10
#973992
00
#974016
11
#974088
10
#974280
00
#974376
10
#974592
00
#974616
01
#974688
10
#974880
00
#974904
11
#975432
01
#975480
10
#975672
00
#975792
10
#975816
bxxxxxxxx B
#975984
11
#976176
01
bxxxxxxxx B
#976272
00
#976344
11
#976392
10
#976416
b11010000 B
#976584
00
#976680
10
#976872
00
#976896
01
#976992
10
#977184
00
#977208
11
#977280
10
#977472
00
#977496
01
#977592
10
#977784
00
#977880
10
#978072
00
#978192
10
#978384
00
#978480
10
#978672
00
#978720
11
#979008
01
#979152
10
#979272
00
#979344
11
#979392
10
#979416
b10100010 B
#979584
00
#979608
01
#979680
10
#979872
00
#979920
11
#979992
10
#980184
00
#980208
01
#980280
10
#980472
00
#980592
10
#980784
00
#980880
10
#981072
00
#981120
11
#981192
10
#981384
00
#981408
01
#981480
10
#981672
00
#981720
11
#982080
01
#982128
10
#982272
00
#982392
10
#982416
b00110010 B
#982584
00
#982680
10
#982872
00
#982920
11
#982992
10
#983184
00
#983280
10
#983472
00
#983496
01
#983592
10
#983784
00
#983880
10
#984072
00
#984120
11
#984192
10
#984384
00
#984408
01
#984480
10
#984672
00
#984720
11
#985248
01
#985296
10
#985488
00
#985584
10
#985608
bxxxxxxxx B
#985776
11
#1142664
01
bxxxxxxxx B
#1142760
00
#1142832
11
#1142856
10
#1142880
b11010010 B
#1143072
00
#1143168
10
#1143360
00
#1143384
01
#1143456
10
#1143672
00
#1143696
11
#1143768
10
#1143960
00
#1143984
01
#1144056
10
#1144272
00
#1144368
10
#1144560
00
#1144584
11
#1144656
10
#1144872
00
#1144896
01
#1144968
10
#1145160
00
#1145184
11
#1145496
01
#1145640
10
#1145760
00
#1145808
11
#1145856
10
#1145880
b10100010 B
#1146072
00
#1146096
01
#1146168
10
#1146360
00
#1146384
11
#1146456
10
#1146672
00
#1146696
01
#1146768
10
#1146960
00
#1147056
10
#1147272
00
#1147368
10
#1147560
00
#1147584
11
#1147656
10
#1147872
00
#1147896
01
#1147968
10
#1148160
00
#1148184
11
#1148568
01
#1148616
10
#1148760
00
#1148808
11
#1148856
10
#1148880
b11010000 B
#1149072
00
#1149168
10
#1149360
00
#1149384
01
#1149456
10
#1149672
00
#1149696
11
#1149768
10
#1149960
00
#1149984
01
#1150056
10
#1150272
00
#1150368
10
#1150560
00
#1150656
10
#1150872
00
#1150968
10
#1151160
00
#1151184
11
#1151712
01
#1151760
10
#1151952
00
#1152072
10
#1152096
bxxxxxxxx B
#1152264
11
#1152456
01
bxxxxxxxx B
#1152552
00
#1152624
11
#1152672
10
#1152696
b11010100 B
#1152864
00
#1152960
10
#1153152
00
#1153200
01
#1153272
10
#1153464
00
#1153488
11
#1153560
10
#1153752
00
#1153800
01
#1153872
10
#1154064
00
#1154088
11
#1154160
10
#1154352
00
#1154400
01
#1154472
10
#1154664
00
#1154760
10
#1154952
00
#1155000
11
#1155288
01
#1155432
10
#1155552
00
#1155624
11
#1155672
10
#1155696
b10100010 B
#1155864
00
#1155888
01
#1155960
10
#1156152
00
#1156200
11
#1156272
10
#1156464
00
#1156488
01
#1156560
10
#1156752
00
#1156872
10
#1157064
00
#1157160
10
#1157352
00
#1157400
11
#1157472
10
#1157664
00
#1157688
01
#1157760
10
#1157952
00
#1158000
11
#1158360
01
#1158408
10
#1158552
00
#1158624
11
#1158672
10
#1158696
b11001001 B
#1158864
00
#1158960
10
#1159152
00
#1159176
01
#1159272
10
#1159464
00
#1159560
10
#1159752
00
#1159800
11
#1159872
10
#1160064
00
#1160088
01
#1160160
10
#1160352
00
#1160472
10
#1160664
00
#1160688
11
#1160760
10
#1160952
00
#1161528
01
#1161552
10
#1161768
00
#1161864
10
#1161888
bxxxxxxxx B
#1162056
11
#1162272
01
bxxxxxxxx B
#1162368
00
#1162440
11
#1162464
10
#1162488
b11010110 B
#1162656
00
#1162752
10
#1162968
00
#1162992
01
#1163064
10
#1163256
00
#1163280
11
#1163352
10
#1163568
00
#1163592
01
#1163664
10
#1163856
00
#1163880
11
#1163952
10
#1164168
00
#1164264
10
#1164456
00
#1164480
01
#1164552
10
#1164768
00
#1164792
11
#1165080
01
#1165224
10
#1165368
00
#1165416
11
#1165464
10
#1165488
b10100010 B
#1165656
00
#1165680
01
#1165752
10
#1165968
00
#1165992
11
#1166064
10
#1166256
00
#1166280
01
#1166352
10
#1166568
00
#1166664
10
#1166856
00
#1166952
10
#1167168
00
#1167192
11
#1167264
10
#1167456
00
#1167480
01
#1167552
10
#1167768
00
#1167792
11
#1168176
01
#1168224
10
#1168368
00
#1168464
10
#1168488
b01100110 B
#1168656
00
#1168680
11
#1168752
10
#1168968
00
#1169064
10
#1169256
00
#1169280
01
#1169352
10
#1169568
00
#1169664
10
#1169856
00
#1169880
11
#1169952
10
#1170168
00
#1170264
10
#1170456
00
#1170480
01
#1170552
10
#1170768
00
#1170792
11
#1171320
01
#1171368
10
#1171560
00
#1171656
10
#1171680
bxxxxxxxx B
#1171872
11
#1172064
01
bxxxxxxxx B
#1172160
00
#1172232
11
#1172256
10
#1172280
b11010000 B
#1172448
00
#1172568
10
#1172760
00
#1172784
01
#1172856
10
#1173048
00
#1173096
11
#1173168
10
#1173360
00
#1173384
01
#1173456
10
#1173648
00
#1173768
10
#1173960
00
#1174056
10
#1174248
00
#1174368
10
#1174560
00
#1174584
11
#1174896
01
#1175040
10
#1175160
00
#1175208
11
#1175256
10
#1175280
b10100010 B
#1175448
00
#1175496
01
#1175568
10
#1175760
00
#1175784
11
#1175856
10
#1176048
00
#1176096
01
#1176168
10
#1176360
00
#1176456
10
#1176648
00
#1176768
10
#1176960
00
#1176984
11
#1177056
10
#1177248
00
#1177296
01
#1177368
10
#1177560
00
#1177584
11
#1177968
01
#1178016
10
#1178160
00
#1178256
10
#1178280
b00110010 B
#1178448
00
#1178568
10
#1178760
00
#1178784
11
#1178856
10
#1179048
00
#1179168
10
#1179360
00
#1179384
01
#1179456
10
#1179648
00
#1179768
10
#1179960
00
#1179984
11
#1180056
10
#1180248
00
#1180296
01
#1180368
10
#1180560
00
#1180584
11
#1181112
01
#1181160
10
#1181352
00
#1181472
10
#1181496
bxxxxxxxx B
#1181664
11
#1346136
01
bxxxxxxxx B
#1346232
00
#1346304
11
#1346352
10
#1346376
b11010010 B
#1346544
00
#1346640
10
#1346832
00
#1346856
01
#1346952
10
#1347144
00
#1347168
11
#1347240
10
#1347432
00
#1347456
01
#1347552
10
#1347744
00
#1347840
10
#1348032
00
#1348080
11
#1348152
10
#1348344
00
#1348368
01
#1348440
10
#1348632
00
#1348680
11
#1348968
01
#1349112
10
#1349232
00
#1349304
11
#1349352
10
#1349376
b10100010 B
#1349544
00
#1349568
01
#1349640
10
#1349832
00
#1349880
11
#1349952
10
#1350144
00
#1350168
01
#1350240
10
#1350432
00
#1350552
10
#1350744
00
#1350840
10
#1351032
00
#1351080
11
#1351152
10
#1351344
00
#1351368
01
#1351440
10
#1351632
00
#1351680
11
#1352040
01
#1352088
10
#1352232
00
#1352304
11
#1352352
10
#1352376
b11001111 B
#1352544
00
#1352640
10
#1352832
00
#1352856
01
#1352952
10
#1353144
00
#1353240
10
#1353432
00
#1353480
11
#1353552
10
#1353744
00
#1353840
10
#1354032
00
#1354152
10
#1354344
00
#1354440
10
#1354632
00
#1355208
01
#1355256
10
#1355448
00
#1355544
10
#1355568
bxxxxxxxx B
#1355736
11
#1355928
01
bxxxxxxxx B
#1356048
00
#1356096
11
#1356144
10
#1356168
b11010100 B
#1356336
00
#1356432
10
#1356648
00
#1356672
01
#1356744
10
#1356936
00
#1356960
11
#1357032
10
#1357248
00
#1357272
01
#1357344
10
#1357536
00
#1357560
11
#1357632
10
#1357848
00
#1357872
01
#1357944
10
#1358136
00
#1358232
10
#1358448
00
#1358472
11
#1358760
01
#1358904
10
#1359048
00
#1359096
11
#1359144
10
#1359168
b10100010 B
#1359336
00
#1359360
01
#1359432
10
#1359648
00
#1359672
11
#1359744
10
#1359936
00
#1359960
01
#1360032
10
#1360248
00
#1360344
10
#1360536
00
#1360632
10
#1360848
00
#1360872
11
#1360944
10
#1361136
00
#1361160
01
#1361232
10
#1361448
00
#1361472
11
#1361856
01
#1361904
10
#1362048
00
#1362096
11
#1362144
10
#1362168
b11001010 B
#1362336
00
#1362432
10
#1362648
00
#1362672
01
#1362744
10
#1362936
00
#1363032
10
#1363248
00
#1363272
11
#1363344
10
#1363536
00
#1363560
01
#1363632
10
#1363848
00
#1363872
11
#1363944
10
#1364136
00
#1364160
01
#1364232
10
#1364448
00
#1364472
11
#1365000
01
#1365048
10
#1365240
00
#1365336
10
#1365360
bxxxxxxxx B
#1365552
11
#1365744
01
bxxxxxxxx B
#1365840
00
#1365912
11
#1365936
10
#1365960
b11010110 B
#1366128
00
#1366248
10
#1366440
00
#1366464
01
#1366536
10
#1366728
00
#1366776
11
#1366848
10
#1367040
00
#1367064
01
#1367136
10
#1367328
00
#1367376
11
#1367448
10
#1367640
00
#1367736
10
#1367928
00
#1367976
01
#1368048
10
#1368240
00
#1368264
11
#1368552
01
#1368696
10
#1368840
00
#1368888
11
#1368936
10
#1368960
b10100010 B
#1369128
00
#1369176
01
#1369248
10
#1369440
00
