sniffer/logs/85.vcd
$date
  January 12, 2012
$end
$version
  ChronoVu LA-8 Version 3.06 
$end
$comment
  File: C:\Users\Mat\Desktop\Mat\Sniff\85.kdt
  from sample 0 to sample 4521986
$end
$timescale 10 ns $end
$scope module la8 $end
$var wire 1 0 SCL_(clock) $end
$var wire 1 1 SDA_(data) $end
$var wire 8 B I2C Bus $end
$upscope $end
$enddefinitions $end
$dumpvars
10
11
bxxxxxxxx B
$end
#0
10
11
bxxxxxxxx B
#24
bxxxxxxxx B
#90312
01
bxxxxxxxx B
#90408
00
#90480
11
#90504
10
#90528
b11010010 B
#90696
00
#90816
10
#91008
00
#91032
01
#91104
10
#91296
00
#91344
11
#91416
10
#91608
00
#91632
01
#91704
10
#91896
00
#92016
10
#92208
00
#92232
11
#92304
10
#92496
00
#92544
01
#92616
10
#92808
00
#92832
11
#93120
01
#93288
10
#93408
00
#93456
11
#93504
10
#93528
b10100010 B
#93696
00
#93744
01
#93816
10
#94008
00
#94032
11
#94104
10
#94296
00
#94344
01
#94416
10
#94608
00
#94704
10
#94896
00
#95016
10
#95208
00
#95232
11
#95304
10
#95496
00
#95544
01
#95616
10
#95808
00
#95832
11
#96216
01
#96264
10
#96408
00
#96456
11
#96504
10
#96528
b11111010 B
#96696
00
#96816
10
#97008
00
#97104
10
#97296
00
#97416
10
#97608
00
#97704
10
#97896
00
#97944
01
#98016
10
#98208
00
#98232
11
#98304
10
#98496
00
#98544
01
#98616
10
#98808
00
#98832
11
#99360
01
#99408
10
#99600
00
#99720
10
#99744
bxxxxxxxx B
#99912
11
#100104
01
bxxxxxxxx B
#100200
00
#100272
11
#100608
10
#100632
b11010100 B
#100800
00
#100896
10
#101112
00
#101136
01
#101208
10
#101400
00
#101424
11
#101496
10
#101712
00
#101736
01
#101808
10
#102000
00
#102024
11
#102096
10
#102312
00
#102336
01
#102408
10
#102600
00
#102696
10
#102912
00
#102936
11
#103224
01
#103368
10
#103512
00
#103560
11
#103608
10
#103632
b10100010 B
#103800
00
#103824
01
#103896
10
#104112
00
#104136
11
#104208
10
#104400
00
#104424
01
#104496
10
#104712
00
#104808
10
#105000
00
#105096
10
#105312
00
#105336
11
#105408
10
#105600
00
#105624
01
#105696
10
#105912
00
#105936
11
#106056
10
#106080
00
#106320
01
#106368
10
#106392
b00110010 B
#106512
00
#106608
10
#106800
00
#106824
11
#106896
10
#107112
00
#107208
10
#107400
00
#107424
01
#107496
10
#107712
00
#107808
10
#108000
00
#108024
11
#108096
10
#108312
00
#108336
01
#108408
10
#108600
00
#108696
10
#108912
00
#108936
11
#109464
01
#109512
10
#109536
bxxxxxxxx B
#109704
00
#109800
10
#110016
11
#110208
01
bxxxxxxxx B
#110304
00
#110376
11
#110400
10
#110424
b11010110 B
#110616
00
#110712
10
#110904
00
#110928
01
#111000
10
#111216
00
#111240
11
#111312
10
#111504
00
#111528
01
#111600
10
#111816
00
#111840
11
#111912
10
#112104
00
#112200
10
#112416
00
#112440
01
#112512
10
#112704
00
#112728
11
#113040
01
#113184
10
#113304
00
#113352
11
#113400
10
#113424
b10100010 B
#113592
00
#113640
01
#113712
10
#113904
00
#113928
11
#114000
10
#114192
00
#114240
01
#114312
10
#114504
00
#114600
10
#114792
00
#114912
10
#115104
00
#115128
11
#115200
10
#115392
00
#115440
01
#115512
10
#115704
00
#115728
11
#116328
01
#116376
10
#116496
00
#116616
10
#116640
b01000001 B
#116808
00
#116832
11
#116904
10
#117096
00
#117120
01
#117216
10
#117408
00
#117504
10
#117696
00
#117816
10
#118008
00
#118104
10
#118296
00
#118416
10
#118608
00
#118632
11
#118704
10
#118896
00
#119472
01
#119520
10
#119712
00
#119808
10
#119832
bxxxxxxxx B
#120000
11
#120192
01
bxxxxxxxx B
#120312
00
#120360
11
#120408
10
#120432
b11010000 B
#120600
00
#120696
10
#120912
00
#120936
01
#121008
10
#121200
00
#121224
11
#121296
10
#121512
00
#121536
01
#121608
10
#121800
00
#121896
10
#122112
00
#122208
10
#122400
00
#122496
10
#122712
00
#122736
11
#123024
01
#123168
10
#123312
00
#123360
11
#123408
10
#123432
b10100010 B
#123600
00
#123624
01
#123696
10
#123912
00
#123936
11
#124008
10
#124200
00
#124224
01
#124296
10
#124512
00
#124608
10
#124800
00
#124896
10
#125112
00
#125136
11
#125208
10
#125400
00
#125424
01
#125496
10
#125712
00
#125736
11
#126120
01
#126168
10
#126312
00
#126408
10
#126432
b01111100 B
#126600
00
#126624
11
#126696
10
#126912
00
#127008
10
#127200
00
#127296
10
#127512
00
#127608
10
#127800
00
#127896
10
#128112
00
#128136
01
#128208
10
#128400
00
#128496
10
#128712
00
#128736
11
#129264
01
#129312
10
#129504
00
#129600
10
#129624
bxxxxxxxx B
#129816
11
#293184
01
bxxxxxxxx B
#293280
00
#293352
11
#293376
10
#293400
b11010010 B
#293592
00
#293688
10
#293880
00
#293904
01
#293976
10
#294192
00
#294216
11
#294288
10
#294480
00
#294504
01
#294576
10
#294792
00
#294888
10
#295080
00
#295104
11
#295176
10
#295392
00
#295416
01
#295488
10
#295680
00
#295704
11
#296016
01
#296160
10
#296280
00
#296328
11
#296376
10
#296400
b10100001 B
#296592
00
#296616
01
#296688
10
#296880
00
#296904
11
#296976
10
#297192
00
#297216
01
#297240
10
#297264
00
#297288
10
#297480
00
#297576
10
#297792
00
#297888
10
#298080
00
#298104
11
#298176
10
#298392
00
#298416
01
#298488
10
#298680
00
#298704
11
#299088
01
#299136
10
#299160
b01111101 B
#299280
00
#299328
11
#299376
10
#299592
00
#299688
10
#299880
00
#299976
10
#300192
00
#300288
10
#300480
00
#300576
10
#300792
00
#300816
01
#300888
10
#301080
00
#301104
11
#301176
10
#301392
00
#301416
01
#301488
10
#301680
00
#301704
11
#302256
01
#302304
10
#302328
bxxxxxxxx B
#302472
00
#302592
10
#302784
11
#302976
01
bxxxxxxxx B
#303072
00
#303168
11
#303192
10
#303216
b11010100 B
#303384
00
#303480
10
#303672
00
#303720
01
#303792
10
#303984
00
#304008
11
#304080
10
#304272
00
#304320
01
#304392
10
#304584
00
#304608
11
#304680
10
#304872
00
#304920
01
#304992
10
#305184
00
#305280
10
#305472
00
#305520
11
#305808
01
#305880
11
#306240
01
#306384
10
#306576
00
#306648
11
#306696
10
#306720
b10100010 B
#306888
00
#306912
01
#306984
10
#307176
00
#307224
11
#307296
10
#307488
00
#307512
01
#307584
10
#307776
00
#307896
10
#308088
00
#308184
10
#308376
00
#308424
11
#308496
10
#308688
00
#308712
01
#308784
10
#308976
00
#309024
11
#309384
01
#309432
10
#309576
00
#309696
10
#309720
b01100010 B
#309888
00
#309912
11
#309984
10
#310176
00
#310296
10
#310488
00
#310512
01
#310584
10
#310776
00
#310896
10
#311088
00
#311184
10
#311376
00
#311424
11
#311496
10
#311688
00
#311712
01
#311784
10
#311976
00
#312024
11
#312528
01
#312576
10
#312792
00
#312888
10
#312912
bxxxxxxxx B
#313080
11
#313272
01
bxxxxxxxx B
#313392
00
#313440
11
#313488
10
#313512
b11010110 B
#313680
00
#313776
10
#313992
00
#314016
01
#314088
10
#314280
00
#314304
11
#314376
10
#314592
00
#314616
01
#314688
10
#314880
00
#314904
11
#314976
10
#315192
00
#315288
10
#315480
00
#315504
01
#315576
10
#315792
00
#315816
11
#316104
01
#316248
10
#316392
00
#316440
11
#316488
10
#316512
b10100010 B
#316680
00
#316704
01
#316776
10
#316992
00
#317016
11
#317088
10
#317280
00
#317304
01
#317376
10
#317592
00
#317688
10
#317880
00
#317976
10
#318192
00
#318216
11
#318288
10
#318480
00
#318504
01
#318576
10
#318792
00
#318816
11
#319200
01
#319248
10
#319392
00
#319488
10
#319512
b01001000 B
#319680
00
#319704
11
#319776
10
#319992
00
#320016
01
#320088
10
#320280
00
#320376
10
#320592
00
#320616
11
#320688
10
#320880
00
#320904
01
#320976
10
#321192
00
#321288
10
#321480
00
#321576
10
#321792
00
#321816
11
#322344
01
#322392
10
#322584
00
#322680
10
#322704
bxxxxxxxx B
#322896
11
#323088
01
bxxxxxxxx B
#323184
00
#323256
11
#323280
10
#323304
b11010000 B
#323472
00
#323592
10
#323784
00
#323808
01
#323880
10
#324072
00
#324120
11
#324192
10
#324384
00
#324408
01
#324480
10
#324672
00
#324792
10
#324984
00
#325080
10
#325272
00
#325392
10
#325584
00
#325608
11
#325896
01
#326256
10
#326376
00
#326448
11
#326472
10
#326496
b10100010 B
#326688
00
#326712
01
#326784
10
#326976
00
#327000
11
#327096
10
#327288
00
#327312
01
#327384
10
#327576
00
#327672
10
#327888
00
#327984
10
#328176
00
#328200
11
#328272
10
#328488
00
#328512
01
#328584
10
#328776
00
#328800
11
#329208
01
#329256
10
#329376
00
#329472
10
#329496
b01110111 B
#329688
00
#329712
11
#329784
10
#329976
00
#330072
10
#330288
00
#330384
10
#330576
00
#330600
01
#330672
10
#330888
00
#330912
11
#330984
10
#331176
00
#331272
10
#331488
00
#331584
10
#331776
00
#332352
01
#332400
10
#332592
00
#332688
10
#332712
bxxxxxxxx B
#332880
11
#490272
01
bxxxxxxxx B
#490368
00
#490440
11
#490464
10
#490488
b11010010 B
#490656
00
#490776
10
#490968
00
#490992
01
#491064
10
#491256
00
#491304
11
#491376
10
#491568
00
#491592
01
#491664
10
#491856
00
#491976
10
#492168
00
#492192
11
#492264
10
#492456
00
#492480
01
#492576
10
#492768
00
#492792
11
#493080
01
#493224
10
#493368
00
#493416
11
#493464
10
#493488
b10100010 B
#493656
00
#493680
01
#493776
10
#493968
00
#493992
11
#494064
10
#494256
00
#494280
01
#494376
10
#494568
00
#494664
10
#494856
00
#494976
10
#495168
00
#495192
11
#495264
10
#495456
00
#495480
01
#495576
10
#495768
00
#495792
11
#496176
01
#496224
10
#496368
00
#496416
11
#496464
10
#496488
b11111010 B
#496656
00
#496776
10
#496968
00
#497064
10
#497256
00
#497376
10
#497568
00
#497664
10
#497856
00
#497880
01
#497976
10
#498168
00
#498192
11
#498264
10
#498456
00
#498480
01
#498576
10
#498768
00
#498792
11
#499320
01
#499368
10
#499560
00
#499608
11
#499992
01
#500064
10
#500088
bxxxxxxxx B
#500256
11
#500472
01
bxxxxxxxx B
#500568
00
#500640
11
#500664
10
#500688
b11010100 B
#500856
00
#500976
10
#501168
00
#501192
01
#501264
10
#501456
00
#501504
11
#501576
10
#501768
00
#501792
01
#501864
10
#502056
00
#502104
11
#502176
10
#502368
00
#502392
01
#502464
10
#502656
00
#502776
10
#502968
00
#502992
11
#503280
01
#503424
10
#503568
00
#503616
11
#503664
10
#503688
b10100010 B
#503856
00
#503880
01
#503976
10
#504168
00
#504192
11
#504264
10
#504456
00
#504480
01
#504576
10
#504768
00
#504864
10
#505056
00
#505176
10
#505368
00
#505392
11
#505464
10
#505656
00
#505680
01
#505776
10
#505968
00
#505992
11
#506376
01
#506424
10
#506568
00
#506664
10
#506688
b01100010 B
#506856
00
#506904
11
#506976
10
#507168
00
#507264
10
#507456
00
#507480
01
#507576
10
#507768
00
#507864
10
#508056
00
#508176
10
#508368
00
#508392
11
#508464
10
#508656
00
#508680
01
#508776
10
#508968
00
#508992
11
#509520
01
#509568
10
#509760
00
#509856
10
#509880
bxxxxxxxx B
#510072
11
#510264
01
bxxxxxxxx B
#510360
00
#510432
11
#510456
10
#510480
b11010110 B
#510672
00
#510768
10
#510960
00
#510984
01
#511056
10
#511272
00
#511296
11
#511368
10
#511560
00
#511584
01
#511656
10
#511872
00
#511896
11
#511968
10
#512160
00
#512256
10
#512472
00
#512496
01
#512568
10
#512760
00
#512784
11
#513096
01
#513240
10
#513360
00
#513408
11
#513456
10
#513480
b10100010 B
#513672
00
#513696
01
#513768
10
#513960
00
#513984
11
#514056
10
#514272
00
#514296
01
#514368
10
#514560
00
#514656
10
#514872
00
#514968
10
#515160
00
#515184
11
#515256
10
#515472
00
#515496
01
#515568
10
#515760
00
#515784
11
#516168
01
#516216
10
#516360
00
#516456
10
#516480
b01001110 B
#516672
00
#516696
11
#516768
10
#516960
00
#516984
01
#517056
10
#517272
00
#517368
10
#517560
00
#517584
11
#517656
10
#517872
00
#517968
10
#518160
00
#518256
10
#518472
00
#518496
01
#518568
10
#518760
00
#518784
11
#519120
10
#519144
00
#519312
01
#519360
10
#519384
bxxxxxxxx B
#519552
00
#519672
10
#519864
11
#520056
01
bxxxxxxxx B
#520152
00
#520224
11
#520272
10
#520296
b11010000 B
#520464
00
#520560
10
#520752
00
#520776
01
#520872
10
#521064
00
#521088
11
#521160
10
#521352
00
#521376
01
#521472
10
#521664
00
#521760
10
#521952
00
#522072
10
#522264
00
#522360
10
#522552
00
#522600
11
#522888
01
#523032
10
#523152
00
#523224
11
#523272
10
#523296
b10100010 B
#523464
00
#523488
01
#523560
10
#523752
00
#523800
11
#523872
10
#524064
00
#524088
01
#524160
10
#524352
00
#524472
10
#524664
00
#524760
10
#524952
00
#525000
11
#525072
10
#525264
00
#525288
01
#525360
10
#525552
00
#525600
11
#525984
01
#526008
10
#526152
00
#526272
10
#526296
b01110011 B
#526464
00
#526488
11
#526560
10
#526752
00
#526872
10
#527064
00
#527160
10
#527352
00
#527376
01
#527472
10
#527664
00
#527760
10
#527952
00
#528000
11
#528072
10
#528264
00
#528360
10
#528552
00
#529128
01
#529176
10
#529368
00
#529464
10
#529488
bxxxxxxxx B
#529656
11
#705336
01
bxxxxxxxx B
#705432
00
#705504
11
#705552
10
#705576
b11010010 B
#705744
00
#705840
10
#706032
00
#706080
01
#706152
10
#706344
00
#706368
11
#706440
10
#706632
00
#706680
01
#706752
10
#706944
00
#707040
10
#707232
00
#707280
11
#707352
10
#707544
00
#707568
01
#707640
10
#707832
00
#707880
11
#708168
01
#708312
10
#708432
00
#708504
11
#708552
10
#708576
b10100010 B
#708744
00
#708768
01
#708840
10
#709032
00
#709080
11
#709152
10
#709344
00
#709368
01
#709440
10
#709632
00
#709752
10
#709944
00
#710040
10
#710232
00
#710280
11
#710352
10
#710544
00
#710568
01
#710640
10
#710832
00
#710880
11
#711264
01
#711312
10
#711432
00
#711504
11
#711552
10
#711576
b11111010 B
#711744
00
#711840
10
#712032
00
#712152
10
#712344
00
#712440
10
#712632
00
#712752
10
#712944
00
#712968
01
#713040
10
#713232
00
#713280
11
#713352
10
#713544
00
#713568
01
#713640
10
#713832
00
#713880
11
#714408
01
#714456
10
#714648
00
#714744
10
#714768
bxxxxxxxx B
#714936
11
#715152
01
bxxxxxxxx B
#715248
00
#715320
11
#715344
10
#715368
b11010100 B
#715536
00
#715632
10
#715848
00
#715872
01
#715944
10
#716136
00
#716160
11
#716232
10
#716448
00
#716472
01
#716544
10
#716736
00
#716760
11
#716832
10
#717048
00
#717072
01
#717144
10
#717336
00
#717432
10
#717648
00
#717672
11
#717960
01
#718104
10
#718248
00
#718296
11
#718344
10
#718368
b10100010 B
#718536
00
#718560
01
#718632
10
#718848
00
#718872
11
#718944
10
#719136
00
#719160
01
#719232
10
#719448
00
#719544
10
#719736
00
#719832
10
#720048
00
#720072
11
#720144
10
#720336
00
#720360
01
#720432
10
#720648
00
#720672
11
#721056
01
#721104
10
#721248
00
#721344
10
#721368
b01100001 B
#721536
00
#721560
11
#721632
10
#721848
00
#721944
10
#722136
00
#722160
01
#722232
10
#722448
00
#722544
10
#722736
00
#722832
10
#723048
00
#723144
10
#723336
00
#723360
11
#723432
10
#723648
00
#724200
01
#724248
10
#724440
00
#724536
10
#724560
bxxxxxxxx B
#724752
11
#724944
01
bxxxxxxxx B
#725040
00
#725112
11
#725136
10
#725160
b11010110 B
#725328
00
#725448
10
#725640
00
#725664
01
#725736
10
#725928
00
#725976
11
#726048
10
#726240
00
#726264
01
#726336
10
#726528
00
#726576
11
#726648
10
#726840
00
#726936
10
#727128
00
#727176
01
#727248
10
#727440
00
#727464
11
#727752
01
#727896
10
#728040
00
#728088
11
#728136
10
#728160
b10100010 B
#728328
00
#728376
01
#728448
10
#728640
00
#728664
11
#728736
10
#728928
00
#728976
01
#729048
10
#729240
00
#729336
10
#729528
00
#729648
10
#729840
00
#729864
11
#729936
10
#730128
00
#730176
01
#730248
10
#730440
00
#730464
11
#731112
01
#731160
10
#731328
00
#731448
10
#731472
b01001101 B
#731640
00
#731664
11
#731736
10
#731928
00
#731976
01
#732048
10
#732240
00
#732336
10
#732528
00
#732576
11
#732648
10
#732840
00
#732936
10
#733128
00
#733176
01
#733248
10
#733440
00
#733464
11
#733536
10
#733728
00
#734304
01
#734352
10
#734544
00
#734640
10
#734664
bxxxxxxxx B
#734832
11
#735048
01
bxxxxxxxx B
#735144
00
#735216
11
#735240
10
#735264
b11010000 B
#735432
00
#735552
10
#735744
00
#735768
01
#735840
10
#736032
00
#736080
11
#736152
10
#736344
00
#736368
01
#736440
10
#736632
00
#736752
10
#736944
00
#737040
10
#737232
00
#737352
10
#737544
00
#737568
11
#737856
01
#738000
10
#738144
00
#738192
11
#738240
10
#738264
b10100010 B
#738432
00
#738456
01
#738552
10
#738744
00
#738768
11
#738840
10
#739032
00
#739056
01
#739152
10
#739344
00
#739440
10
#739632
00
#739752
10
#739944
00
#739968
11
#740040
10
#740232
00
#740256
01
#740352
10
#740544
00
#740568
11
#740952
01
#741000
10
#741144
00
#741240
10
#741264
b01110110 B
#741432
00
#741480
11
#741552
10
#741744
00
#741840
10
#742032
00
#742152
10
#742344
00
#742368
01
#742440
10
#742632
00
#742680
11
#742752
10
#742944
00
#743040
10
#743232
00
#743256
01
#743352
10
#743544
00
#743568
11
#744096
01
#744144
10
#744336
00
#744432
10
#744456
bxxxxxxxx B
#744648
11
#902832
01
bxxxxxxxx B
#902928
00
#902976
11
#903024
10
#903048
b11010010 B
#903216
00
#903312
10
#903528
00
#903552
01
#903624
10
#903816
00
#903840
11
#903912
10
#904128
00
#904152
01
#904224
10
#904416
00
#904512
10
#904728
00
#904752
11
#904824
10
#905016
00
#905040
01
#905112
10
#905328
00
#905352
11
#905640
01
#905784
10
#905928
00
#905976
11
#906024
10
#906048
b10100010 B
#906216
00
#906240
01
#906312
10
#906528
00
#906552
11
#906624
10
#906816
00
#906840
01
#906912
10
#907128
00
#907224
10
#907416
00
#907512
10
#907728
00
#907752
11
#907824
10
#908016
00
#908040
01
#908112
10
#908328
00
#908352
11
#908736
01
#908784
10
#908928
00
#908976
11
#909024
10
#909048
b11111010 B
#909216
00
#909312
10
#909528
00
#909624
10
#909816
00
#909912
10
#910128
00
#910224
10
#910416
00
#910440
01
#910512
10
#910728
00
#910752
11
#910824
10
#911016
00
#911040
01
#911112
10
#911328
00
#911352
11
#911880
01
#911928
10
#912120
00
#912216
10
#912240
bxxxxxxxx B
#912432
11
#912624
01
bxxxxxxxx B
#912720
00
#912792
11
#912816
10
#912840
b11010100 B
#913008
00
#913128
10
#913320
00
#913344
01
#913416
10
#913608
00
#913656
11
#913728
10
#913920
00
#913944
01
#914016
10
#914208
00
#914256
11
#914328
10
#914520
00
#914544
01
#914616
10
#914808
00
#914928
10
#915120
00
#915144
11
#915432
01
#915600
10
#915720
00
#915768
11
#915816
10
#915840
b10100010 B
#916008
00
#916056
01
#916128
10
#916320
00
#916344
11
#916416
10
#916608
00
#916656
01
#916728
10
#916920
00
#917016
10
#917208
00
#917328
10
#917520
00
#917544
11
#917616
10
#917808
00
#917856
01
#917928
10
#918120
00
#918144
11
#918528
01
#918576
10
#918720
00
#918816
10
#918840
b01100001 B
#919008
00
#919056
11
#919128
10
#919320
00
#919416
10
#919608
00
#919656
01
#919728
10
#919920
00
#920016
10
#920208
00
#920328
10
#920520
00
#920616
10
#920808
00
#920856
11
#920928
10
#921120
00
#921672
01
#921720
10
#921912
00
#922032
10
#922056
bxxxxxxxx B
#922224
11
#922416
01
bxxxxxxxx B
#922512
00
#922584
11
#922632
10
#922656
b11010110 B
#922824
00
#922920
10
#923112
00
#923136
01
#923232
10
#923424
00
#923448
11
#923520
10
#923712
00
#923736
01
#923808
10
#924024
00
#924048
11
#924120
10
#924312
00
#924432
10
#924624
00
#924648
01
#924720
10
#924912
00
#924960
11
#925248
01
#925392
10
#925512
00
#925584
11
#925632
10
#925656
b10100010 B
#925824
00
#925848
01
#925920
10
#926112
00
#926160
11
#926232
10
#926424
00
#926448
01
#926520
10
#926712
00
#926832
10
#927024
00
#927120
10
#927312
00
#927360
11
#927432
10
#927624
00
#927648
01
#927720
10
#927912
00
#927960
11
#928320
01
#928368
10
#928512
00
#928632
10
#928656
b01001110 B
#928824
00
#928848
11
#928920
10
#929112
00
#929136
01
#929232
10
#929424
00
#929520
10
#929712
00
#929760
11
#929832
10
#930024
00
#930120
10
#930312
00
#930432
10
#930624
00
#930648
01
#930720
10
#930912
00
#930960
11
#931488
01
#931536
10
#931728
00
#931824
10
#931848
bxxxxxxxx B
#932016
11
#932208
01
bxxxxxxxx B
#932328
00
#932400
11
#932424
10
#932448
b11010000 B
#932616
00
#932712
10
#932928
00
#932952
01
#933024
10
#933216
00
#933240
11
#933312
10
#933528
00
#933552
01
#933624
10
#933816
00
#933912
10
#934128
00
#934224
10
#934416
00
#934512
10
#934728
00
#934752
11
#935040
01
#935184
10
#935328
00
#935376
11
#935424
10
#935448
b10100010 B
#935616
00
#935640
01
#935712
10
#935928
00
#935952
11
#936024
10
#936216
00
#936240
01
#936312
10
#936528
00
#936624
10
#936816
00
#936912
10
#937128
00
#937152
11
#937224
10
#937416
00
#937440
01
#937512
10
#937728
00
#937752
11
#938136
01
#938184
10
#938328
00
#938424
10
#938448
b01111000 B
#938616
00
#938640
11
#938712
10
#938928
00
#939024
10
#939216
00
#939312
10
#939528
00
#939624
10
#939816
00
#939840
01
#939912
10
#940128
00
#940224
10
#940416
00
#940512
10
#940728
00
#940752
11
#941280
01
#941328
10
#941520
00
#941616
10
#941640
bxxxxxxxx B
#941808
11
#1103400
01
bxxxxxxxx B
#1103496
00
#1103568
11
#1103592
10
#1103616
b11010010 B
#1103808
00
#1103904
10
#1104096
00
#1104120
01
#1104192
10
#1104408
00
#1104432
11
#1104504
10
#1104696
00
#1104720
01
#1104792
10
#1105008
00
#1105104
10
#1105296
00
#1105320
11
#1105392
10
#1105608
00
#1105632
01
#1105704
10
#1105896
00
#1105920
11
#1106232
01
#1106376
10
#1106496
00
#1106544
11
#1106592
10
#1106616
b10100010 B
#1106808
00
#1106832
01
#1106904
10
#1107096
00
#1107120
11
#1107192
10
#1107408
00
#1107432
01
#1107504
10
#1107696
00
#1107792
10
#1108008
00
#1108104
10
#1108296
00
#1108320
11
#1108392
10
#1108608
00
#1108632
01
#1108704
10
#1108896
00
#1108920
11
#1109304
01
#1109352
10
#1109496
00
#1109544
11
#1109592
10
#1109616
b11111010 B
#1109808
00
#1109904
10
#1110096
00
#1110192
10
#1110408
00
#1110504
10
#1110696
00
#1110792
10
#1111008
00
#1111032
01
#1111104
10
#1111296
00
#1111320
11
#1111392
10
#1111608
00
#1111632
01
#1111704
10
#1111896
00
#1111920
11
#1112472
01
#1112520
10
#1112688
00
#1112808
10
#1112832
bxxxxxxxx B
#1113000
11
#1113192
01
bxxxxxxxx B
#1113288
00
#1113360
11
#1113408
10
#1113432
b11010100 B
#1113600
00
#1113696
10
#1113888
00
#1113936
01
#1114008
10
#1114200
00
#1114224
11
#1114296
10
#1114488
00
#1114536
01
#1114608
10
#1114800
00
#1114824
11
#1114896
10
#1115088
00
#1115136
01
#1115208
10
#1115400
00
#1115496
10
#1115688
00
#1115736
11
#1116024
01
#1116168
10
#1116288
00
#1116360
11
#1116408
10
#1116432
b10100010 B
#1116600
00
#1116624
01
#1116696
10
#1116888
00
#1116936
11
#1117008
10
#1117200
00
#1117224
01
#1117296
10
#1117488
00
#1117608
10
#1117800
00
#1117896
10
#1118088
00
#1118136
11
#1118208
10
#1118400
00
#1118424
01
#1118496
10
#1118688
00
#1118736
11
#1119096
01
#1119144
10
#1119288
00
#1119408
10
#1119432
b01100010 B
#1119600
00
#1119624
11
#1119696
10
#1119888
00
#1120008
10
#1120200
00
#1120224
01
#1120296
10
#1120488
00
#1120608
10
#1120800
00
#1120896
10
#1121088
00
#1121136
11
#1121208
10
#1121400
00
#1121424
01
#1121496
10
#1121688
00
#1121736
11
#1122264
01
#1122312
10
#1122504
00
#1122600
10
#1122624
bxxxxxxxx B
#1122792
11
#1123008
01
bxxxxxxxx B
#1123104
00
#1123176
11
#1123200
10
#1123224
b11010110 B
#1123392
00
#1123488
10
#1123704
00
#1123728
01
#1123800
10
#1123992
00
#1124016
11
#1124088
10
#1124304
00
#1124328
01
#1124400
10
#1124592
00
#1124616
11
#1124688
10
#1124904
00
#1125000
10
#1125192
00
#1125216
01
#1125288
10
#1125504
00
#1125528
11
#1125816
01
#1125960
10
#1126104
00
#1126152
10
11
#1126176
00
b11010001 B
#1126200
10
#1126392
00
#1126416
01
#1126488
10
#1126704
00
#1126728
11
#1126800
10
#1126992
00
#1127016
01
#1127088
10
#1127304
00
#1127400
10
#1127592
00
#1127688
10
#1127904
00
#1127928
11
#1128000
10
#1128192
00
#1128216
01
#1128288
10
#1128504
00
#1128528
11
#1128912
01
#1128960
10
#1128984
b00100000 B
#1129104
00
#1129200
10
#1129392
00
#1129416
11
#1129488
10
#1129704
00
#1129728
01
#1129800
10
#1129992
00
#1130088
10
#1130304
00
#1130400
10
#1130592
00
#1130688
10
#1130904
00
#1131000
10
#1131192
00
#1131216
11
#1131288
10
#1131504
00
#1132056
01
#1132104
10
#1132128
bxxxxxxxx B
#1132296
00
#1132392
10
#1132608
11
#1132800
01
bxxxxxxxx B
#1132896
00
#1132968
11
#1132992
10
#1133016
b11010000 B
#1133208
00
#1133304
10
#1133496
00
#1133520
01
#1133592
10
#1133808
00
#1133832
11
#1133904
10
#1134096
00
#1134120
01
#1134192
10
#1134384
00
#1134504
10
#1134696
00
#1134792
10
#1134984
00
#1135104
10
#1135296
00
#1135320
11
#1135632
01
#1135776
10
#1135896
00
#1135944
11
#1135992
10
#1136016
b10100010 B
#1136184
00
#1136232
01
#1136304
10
#1136496
00
#1136520
11
#1136592
10
#1136784
00
#1136832
01
#1136904
10
#1137096
00
#1137192
10
#1137384
00
#1137504
10
#1137696
00
#1137720
11
#1137792
10
#1137984
00
#1138032
01
#1138104
10
#1138296
00
#1138320
11
#1138704
01
#1138752
10
#1138896
00
#1138992
10
#1139016
b01111011 B
#1139184
00
#1139232
11
#1139304
10
#1139496
00
#1139592
10
#1139784
00
#1139904
10
#1140096
00
#1140192
10
#1140384
00
#1140432
01
#1140504
10
#1140696
00
#1140720
11
#1140792
10
#1140984
00
#1141104
10
#1141296
00
#1141848
01
#1141896
10
#1142088
00
#1142208
10
#1142232
bxxxxxxxx B
#1142400
11
#1296168
01
bxxxxxxxx B
#1296288
00
#1296360
11
#1296384
10
#1296408
b11010010 B
#1296576
00
#1296672
10
#1296888
00
#1296912
01
#1296984
10
#1297176
00
#1297200
11
#1297272
10
#1297488
00
#1297512
01
#1297584
10
#1297776
00
#1297872
10
#1298088
00
#1298112
11
#1298184
10
#1298376
00
#1298400
01
#1298472
10
#1298688
00
#1298712
11
#1299000
01
#1299144
10
#1299288
00
#1299336
11
#1299384
10
#1299408
b10100010 B
#1299576
00
#1299600
01
#1299672
10
#1299888
00
#1299912
11
#1299984
10
#1300176
00
#1300200
01
#1300272
10
#1300488
00
#1300584
10
#1300776
00
#1300872
10
#1301088
00
#1301112
11
#1301184
10
#1301376
00
#1301400
01
#1301472
10
#1301688
00
#1301712
11
#1302096
01
#1302144
10
#1302288
00
#1302336
11
#1302384
10
#1302408
b11111010 B
#1302576
00
#1302672
10
#1302888
00
#1302984
10
#1303176
00
#1303272
10
#1303488
00
#1303584
10
#1303776
00
#1303800
01
#1303872
10
#1304088
00
#1304112
11
#1304184
10
#1304376
00
#1304400
01
#1304472
10
#1304688
00
#1304712
11
#1305240
01
#1305288
10
#1305480
00
#1305576
10
#1305600
bxxxxxxxx B
#1305792
11
#1305984
01
bxxxxxxxx B
#1306080
00
#1306152
11
#1306176
10
#1306200
b11010100 B
#1306368
00
#1306488
10
#1306680
00
#1306704
01
#1306776
10
#1306968
00
#1307016
11
#1307088
10
#1307280
00
#1307304
01
#1307376
10
#1307568
00
#1307616
11
#1307688
10
#1307880
00
#1307904
01
#1307976
10
#1308168
00
#1308288
10
#1308480
00
#1308504
11
#1308792
01
#1308936
10
#1309080
00
#1309128
11
#1309176
10
#1309200
b10100010 B
#1309368
00
#1309416
01
#1309488
10
#1309680
00
#1309704
11
#1309776
10
#1309968
00
#1310016
01
#1310088
10
#1310280
00
#1310376
10
#1310568
00
#1310688
10
#1310880
00
#1310904
11
#1310976
10
#1311168
00
#1311216
01
#1311288
10
#1311480
00
#1311504
11
#1311888
01
#1311936
10
#1312080
00
#1312176
10
#1312200
b01011111 B
#1312368
00
#1312416
11
#1312488
10
#1312680
00
#1312704
01
#1312776
10
#1312968
00
#1313016
11
#1313088
10
#1313280
00
#1313376
10
#1313568
00
#1313688
10
#1313880
00
#1313976
10
#1314168
00
#1314288
10
#1314480
00
#1315032
01
#1315080
10
#1315272
00
#1315368
10
#1315392
bxxxxxxxx B
#1315584
11
#1315776
01
bxxxxxxxx B
#1315872
00
#1315944
11
#1315968
10
#1315992
b11010110 B
#1316184
00
#1316280
10
#1316472
00
#1316496
01
#1316568
10
#1316784
00
#1316808
11
#1316880
10
#1317072
00
#1317096
01
#1317168
10
#1317384
00
#1317408
11
#1317480
10
#1317672
00
#1317768
10
#1317984
00
#1318008
01
#1318080
10
#1318272
00
#1318296
11
#1318608
01
#1318752
10
#1318872
00
#1318920
11
#1318968
10
#1318992
b10100010 B
#1319184
00
#1319208
01
#1319280
10
#1319472
00
#1319496
11
#1319568
10
#1319784
00
#1319808
01
#1319880
10
#1320072
00
#1320168
10
#1320384
00
#1320480
10
#1320672
00
#1320696
11
