Sniffer_I2C/Arranque/4.vcd
$date
  febrero 2, 2012
$end
$version
  ChronoVu LA-8 Version 3,08 
$end
$comment
  File: /home/mat/Escritorio/Arranque quad/4.kdt
  from sample 0 to sample 8388607
$end
$timescale 10 ns $end
$scope module la8 $end
$var wire 1 0 SCL_(clock) $end
$var wire 1 1 SDA_(data) $end
$var wire 8 B I2C Bus $end
$upscope $end
$enddefinitions $end
$dumpvars
10
11
bxxxxxxxx B
$end
#0
10
11
bxxxxxxxx B
#24
bxxxxxxxx B
#76968
01
bxxxxxxxx B
#77064
00
#77136
11
#77160
10
#77184
b11010010 B
#77376
00
#77472
10
#77664
00
#77688
01
#77784
10
#77976
00
#78000
11
#78072
10
#78264
00
#78288
01
#78384
10
#78576
00
#78672
10
#78864
00
#78912
11
#78960
10
#79176
00
#79200
01
#79272
10
#79464
00
#79512
11
#79800
01
#79944
10
#80064
00
#80136
11
#80160
10
#80184
b10100010 B
#80376
00
#80400
01
#80472
10
#80664
00
#80712
11
#80760
10
#80976
00
#81000
01
#81072
10
#81264
00
#81384
10
#81576
00
#81672
10
#81864
00
#81912
11
#81960
10
#82176
00
#82200
01
#82272
10
#82464
00
#82512
11
#82872
01
#82920
10
#83064
00
#83184
10
#83208
b00000000 B
#83376
00
#83472
10
#83664
00
#83784
10
#83976
00
#84072
10
#84264
00
#84384
10
#84576
00
#84672
10
#84864
00
#84984
10
#85176
00
#85272
10
#85464
00
#85512
11
#86040
01
#86088
10
#86256
00
#86376
10
#86400
bxxxxxxxx B
#86568
11
#86760
01
bxxxxxxxx B
#86856
00
#86952
11
#86976
10
#87000
b11010100 B
#87168
00
#87264
10
#87456
00
#87504
01
#87576
10
#87768
00
#87792
11
#87864
10
#88056
00
#88104
01
#88176
10
#88368
00
#88392
11
#88464
10
#88656
00
#88704
01
#88776
10
#88968
00
#89064
10
#89256
00
#89304
11
#89592
01
#89736
10
#89856
00
#89928
11
#89976
10
#90000
b10100010 B
#90168
00
#90192
01
#90264
10
#90456
00
#90504
11
#90576
10
#90768
00
#90792
01
#90864
10
#91056
00
#91176
10
#91368
00
#91464
10
#91656
00
#91704
11
#91776
10
#91968
00
#91992
01
#92064
10
#92256
00
#92304
11
#92664
01
#92712
10
#92856
00
#92976
10
#93000
b00000000 B
#93168
00
#93264
10
#93456
00
#93576
10
#93768
00
#93864
10
#94056
00
#94176
10
#94368
00
#94464
10
#94656
00
#94776
10
#94968
00
#95064
10
#95256
00
#95304
11
#95832
01
#95880
10
#96072
00
#96168
10
#96192
bxxxxxxxx B
#96360
11
#96576
01
bxxxxxxxx B
#96672
00
#96744
11
#96768
10
#96792
b11010110 B
#96960
00
#97080
10
#97272
00
#97296
01
#97368
10
#97560
00
#97608
11
#97680
10
#97872
00
#97896
01
#97968
10
#98160
00
#98208
11
#98280
10
#98472
00
#98568
10
#98760
00
#98784
01
#98880
10
#99072
00
#99096
11
#99384
01
#99528
10
#99672
00
#99720
11
#99768
10
#99792
b10100010 B
#99960
00
#99984
01
#100080
10
#100272
00
#100296
11
#100368
10
#100560
00
#100584
01
#100680
10
#100872
00
#100968
10
#101160
00
#101280
10
#101472
00
#101496
11
#101568
10
#101760
00
#101784
01
#101880
10
#102072
00
#102096
11
#102480
01
#102528
10
#102672
00
#102768
10
#102792
b00000000 B
#102960
00
#103080
10
#103272
00
#103368
10
#103560
00
#103680
10
#103872
00
#103968
10
#104160
00
#104280
10
#104472
00
#104568
10
#104760
00
#104880
10
#105072
00
#105096
11
#105624
01
#105672
10
#105864
00
#105960
10
#105984
bxxxxxxxx B
#106176
11
#106368
01
bxxxxxxxx B
#106464
00
#106536
11
#106560
10
#106584
b11010000 B
#106776
00
#106872
10
#107064
00
#107088
01
#107160
10
#107376
00
#107400
11
#107472
10
#107664
00
#107688
01
#107760
10
#107976
00
#108072
10
#108264
00
#108360
10
#108576
00
#108672
10
#108864
00
#108888
11
#109200
01
#109344
10
#109464
00
#109512
11
#109560
10
#109584
b10100010 B
#109776
00
#109800
01
#109872
10
#110064
00
#110088
11
#110160
10
#110376
00
#110400
01
#110472
10
#110664
00
#110760
10
#110976
00
#111072
10
#111264
00
#111288
11
#111360
10
#111576
00
#111600
01
#111672
10
#111864
00
#111888
11
#112272
01
#112320
10
#112464
00
#112560
10
#112584
b00000000 B
#112776
00
#112872
10
#113064
00
#113160
10
#113376
00
#113472
10
#113664
00
#113760
10
#113976
00
#114072
10
#114264
00
#114360
10
#114576
00
#114672
10
#114864
00
#114888
11
#115416
01
#115464
10
#115656
00
#115776
10
#115800
bxxxxxxxx B
#115968
11
#276936
01
bxxxxxxxx B
#277056
00
#277128
11
#277152
10
#277176
b11010010 B
#277344
00
#277440
10
#277656
00
#277680
01
#277752
10
#277944
00
#277968
11
#278040
10
#278256
00
#278280
01
#278352
10
#278544
00
#278640
10
#278856
00
#278880
11
#278952
10
#279144
00
#279168
01
#279240
10
#279456
00
#279480
11
#279768
01
#279912
10
#280056
00
#280104
11
#280152
10
#280176
b10100010 B
#280344
00
#280368
01
#280440
10
#280656
00
#280680
11
#280752
10
#280944
00
#280968
01
#281040
10
#281256
00
#281352
10
#281544
00
#281640
10
#281856
00
#281880
11
#281952
10
#282144
00
#282168
01
#282240
10
#282456
00
#282480
11
#282864
01
#282912
10
#283056
00
#283152
10
#283176
b00000000 B
#283344
00
#283440
10
#283656
00
#283752
10
#283944
00
#284040
10
#284256
00
#284352
10
#284544
00
#284640
10
#284856
00
#284952
10
#285144
00
#285240
10
#285456
00
#285480
11
#286008
01
#286056
10
#286248
00
#286344
10
#286368
bxxxxxxxx B
#286560
11
#286752
01
bxxxxxxxx B
#286848
00
#286920
11
#286944
10
#286968
b11010100 B
#287136
00
#287256
10
#287448
00
#287472
01
#287544
10
#287736
00
#287784
11
#287856
10
#288048
00
#288072
01
#288144
10
#288336
00
#288384
11
#288456
10
#288648
00
#288672
01
#288744
10
#288936
00
#289056
10
#289248
00
#289272
11
#289560
01
#289704
10
#289848
00
#289896
11
#289944
10
#289968
b10100010 B
#290136
00
#290184
01
#290256
10
#290448
00
#290472
11
#290544
10
#290736
00
#290784
01
#290856
10
#291048
00
#291144
10
#291336
00
#291456
10
#291648
00
#291672
11
#291744
10
#291936
00
#291984
01
#292056
10
#292248
00
#292272
11
#292656
01
#292704
10
#292848
00
#292944
10
#292968
b00000000 B
#293136
00
#293256
10
#293448
00
#293544
10
#293736
00
#293856
10
#294048
00
#294144
10
#294336
00
#294456
10
#294648
00
#294744
10
#294936
00
#295056
10
#295248
00
#295272
11
#295800
01
#295848
10
#296040
00
#296160
10
#296184
bxxxxxxxx B
#296352
11
#296544
01
bxxxxxxxx B
#296640
00
#296712
11
#296736
10
#296760
b11010110 B
#296952
00
#297048
10
#297240
00
#297264
01
#297360
10
#297552
00
#297576
11
#297648
10
#297840
00
#297864
01
#297960
10
#298152
00
#298176
11
#298248
10
#298440
00
#298536
10
#298752
00
#298776
01
#298848
10
#299040
00
#299088
11
#299376
01
#299520
10
#299640
00
#299712
11
#299736
10
#299760
b10100010 B
#299952
00
#299976
01
#300048
10
#300240
00
#300288
11
#300336
10
#300552
00
#300576
01
#300648
10
#300840
00
#300960
10
#301152
00
#301248
10
#301440
00
#301488
11
#301536
10
#301752
00
#301776
01
#301848
10
#302040
00
#302088
11
#302448
01
#302520
10
#302640
00
#302760
10
#302784
b00000000 B
#302952
00
#303048
10
#303240
00
#303360
10
#303552
00
#303648
10
#303840
00
#303960
10
#304152
00
#304248
10
#304440
00
#304560
10
#304752
00
#304848
10
#305040
00
#305088
11
#305592
01
#305640
10
#305832
00
#305952
10
#305976
bxxxxxxxx B
#306144
11
#306336
01
bxxxxxxxx B
#306432
00
#306528
11
#306552
10
#306576
b11010000 B
#306744
00
#306840
10
#307032
00
#307080
01
#307152
10
#307344
00
#307368
11
#307440
10
#307632
00
#307680
01
#307752
10
#307944
00
#308040
10
#308232
00
#308352
10
#308544
00
#308640
10
#308832
00
#308880
11
#309168
01
#309312
10
#309432
00
#309504
11
#309552
10
#309576
b10100010 B
#309744
00
#309768
01
#309840
10
#310032
00
#310080
11
#310152
10
#310344
00
#310368
01
#310440
10
#310632
00
#310752
10
#310944
00
#311040
10
#311232
00
#311280
11
#311352
10
#311544
00
#311568
01
#311640
10
#311832
00
#311880
11
#312264
01
#312312
10
#312432
00
#312552
10
#312576
b00000000 B
#312744
00
#312840
10
#313032
00
#313152
10
#313344
00
#313440
10
#313632
00
#313752
10
#313944
00
#314040
10
#314232
00
#314352
10
#314544
00
#314640
10
#314832
00
#314880
11
#315408
01
#315456
10
#315648
00
#315744
10
#315768
bxxxxxxxx B
#315936
11
#480216
01
bxxxxxxxx B
#480336
00
#480408
11
#480432
10
#480456
b11010010 B
#480624
00
#480720
10
#480936
00
#480960
01
#481032
10
#481224
00
#481248
11
#481320
10
#481536
00
#481560
01
#481632
10
#481824
00
#481920
10
#482136
00
#482160
11
#482232
10
#482424
00
#482448
01
#482520
10
#482736
00
#482760
11
#483048
01
#483192
10
#483336
00
#483384
11
#483432
10
#483456
b10100010 B
#483624
00
#483648
01
#483720
10
#483936
00
#483960
11
#484032
10
#484224
00
#484248
01
#484320
10
#484536
00
#484632
10
#484824
00
#484920
10
#485136
00
#485160
11
#485232
10
#485424
00
#485448
01
#485520
10
#485736
00
#485760
11
#486144
01
#486192
10
#486336
00
#486432
10
#486456
b00000000 B
#486624
00
#486720
10
#486936
00
#487032
10
#487224
00
#487320
10
#487536
00
#487632
10
#487824
00
#487920
10
#488136
00
#488232
10
#488424
00
#488520
10
#488736
00
#488760
11
#489288
01
#489336
10
#489528
00
#489624
10
#489648
bxxxxxxxx B
#489816
11
#490032
01
bxxxxxxxx B
#490128
00
#490200
11
#490224
10
#490248
b11010100 B
#490416
00
#490536
10
#490728
00
#490752
01
#490824
10
#491016
00
#491064
11
#491136
10
#491328
00
#491352
01
#491424
10
#491616
00
#491664
11
#491736
10
#491928
00
#491952
01
#492024
10
#492216
00
#492336
10
#492528
00
#492552
11
#492840
01
#492984
10
#493128
00
#493176
11
#493224
10
#493248
b10100010 B
#493416
00
#493440
01
#493536
10
#493728
00
#493752
11
#493824
10
#494016
00
#494040
01
#494136
10
#494328
00
#494424
10
#494616
00
#494736
10
#494928
00
#494952
11
#495024
10
#495216
00
#495240
01
#495336
10
#495528
00
#495552
11
#495936
01
#495984
10
#496128
00
#496224
10
#496248
b00000000 B
#496416
00
#496536
10
#496728
00
#496824
10
#497016
00
#497136
10
#497328
00
#497424
10
#497616
00
#497736
10
#497928
00
#498024
10
#498216
00
#498336
10
#498528
00
#498552
11
#499080
01
#499128
10
#499320
00
#499416
10
#499440
bxxxxxxxx B
#499632
11
#499824
01
bxxxxxxxx B
#499920
00
#499992
11
#500016
10
#500040
b11010110 B
#500232
00
#500328
10
#500520
00
#500544
01
#500616
10
#500832
00
#500856
11
#500928
10
#501120
00
#501144
01
#501216
10
#501432
00
#501456
11
#501528
10
#501720
00
#501816
10
#502032
00
#502056
01
#502128
10
#502320
00
#502344
11
#502656
01
#502800
10
#502920
00
#502992
11
#503016
10
#503040
b10100010 B
#503232
00
#503256
01
#503328
10
#503520
00
#503544
11
#503616
10
#503832
00
#503856
01
#503928
10
#504120
00
#504216
10
#504432
00
#504528
10
#504720
00
#504744
11
#504816
10
#505032
00
#505056
01
#505128
10
#505320
00
#505344
11
#505728
01
#505776
10
#505920
00
#506016
10
#506040
b00000000 B
#506232
00
#506328
10
#506520
00
#506616
10
#506832
00
#506928
10
#507120
00
#507216
10
#507432
00
#507528
10
#507720
00
#507816
10
#508032
00
#508128
10
#508320
00
#508344
11
#508896
01
#508944
10
#509112
00
#509232
10
#509256
bxxxxxxxx B
#509424
11
#509616
01
bxxxxxxxx B
#509712
00
#509808
11
#509832
10
#509856
b11010000 B
#510024
00
#510120
10
#510312
00
#510360
01
#510432
10
#510624
00
#510648
11
#510720
10
#510912
00
#510960
01
#511032
10
#511224
00
#511320
10
#511512
00
#511632
10
#511824
00
#511920
10
#512112
00
#512160
11
#512448
01
#512592
10
#512712
00
#512784
11
#512832
10
#512856
b10100010 B
#513024
00
#513048
01
#513120
10
#513312
00
#513360
11
#513432
10
#513624
00
#513648
01
#513720
10
#513912
00
#514032
10
#514224
00
#514320
10
#514512
00
#514560
11
#514632
10
#514824
00
#514848
01
#514920
10
#515112
00
#515160
11
#515520
01
#515592
10
#515712
00
#515832
10
#515856
b00000000 B
#516024
00
#516120
10
#516312
00
#516432
10
#516624
00
#516720
10
#516912
00
#517032
10
#517224
00
#517320
10
#517512
00
#517632
10
#517824
00
#517920
10
#518112
00
#518160
11
#518688
01
#518736
10
#518928
00
#519024
10
#519048
bxxxxxxxx B
#519216
11
#678000
01
bxxxxxxxx B
#678096
00
#678168
11
#678216
10
#678240
b11010010 B
#678408
00
#678504
10
#678696
00
#678720
01
#678816
10
#679008
00
#679032
11
#679104
10
#679296
00
#679320
01
#679416
10
#679608
00
#679704
10
#679896
00
#679944
11
#680016
10
#680208
00
#680232
01
#680304
10
#680496
00
#680544
11
#680832
01
#680976
10
#681096
00
#681168
11
#681600
10
#681624
b10100010 B
#681792
00
#681840
01
#681912
10
#682104
00
#682128
11
#682200
10
#682392
00
#682440
01
#682512
10
#682704
00
#682800
10
#682992
00
#683112
10
#683304
00
#683328
11
#683400
10
#683592
00
#683640
01
#683712
10
#683904
00
#683928
11
#684312
01
#684360
10
#684504
00
#684600
10
#684624
b00000000 B
#684792
00
#684912
10
#685104
00
#685200
10
#685392
00
#685512
10
#685704
00
#685800
10
#685992
00
#686112
10
#686304
00
#686400
10
#686592
00
#686712
10
#686904
00
#686928
11
#687456
01
#687504
10
#687696
00
#687816
10
#687840
bxxxxxxxx B
#688008
11
#688200
01
bxxxxxxxx B
#688296
00
#688368
11
#688416
10
#688440
b11010100 B
#688608
00
#688704
10
#688896
00
#688920
01
#689016
10
#689208
00
#689232
11
#689304
10
#689496
00
#689520
01
#689616
10
#689808
00
#689832
11
#689904
10
#690096
00
#690120
01
#690216
10
#690408
00
#690504
10
#690696
00
#690744
11
#691032
01
#691176
10
#691296
00
#691368
11
#691416
10
#691440
b10100010 B
#691608
00
#691632
01
#691704
10
#691896
00
#691944
11
#692016
10
#692208
00
#692232
01
#692304
10
#692496
00
#692616
10
#692808
00
#692904
10
#693096
00
#693144
11
#693216
10
#693408
00
#693432
01
#693504
10
#693696
00
#693744
11
#694104
01
#694152
10
#694296
00
#694416
10
#694440
b00000000 B
#694608
00
#694704
10
#694896
00
#695016
10
#695208
00
#695304
10
#695496
00
#695616
10
#695808
00
#695904
10
#696096
00
#696216
10
#696408
00
#696504
10
#696696
00
#696744
11
#697272
01
#697320
10
#697512
00
#697608
10
#697632
bxxxxxxxx B
#697800
11
#697992
01
bxxxxxxxx B
#698112
00
#698160
11
#698208
10
#698232
b11010110 B
#698400
00
#698496
10
#698712
00
#698736
01
#698808
10
#699000
00
#699024
11
#699096
10
#699312
00
#699336
01
#699408
10
#699600
00
#699624
11
#699696
10
#699912
00
#700008
10
#700200
00
#700224
01
#700296
10
#700512
00
#700536
11
#700824
01
#700968
10
#701112
00
#701160
11
#701208
10
#701232
b10100010 B
#701400
00
#701424
01
#701496
10
#701712
00
#701736
11
#701808
10
#702000
00
#702024
01
#702096
10
#702312
00
#702408
10
#702600
00
#702696
10
#702912
00
#702936
11
#703008
10
#703200
00
#703224
01
#703296
10
#703512
00
#703536
11
#703920
01
#703968
10
#704112
00
#704208
10
#704232
b00000000 B
#704400
00
#704496
10
#704712
00
#704808
10
#705000
00
#705096
10
#705312
00
#705408
10
#705600
00
#705696
10
#705912
00
#706008
10
#706200
00
#706296
10
#706512
00
#706536
11
#707064
01
#707112
10
#707304
00
#707400
10
#707424
bxxxxxxxx B
#707592
11
#707808
01
bxxxxxxxx B
#707904
00
#707976
11
#708000
10
#708024
b11010000 B
#708192
00
#708312
10
#708504
00
#708528
01
#708600
10
#708792
00
#708840
11
#708912
10
#709104
00
#709128
01
#709200
10
#709392
00
#709512
10
#709704
00
#709800
10
#709992
00
#710112
10
#710304
00
#710328
11
#710616
01
#710784
10
#710904
00
#710952
11
#711000
10
#711024
b10100010 B
#711192
00
#711216
01
#711312
10
#711504
00
#711528
11
#711600
10
#711792
00
#711816
01
#711912
10
#712104
00
#712200
10
#712392
00
#712512
10
#712704
00
#712728
11
#712800
10
#712992
00
#713016
01
#713112
10
#713304
00
#713328
11
#713712
01
#713760
10
#713904
00
#714000
10
#714024
b00000000 B
#714192
00
#714312
10
#714504
00
#714600
10
#714792
00
#714912
10
#715104
00
#715200
10
#715392
00
#715512
10
#715704
00
#715800
10
#715992
00
#716112
10
#716304
00
#716328
11
#716856
01
#716904
10
#717096
00
#717216
10
#717240
bxxxxxxxx B
#717408
11
#888792
01
bxxxxxxxx B
#888888
00
#888960
11
#888984
10
#889008
b11010010 B
#889176
00
#889272
10
#889488
00
#889512
01
#889584
10
#889776
00
#889824
11
#889872
10
#890088
00
#890112
01
#890184
10
#890376
00
#890496
10
#890688
00
#890712
11
#890784
10
#890976
00
#891000
01
#891096
10
#891288
00
#891312
11
#891600
01
#891768
10
#891888
00
#891936
11
#891984
10
#892008
b10100010 B
#892176
00
#892200
01
#892296
10
#892488
00
#892512
11
#892584
10
#892776
00
#892800
01
#892896
10
#893088
00
#893184
10
#893376
00
#893496
10
#893688
00
#893712
11
#893784
10
#893976
00
#894000
01
#894096
10
#894288
00
#894312
11
#894696
01
#894744
10
#894888
00
#894984
10
#895008
b00000000 B
#895176
00
#895296
10
#895488
00
#895584
10
#895776
00
#895896
10
#896088
00
#896184
10
#896376
00
#896496
10
#896688
00
#896784
10
#896976
00
#897096
10
#897288
00
#897312
11
#897840
01
#897888
10
#898080
00
#898176
10
#898200
bxxxxxxxx B
#898392
11
#898584
01
bxxxxxxxx B
#898680
00
#898752
11
#898776
10
#898800
b11010100 B
#898992
00
#899088
10
#899280
00
#899304
01
#899376
10
#899592
00
#899616
11
#899688
10
#899880
00
#899904
01
#899976
10
#900192
00
#900216
11
#900288
10
#900480
00
#900504
01
#900576
10
#900792
00
#900888
10
#901080
00
#901104
11
#901416
01
#901560
10
#901680
00
#901728
11
#901776
10
#901800
b10100010 B
#901968
00
#902016
01
#902088
10
#902280
00
#902304
11
#902376
10
#902568
00
#902616
01
#902688
10
#902880
00
#902976
10
#903168
00
#903288
10
#903480
00
#903504
11
#903576
10
#903768
00
#903816
01
#903888
10
#904080
00
#904104
11
#904488
01
#904536
10
#904680
00
#904776
10
#904800
b00000000 B
#904968
00
#905088
10
#905280
00
#905376
10
#905568
00
#905688
10
#905880
00
#905976
10
#906168
00
#906288
10
#906480
00
#906576
10
#906768
00
#906888
10
#907080
00
#907104
11
#907632
01
#907680
10
#907872
00
#907992
10
#908016
bxxxxxxxx B
#908184
11
#908376
01
bxxxxxxxx B
#908472
00
#908544
11
#908592
10
#908616
b11010110 B
#908784
00
#908880
10
#909072
00
#909096
01
#909192
10
#909384
00
#909408
11
#909480
10
#909672
00
#909696
01
#909792
10
#909984
00
#910008
11
#910080
10
#910272
00
#910392
10
#910584
00
#910608
01
#910680
10
#910872
00
#910920
11
#911208
01
#911352
10
#911472
00
#911544
11
#911592
10
#911616
b10100010 B
#911784
00
#911808
01
#911880
10
#912072
00
#912120
11
#912192
10
#912384
00
#912408
01
#912480
10
#912672
00
#912792
10
#912984
00
#913080
10
#913272
00
#913320
11
#913392
10
#913584
00
#913608
01
#913680
10
#913872
00
#913920
11
#914280
01
#914328
10
#914472
00
#914592
10
#914616
b00000000 B
#914784
00
#914880
10
#915072
00
#915192
10
#915384
00
#915480
10
#915672
00
#915792
10
#915984
00
#916080
10
#916272
00
#916392
10
#916584
00
#916680
10
#916872
00
#916920
11
#917448
01
#917496
10
#917688
00
#917784
10
#917808
bxxxxxxxx B
#917976
11
#918168
01
bxxxxxxxx B
#918288
00
#918360
11
#918384
10
#918408
b11010000 B
#918576
00
#918672
10
#918888
00
#918912
01
#918984
10
#919176
00
#919200
11
#919272
10
#919488
00
#919512
01
#919584
10
#919776
00
#919872
10
#920088
00
#920184
10
#920376
00
#920472
10
#920688
00
#920712
11
#921000
01
#921144
10
#921288
00
#921336
11
#921384
10
#921408
b10100010 B
#921576
00
#921600
01
#921672
10
#921888
00
#921912
11
#921984
10
#922176
00
#922200
01
#922272
10
#922488
00
#922584
10
#922776
00
#922872
10
#923088
00
#923112
11
#923184
10
#923376
00
#923400
01
#923472
10
#923688
00
#923712
11
#924096
01
#924144
10
#924288
00
#924384
10
#924408
b00000000 B
#924576
00
#924672
10
#924888
00
#924984
10
#925176
00
#925272
10
#925488
00
#925584
10
#925776
00
#925872
10
#926088
00
#926184
10
#926376
00
#926472
10
#926688
00
#926712
11
#927240
01
#927288
10
#927480
00
#927576
10
#927600
bxxxxxxxx B
#927768
11
#1086360
01
bxxxxxxxx B
#1086456
00
#1086528
11
#1086552
10
#1086576
b11010010 B
#1086768
00
#1086864
10
#1087056
00
#1087080
01
#1087176
10
#1087368
00
#1087392
11
#1087464
10
#1087656
00
#1087680
01
#1087776
10
#1087968
00
#1088064
10
#1088256
00
#1088304
11
#1088352
10
#1088568
00
#1088592
01
#1088664
10
#1088856
00
#1088904
11
#1089192
01
#1089336
10
#1089456
00
#1089528
11
#1089552
10
#1089576
b10100010 B
#1089768
00
#1089792
01
#1089864
10
#1090056
00
#1090104
11
#1090152
10
#1090368
00
#1090392
01
#1090464
10
#1090656
00
#1090776
10
#1090968
00
#1091064
10
#1091256
00
#1091280
11
#1091352
10
#1091568
00
#1091592
01
#1091664
10
#1091856
00
#1091904
11
#1092288
01
#1092336
10
#1092456
00
#1092552
10
#1092576
b00000000 B
#1092768
00
#1092864
10
#1093056
00
#1093152
10
#1093368
00
#1093464
10
#1093656
00
#1093752
10
#1093968
00
#1094064
10
#1094256
00
#1094352
10
#1094568
00
#1094664
10
#1094856
00
#1094880
11
#1095432
01
#1095480
10
#1095648
00
#1095768
10
#1095792
bxxxxxxxx B
#1095960
11
#1096152
01
bxxxxxxxx B
#1096248
00
#1096344
11
#1096368
10
#1096392
b11010100 B
#1096560
00
#1096656
10
#1096848
00
#1096896
01
#1096968
10
#1097160
00
#1097184
11
#1097256
10
#1097448
00
#1097496
01
#1097568
10
#1097760
00
#1097784
11
#1097856
10
#1098048
00
#1098096
01
#1098168
10
#1098360
00
#1098456
10
#1098648
00
#1098696
11
#1098984
01
#1099128
10
#1099248
00
#1099320
11
#1099368
10
#1099392
b10100010 B
#1099560
00
#1099584
01
#1099656
10
#1099848
00
#1099896
11
#1099968
10
#1100160
00
#1100184
01
#1100256
10
#1100448
00
#1100568
10
#1100760
00
#1100856
10
#1101048
00
#1101096
11
#1101168
10
#1101360
00
#1101384
01
#1101456
10
#1101648
00
#1101696
11
#1102056
01
#1102104
10
#1102248
00
#1102368
10
#1102392
b00000000 B
#1102560
00
#1102656
10
#1102848
00
#1102968
10
#1103160
00
#1103256
10
#1103448
00
#1103568
10
#1103760
00
#1103856
10
#1104048
00
#1104168
10
#1104360
00
#1104456
10
#1104648
00
#1104696
11
#1105224
01
#1105272
10
#1105464
00
#1105512
11
#1105656
01
#1105752
10
#1105776
bxxxxxxxx B
#1105968
11
#1106160
01
bxxxxxxxx B
#1106256
00
#1106328
11
#1106352
10
#1106376
b11010110 B
#1106568
00
#1106664
10
#1106856
00
#1106880
01
#1106952
10
#1107168
00
#1107192
11
#1107264
10
#1107456
00
#1107480
01
#1107552
10
#1107768
00
#1107792
11
#1107864
10
#1108056
00
#1108152
10
#1108368
00
#1108392
01
#1108464
10
#1108656
00
#1108680
11
#1108992
01
#1109136
10
#1109256
00
#1109328
11
#1109352
10
#1109376
b10100010 B
#1109568
00
#1109592
01
#1109664
10
#1109856
00
#1109880
11
#1109952
10
#1110168
00
#1110192
01
#1110264
10
#1110456
00
#1110552
10
#1110768
00
#1110864
10
#1111056
00
#1111080
11
#1111152
10
#1111368
00
#1111392
01
#1111464
10
#1111656
00
#1111680
11
#1112064
01
#1112112
10
#1112256
00
#1112352
10
#1112376
b00000000 B
#1112568
00
#1112664
10
#1112856
00
#1112952
10
#1113168
00
#1113264
10
#1113456
00
#1113552
10
#1113768
00
#1113864
10
#1114056
00
#1114152
10
#1114368
00
#1114464
10
#1114656
00
#1114680
11
#1115208
01
#1115256
10
#1115448
00
#1115568
10
#1115592
bxxxxxxxx B
#1115760
11
#1115952
01
bxxxxxxxx B
#1116048
00
#1116120
11
#1116168
10
#1116192
b11010000 B
#1116360
00
#1116456
10
#1116648
00
#1116672
01
#1116768
10
#1116960
00
#1116984
11
#1117056
10
#1117248
00
#1117272
01
#1117368
10
#1117560
00
#1117656
10
#1117848
00
#1117968
10
#1118160
00
#1118256
10
#1118448
00
#1118496
11
#1118784
01
#1118928
10
#1119048
00
#1119120
11
#1119168
10
#1119192
b10100010 B
#1119360
00
#1119384
01
#1119456
10
#1119648
00
#1119696
11
#1119768
10
#1119960
00
#1119984
01
#1120056
10
#1120248
00
#1120368
10
#1120560
00
#1120656
10
#1120848
00
#1120896
11
#1120968
10
#1121160
00
#1121184
01
#1121256
10
#1121448
00
#1121496
11
#1121880
01
#1121928
10
#1122048
00
#1122168
10
#1122192
b00000000 B
#1122360
00
#1122456
10
#1122648
00
#1122768
10
#1122960
00
#1123056
10
#1123248
00
#1123368
10
#1123560
00
#1123656
10
#1123848
00
#1123968
10
#1124160
00
#1124256
10
#1124448
00
#1124496
11
#1125024
01
#1125072
10
#1125264
00
#1125360
10
#1125384
bxxxxxxxx B
#1125552
11
#1287840
01
bxxxxxxxx B
#1287936
00
#1288008
11
#1288032
10
#1288056
b11010010 B
#1288248
00
#1288344
10
#1288536
00
#1288560
01
#1288632
10
#1288848
00
#1288872
11
#1288944
10
#1289136
00
#1289160
01
#1289232
10
#1289448
00
#1289544
10
#1289736
00
#1289760
11
#1289832
10
#1290048
00
#1290072
01
#1290144
10
#1290336
00
#1290360
11
#1290672
01
#1290816
10
#1290936
00
#1291008
11
#1291032
10
#1291056
b10100010 B
#1291248
00
#1291272
01
#1291344
10
#1291536
00
#1291560
11
#1291632
10
#1291848
00
#1291872
01
#1291944
10
#1292136
00
#1292232
10
#1292448
00
#1292544
10
#1292736
00
#1292760
11
#1292832
10
#1293048
00
#1293072
01
#1293144
10
#1293336
00
#1293360
11
#1293744
01
#1293792
10
#1293936
00
#1294032
10
#1294056
b00000000 B
#1294248
00
#1294344
10
#1294536
00
#1294632
10
#1294848
00
#1294944
10
#1295136
00
#1295232
10
#1295448
00
#1295544
10
#1295736
00
#1295832
10
#1296048
00
#1296144
10
#1296336
00
#1296360
11
#1296888
01
#1296936
10
#1297128
00
#1297248
10
#1297272
bxxxxxxxx B
#1297440
11
#1297632
01
bxxxxxxxx B
#1297728
00
#1297824
11
#1297848
10
#1297872
b11010100 B
#1298040
00
#1298136
10
#1298328
00
#1298376
01
#1298448
10
#1298640
00
#1298664
11
#1298736
10
#1298928
00
#1298976
01
#1299048
10
#1299240
00
#1299264
11
#1299336
10
#1299528
00
#1299576
01
#1299648
10
#1299840
00
#1299936
10
#1300128
00
#1300176
11
#1300464
01
#1300608
10
#1300728
00
#1300800
11
#1300848
10
#1300872
b10100010 B
#1301040
00
#1301064
01
#1301136
10
#1301328
00
#1301376
11
#1301448
10
#1301640
00
#1301664
01
#1301736
10
#1301928
00
#1302048
10
#1302240
00
#1302336
10
#1302528
00
#1302576
11
#1302648
10
#1302840
00
#1302864
01
#1302936
10
#1303128
00
#1303176
11
#1303536
01
#1303584
10
#1303728
00
#1303848
10
#1303872
b00000000 B
#1304040
00
#1304136
10
#1304328
00
#1304448
10
#1304640
00
#1304736
10
#1304928
00
#1305048
10
#1305240
00
#1305336
10
#1305528
00
#1305648
10
#1305840
00
#1305936
10
#1306128
00
#1306176
11
#1306704
01
#1306752
10
#1306944
00
#1307040
10
#1307064
bxxxxxxxx B
#1307232
11
#1307448
01
bxxxxxxxx B
#1307544
00
#1307616
11
#1307640
10
#1307664
b11010110 B
#1307832
00
#1307928
10
#1308144
00
#1308168
01
#1308240
10
#1308432
00
#1308480
11
#1308528
10
#1308744
00
#1308768
01
#1308840
10
#1309032
00
#1309080
11
#1309128
10
#1309344
00
#1309440
10
#1309632
00
#1309656
01
#1309752
10
#1309944
00
#1309968
11
#1310256
01
#1310400
10
#1310544
00
#1310592
11
#1310640
10
#1310664
b10100010 B
#1310832
00
#1310856
01
#1310952
10
#1311144
00
#1311168
11
#1311240
10
#1311432
00
#1311456
01
#1311552
10
#1311744
00
#1311840
10
#1312032
00
#1312152
10
#1312344
00
#1312368
11
#1312440
10
#1312632
00
#1312656
01
#1312752
10
#1312944
00
#1312968
11
#1313352
01
#1313400
10
#1313544
00
#1313640
10
#1313664
b00000000 B
#1313832
00
#1313952
10
#1314144
00
#1314240
10
#1314432
00
#1314552
10
#1314744
00
#1314840
10
#1315032
00
#1315152
10
#1315344
00
#1315440
10
#1315632
00
#1315728
10
#1315944
00
#1315968
11
#1316496
01
#1316544
10
#1316736
00
#1316832
10
#1316856
bxxxxxxxx B
#1317048
11
#1317240
01
bxxxxxxxx B
#1317336
00
#1317408
11
#1317432
10
#1317456
b11010000 B
#1317624
00
#1317744
10
#1317936
00
#1317960
01
#1318032
10
#1318224
00
#1318272
11
#1318344
10
#1318536
00
#1318560
01
#1318632
10
#1318824
00
#1318944
10
#1319136
00
#1319232
10
#1319424
00
#1319544
10
#1319736
00
#1319760
11
#1320048
01
#1320216
10
#1320336
00
#1320384
11
#1320432
10
#1320456
b10100010 B
#1320624
00
#1320672
01
#1320744
10
#1320936
00
#1320960
11
#1321032
10
#1321224
00
#1321272
01
#1321344
10
#1321536
00
#1321632
10
#1321824
00
#1321944
10
#1322136
00
