Sniffer_I2C/Arranque/can3.vcd
$date
  febrero 7, 2012
$end
$version
  ChronoVu LA-8 Version 3,08 
$end
$comment
  File: /home/mat/Escritorio/Arranque quad/can3.kdt
  from sample 0 to sample 8388607
$end
$timescale 10 ns $end
$scope module la8 $end
$var wire 1 0 SCL_(clock) $end
$var wire 1 1 SDA_(data) $end
$var wire 8 B I2C Bus $end
$upscope $end
$enddefinitions $end
$dumpvars
10
11
bxxxxxxxx B
$end
#0
10
11
bxxxxxxxx B
#36
b11111111 B
#446976
00
01
#447012
10
11
#474228
00
01
#474264
10
11
#1454040
00
01
#1454076
10
11
#6520752
00
#6520788
10
#7454232
00
01
#7454268
10
11
#7491024
00
01
#7491060
10
11
#7546896
00
#7546932
10
#8447688
00
01
#8447724
10
11
#8457228
00
01
#8457264
10
11
#8457300
b11111111 B
#8503560
00
#8503596
10
#11486592
00
01
#11486628
10
11
#14481900
00
01
#14481936
10
11
#14491440
00
01
#14491476
10
11
#17421336
00
01
#17421372
10
11
#18589212
00
01
#18589248
10
11
#21486420
00
01
#21486456
10
11
#24406812
00
#24406848
10
#25419348
00
01
#25419384
10
11
#25419420
b11111111 B
#25428888
00
01
#25428924
10
11
#26598132
00
01
#26598168
10
11
#30490164
00
01
#30490200
10
11
#34432632
00
01
#34432668
10
11
#38398212
00
01
#38398248
10
11
#38417292
00
01
#38417328
10
11
#40480488
00
01
#40480524
10
11
#40545900
00
01
#40545936
10
11
#45391860
00
01
#45391896
10
11
#45391932
b11111111 B
#45447732
00
#45447768
10
#46392120
00
01
#46392156
10
11
#49436460
00
#49436496
10
#52542144
00
01
#52542180
10
11
#55582416
00
01
#55582452
10
11
#57494340
00
01
#57494376
10
11
#61383636
00
01
#61383672
10
11
#63434592
00
#63434628
10
#64344924
00
01
#64344960
10
11
#64344996
b11111111 B
#64392624
00
01
#64392660
10
11
#65245716
00
#65245752
10
#66384972
00
01
#66385008
10
11
#68348700
00
01
#68348736
10
11
#70343784
00
01
#70343820
10
11
#71341308
00
#71341344
10
#72378360
00
01
#72378396
10
11
#73333620
00
01
#73333656
10
11
#75208752
00
01
#75208788
10
11
#75208824
b11111111 B
#76334400
00
01
#76334436
10
11
#79359696
00
01
#79359732
10
11
#81187128
00
#81187164
10
#84493188
00
01
#84493224
10
11
#85381704
00
#85381740
10
#87384960
00
01
#87384996
10
11
#90387144
00
01
#90387180
10
11
#90490716
00
#90490752
10
#92390400
00
01
#92390436
10
11
#92390472
b11111111 B
#94298256
00
01
#94298292
10
11
#96345108
00
01
#96345144
10
11
#101309688
00
#101309724
10
#102331764
00
01
#102331800
10
11
#102433968
00
#102434004
10
#105350292
00
01
#105350328
10
11
#106294680
00
01
#106294716
10
11
#106341012
00
01
#106341048
10
11
#107293572
00
01
#107293608
10
11
#107293644
bxxxxxxxx B
#108443736
00
01
#108443772
10
11
#111148812
00
01
#111148848
10
11
#113391900
00
01
#113391936
10
11
#118341396
00
01
#118341432
10
11
#118350936
01
bxxxxxxxx B
#118350972
11
#124296660
00
01
#124296696
10
11
#124296732
b11111111 B
#126244044
00
01
#126244080
10
11
#126291744
00
01
#126291780
10
11
#131456592
00
01
#131456628
10
11
#134257068
00
01
#134257104
10
11
#137098404
00
01
#137098440
10
11
#137444544
00
01
#137444580
10
11
#139248828
00
01
#139248864
10
11
#144233820
00
01
#144233856
10
11
#145394892
00
01
#145394928
10
11
#145394964
bxxxxxxxx B
#158230692
00
01
#158230728
10
11
#158249772
00
01
#158249808
10
11
#159252768
00
01
#159252804
10
11
#159353604
00
01
#159353640
10
11
#160197156
00
01
#160197192
10
11
#162194976
00
#162195012
10
#163199340
00
01
#163199376
10
11
#164237760
01
bxxxxxxxx B
#164237796
11
#165052692
00
01
#165052728
10
11
#165052764
b11111111 B
#166186512
00
#166186548
10
#168191100
00
01
#168191136
10
11
#170221608
00
01
#170221644
10
11
#171354060
00
01
#171354096
10
11
#172192140
00
01
#172192176
10
11
#173212848
00
01
#173212884
10
11
#178185528
00
01
#178185564
10
11
#182202912
00
#182202948
10
#183184092
00
01
#183184128
10
11
#183184164
b11111111 B
#185192784
00
01
#185192820
10
11
#185229576
00
01
#185229612
10
11
#186296616
00
#186296652
10
#190155924
00
#190155960
10
#191195712
00
01
#191195748
10
11
#194176080
00
01
#194176116
10
11
#197195940
00
01
#197195976
10
11
#197243640
00
01
#197243676
10
11
#199182852
00
01
#199182888
10
11
#199182924
bxxxxxxxx B
#202353948
00
01
#202353984
10
11
#203042124
00
01
#203042160
10
11
#207300744
00
01
#207300780
10
11
#210129804
00
01
#210129840
10
11
#211131432
00
01
#211131468
10
11
#215132508
00
01
#215132544
10
11
#218137356
00
01
#218137392
10
11
#220151484
01
bxxxxxxxx B
#220151520
11
#226188432
00
01
#226188468
10
11
#226188504
b11111111 B
#227001996
00
#227002032
10
#230192172
00
01
#230192208
10
11
#232093224
00
#232093260
10
#233295192
00
01
#233295228
10
11
#236193768
00
01
#236193804
10
11
#241083324
00
01
#241083360
10
11
#244082736
00
01
#244082772
10
11
#248087844
00
01
#248087880
10
11
#252132516
00
01
#252132552
10
11
#252132588
b11111111 B
#261088560
00
01
#261088596
10
11
#268922988
00
01
#268923024
10
11
#271047528
00
01
#271047564
10
11
#273140748
00
#273140784
10
#273252492
00
#273252528
10
#275039064
00
01
#275039100
10
11
#280251612
00
#280251648
10
#288034236
00
01
#288034272
10
11
#288891396
00
01
#288891432
10
11
#288891468
b11111111 B
#289049472
00
01
#289049508
10
11
#290051064
00
01
#290051100
10
11
#291079944
00
01
#291079980
10
11
#291997080
00
#291997116
10
#293035500
00
01
#293035536
10
11
#293147244
00
01
#293147280
10
11
#294093000
00
01
#294093036
10
11
#295018308
00
#295018344
10
#295996752
00
#295996788
10
#295996824
bxxxxxxxx B
#296991576
00
#296991612
10
#299009808
00
01
#299009844
10
11
#301989816
b00000000 B
