Sniffer_I2C/Arranque/can4.vcd
$date
  febrero 7, 2012
$end
$version
  ChronoVu LA-8 Version 3,08 
$end
$comment
  File: /home/mat/Escritorio/Arranque quad/can3.kdt
  from sample 0 to sample 8388607
$end
$timescale 10 ns $end
$scope module la8 $end
$var wire 1 0 SCL_(clock) $end
$var wire 1 1 SDA_(data) $end
$var wire 8 B I2C Bus $end
$upscope $end
$enddefinitions $end
$dumpvars
10
11
bxxxxxxxx B
$end
#0
10
11
bxxxxxxxx B
#36
b11111111 B
#1969308
00
01
#1969344
10
11
#4007628
00
#4007664
10
#4033512
00
#4033548
10
#4078476
00
01
#4078512
10
11
#4966812
00
01
#4966848
10
11
#4984524
00
01
#4984560
10
11
#5073084
00
01
#5073120
10
11
#5961420
00
01
#5961456
10
11
#6022728
00
#6022764
10
#6022800
b11111111 B
#7134516
00
01
#7134552
10
11
#7979256
00
01
#7979292
10
11
#8120952
00
#8120988
10
#8832168
00
01
#8832204
10
11
#9923508
00
#9923544
10
#9968472
00
01
#9968508
10
11
#12115764
00
#12115800
10
#12835152
00
#12835188
10
#12976848
00
01
#12976884
10
11
#12976920
b11111111 B
#13039524
00
01
#13039560
10
11
#15974316
00
01
#15974352
10
11
#16135092
00
#16135128
10
#17038404
00
#17038440
10
#18099792
00
#18099828
10
#18970416
00
01
#18970452
10
11
#19928232
00
01
#19928268
10
11
#20026332
00
01
#20026368
10
11
#22987008
00
01
#22987044
10
11
#22987080
b11111111 B
#23057856
00
01
#23057892
10
11
#23102820
00
#23102856
10
#24008868
00
01
#24008904
10
11
#24026580
00
01
#24026616
10
11
#24071544
00
#24071580
10
#25962660
00
01
#25962696
10
11
#28033632
00
01
#28033668
10
11
#30972492
00
01
#30972528
10
11
#31968468
00
#31968504
10
#31968540
b11111111 B
#32987592
00
#32987628
10
#33085692
00
01
#33085728
10
11
#33129288
00
01
#33129324
10
11
#33914088
00
01
#33914124
10
11
#34833780
00
#34833816
10
#36088632
00
01
#36088668
10
11
#38827224
00
01
#38827260
10
11
#38943036
00
#38943072
10
#39943080
00
01
#39943116
10
11
#39943152
b11111111 B
#40973112
00
#40973148
10
#42030396
00
#42030432
10
#42841080
00
01
#42841116
10
11
#45939348
00
01
#45939384
10
11
#45974772
00
01
#45974808
10
11
#46027908
00
#46027944
10
#46981656
00
01
#46981692
10
11
#48146580
00
01
#48146616
10
11
#48822372
00
01
#48822408
10
11
#48822444
b11111111 B
#49980456
00
01
#49980492
10
11
#50006340
00
#50006376
10
#50024052
00
#50024088
10
#52817148
00
#52817184
10
#52967016
00
01
#52967052
10
11
#53020152
00
01
#53020188
10
11
#55983528
00
01
#55983564
10
11
#56126592
00
#56126628
10
#60011028
00
#60011064
10
#60011100
b11111111 B
#60117300
00
01
#60117336
10
11
#60974280
00
01
#60974316
10
11
#62132400
00
01
#62132436
10
11
#63086112
00
01
#63086148
10
11
#64053468
00
#64053504
10
#66963708
00
01
#66963744
10
11
#67150368
00
01
#67150404
10
11
#68933844
00
01
#68933880
10
11
#68978808
00
01
#68978844
10
11
#68978880
b11111111 B
#69942096
00
01
#69942132
10
11
#70966692
00
01
#70966728
10
11
#72070308
00
#72070344
10
#72123444
00
#72123480
10
#72825120
00
#72825156
10
#72932760
00
#72932796
10
#73127592
00
01
#73127628
10
11
#73904184
00
#73904220
10
#73966860
00
01
#73966896
10
11
#73966932
b11111111 B
#74019996
00
01
#74020032
10
11
#74082672
00
#74082708
10
#76071924
00
#76071960
10
#77987556
00
#77987592
10
#79006680
00
01
#79006716
10
11
#80073504
00
01
#80073540
10
11
#80957736
00
#80957772
10
#81072180
00
#81072216
10
#81972792
00
01
#81972828
10
11
#81972864
b11111111 B
#84079188
00
01
#84079224
10
11
#87132492
00
01
#87132528
10
11
#88965000
00
01
#88965036
10
11
#89975952
00
01
#89975988
10
11
#90083592
00
#90083628
10
#90965088
00
01
#90965124
10
11
#91071360
00
01
#91071396
10
11
#92819412
00
01
#92819448
10
11
#92996532
00
#92996568
10
#92996604
b11111111 B
#94074264
00
#94074300
10
#97935516
00
01
#97935552
10
11
#98086752
00
#98086788
10
#98114004
00
#98114040
10
#98131716
00
01
#98131752
10
11
#103916808
00
#103916844
10
#104014908
00
#104014944
10
#104077584
00
01
#104077620
10
11
#105024492
00
01
#105024528
10
11
#105024564
b11111111 B
#105937344
00
01
#105937380
10
11
#106971480
00
01
#106971516
10
11
#108977040
00
01
#108977076
10
11
#110013876
00
#110013912
10
#111930876
00
01
#111930912
10
11
#114112188
00
01
#114112224
10
11
#114996420
00
#114996456
10
#116037360
00
01
#116037396
10
11
#119042964
00
#119043000
10
#119043036
b11111111 B
#119950380
00
01
#119950416
10
11
#119968092
00
01
#119968128
10
11
#120962700
00
01
#120962736
10
11
#121953204
00
#121953240
10
#123915168
00
#123915204
10
#126781812
00
#126781848
10
#130982328
00
01
#130982364
10
11
#131978304
00
01
#131978340
10
11
#132922512
00
01
#132922548
10
11
#132922584
b11111111 B
#134073828
00
#134073864
10
#135970380
00
01
#135970416
10
11
#137984148
00
01
#137984184
10
11
#141135588
00
#141135624
10
#142130196
00
#142130232
10
#142807356
00
01
#142807392
10
11
#144127584
00
01
#144127620
10
11
#144803376
00
#144803412
10
#147017376
00
01
#147017412
10
11
#147017448
b11111111 B
#148916664
00
01
#148916700
10
11
#150028452
00
#150028488
10
#151940016
00
01
#151940052
10
11
#151983612
00
01
#151983648
10
11
#152945532
00
#152945568
10
#153964656
00
#153964692
10
#156027456
00
01
#156027492
10
11
#156922596
00
01
#156922632
10
11
#159988176
00
01
#159988212
10
11
#159988248
b11111111 B
#161928360
00
#161928396
10
#162131364
00
#162131400
10
#164115144
00
01
#164115180
10
11
#164992572
00
01
#164992608
10
11
#168135804
00
01
#168135840
10
11
#171134640
00
01
#171134676
10
11
#171915336
00
01
#171915372
10
11
#171986184
00
#171986220
10
#173979468
00
01
#173979504
10
11
#173979540
b11111111 B
#174980880
00
01
#174980916
10
11
#175059900
00
01
#175059936
10
11
#177942924
00
01
#177942960
10
11
#177987888
00
01
#177987924
10
11
#178032852
00
01
#178032888
10
11
#180904968
00
#180905004
10
#182771568
00
#182771604
10
#183933756
00
01
#183933792
10
11
#185026464
00
01
#185026500
10
11
#185026536
b11111111 B
#185928408
00
01
#185928444
10
11
#186095988
00
01
#186096024
10
11
#188981712
00
01
#188981748
10
11
#189078444
00
#189078480
10
#190093464
00
#190093500
10
#191009052
00
#191009088
10
#191930076
00
01
#191930112
10
11
#193085460
00
#193085496
10
#193938372
00
01
#193938408
10
11
#193938444
b11111111 B
#195904440
00
#195904476
10
#196994412
00
#196994448
10
#198997272
00
#198997308
10
#199979604
00
#199979640
10
#200024568
00
#200024604
10
#200069532
00
01
#200069568
10
11
#200912904
00
01
#200912940
10
11
#200940156
00
01
#200940192
10
11
#200975580
00
01
#200975616
10
11
#200975652
b11111111 B
#201991968
00
#201992004
10
#202080528
00
#202080564
10
#203986656
00
01
#203986692
10
11
#204771456
00
#204771492
10
#204982632
00
01
#204982668
10
11
#207029088
00
#207029124
10
#210789504
00
#210789540
10
#210939372
00
01
#210939408
10
11
#211936716
00
01
#211936752
10
11
#211936788
b11111111 B
#216769464
00
#216769500
10
#216804888
00
01
#216804924
10
11
#217931652
00
01
#217931688
10
11
#219088404
00
01
#219088440
10
11
#219915432
00
01
#219915468
10
11
#219942684
00
#219942720
10
#220786056
00
#220786092
10
#220811940
00
#220811976
10
#222089940
00
#222089976
10
#222090012
b11111111 B
#224981136
00
01
#224981172
10
11
#226136520
00
#226136556
10
#227000340
00
#227000376
10
#227088900
00
01
#227088936
10
11
#227940444
00
01
#227940480
10
11
#229015440
00
#229015476
10
#229977360
00
01
#229977396
10
11
#230760792
00
#230760828
10
#230963796
00
#230963832
10
#230963868
b11111111 B
#231878016
00
01
#231878052
10
11
#231939324
00
01
#231939360
10
11
#231974748
00
01
#231974784
10
11
#232781328
00
01
#232781364
10
11
#233869932
00
#233869968
10
#233984376
00
01
#233984412
10
11
#234038880
00
01
#234038916
10
11
#235015776
00
01
#235015812
10
11
#236032200
00
#236032236
10
#236032272
b11111111 B
#237893328
00
01
#237893364
10
11
#237991428
00
#237991464
10
#238088160
00
01
#238088196
10
11
#239875704
00
#239875740
10
#239973804
00
01
#239973840
10
11
#240984756
00
#240984792
10
#241897608
00
01
#241897644
10
11
#243895032
00
01
#243895068
10
11
#243974052
00
01
#243974088
10
11
#243974124
b11111111 B
#244938672
00
01
#244938708
10
11
#245929212
00
01
#245929248
10
11
#250020756
00
#250020792
10
#252937800
00
#252937836
10
#255078252
00
01
#255078288
10
11
#255925728
00
01
#255925764
10
11
#256751388
00
#256751424
10
#256882176
00
#256882212
10
#259893252
00
01
#259893288
10
11
#259893324
b11111111 B
#260081280
00
01
#260081316
10
11
#262017360
00
01
#262017396
10
11
#263092356
00
#263092392
10
#264040632
00
#264040668
10
#266937300
00
01
#266937336
10
11
#267937380
00
01
#267937416
10
11
#268925184
00
01
#268925220
10
11
#270021996
00
01
#270022032
10
11
#272004408
00
#272004444
10
#272004480
b11111111 B
#272890008
00
01
#272890044
10
11
#272925432
00
#272925468
10
#273930948
00
01
#273930984
10
11
#275887476
00
#275887512
10
#275931072
00
#275931108
10
#276970644
00
01
#276970680
10
11
#278898516
00
#278898552
10
#278942112
00
01
#278942148
10
11
#278977536
00
01
#278977572
10
11
#278977608
b11111111 B
#280923156
00
#280923192
10
#281934108
00
01
#281934144
10
11
#282086712
00
01
#282086748
10
11
#282894660
00
#282894696
10
#283906980
00
01
#283907016
10
11
#285026940
00
#285026976
10
#285922080
00
01
#285922116
10
11
#286082856
00
01
#286082892
10
11
#288779220
00
01
#288779256
10
11
#288779292
b11111111 B
#289885536
00
01
#289885572
10
11
#290028600
00
01
#290028636
10
11
#290881512
00
01
#290881548
10
11
#290952360
00
01
#290952396
10
11
#291085884
00
#291085920
10
#291982392
00
01
#291982428
10
11
#293987988
00
#293988024
10
#295032996
00
01
#295033032
10
11
#295929504
00
#295929540
10
#295929576
bxxxxxxxx B
#296756532
00
#296756568
10
#297022212
00
01
#297022248
10
11
#297084888
00
01
#297084924
10
11
#298974636
00
01
#298974672
10
11
#301038768
00
01
#301038804
10
11
#301083732
00
01
#301083768
10
11
#301989816
b00000000 B
