Sniffer_I2C/Arranque/can5.vcd
$date
  febrero 7, 2012
$end
$version
  ChronoVu LA-8 Version 3,08 
$end
$comment
  File: /home/mat/Escritorio/Arranque quad/can4.kdt
  from sample 0 to sample 8388607
$end
$timescale 10 ns $end
$scope module la8 $end
$var wire 1 0 SCL_(clock) $end
$var wire 1 1 SDA_(data) $end
$var wire 8 B I2C Bus $end
$upscope $end
$enddefinitions $end
$dumpvars
10
11
bxxxxxxxx B
$end
#0
10
11
bxxxxxxxx B
#36
b11111111 B
#1853748
00
01
#1853784
10
11
#1861920
00
01
#1861956
10
11
#2750112
00
#2750148
10
#2912220
00
01
#2912256
10
11
#7840800
00
#7840836
10
#7848972
00
01
#7849008
10
11
#7917084
00
#7917120
10
#8767116
00
01
#8767152
10
11
#8877456
00
01
#8877492
10
11
#8877528
b11111111 B
#10062612
00
01
#10062648
10
11
#11853936
00
#11853972
10
#12709440
00
#12709476
10
#14021280
00
01
#14021316
10
11
#14073048
00
01
#14073084
10
11
#18869544
00
01
#18869580
10
11
#19915740
00
#19915776
10
#22871844
00
#22871880
10
#23877180
00
#23877216
10
#23877252
b11111111 B
#24055632
00
01
#24055668
10
11
#25013268
00
#25013304
10
#26906796
00
#26906832
10
#30029076
00
01
#30029112
10
11
#30719736
00
01
#30719772
10
11
#32709960
00
#32709996
10
#37964124
00
#37964160
10
#38856384
00
01
#38856420
10
11
#39871260
00
01
#39871296
10
11
#39871332
b11111111 B
#40740372
00
#40740408
10
#43877664
00
01
#43877700
10
11
#45903312
00
#45903348
10
#52869816
00
#52869852
10
#53899668
00
01
#53899704
10
11
#55896732
00
#55896768
10
#57043764
00
#57043800
10
#58065444
00
#58065480
10
#58916844
00
01
#58916880
10
11
#58916916
b11111111 B
#58975416
00
01
#58975452
10
11
#59869044
00
#59869080
10
#66970440
00
01
#66970476
10
11
#67943088
00
#67943124
10
#69865200
00
01
#69865236
10
11
#70756092
00
01
#70756128
10
11
#71858160
00
01
#71858196
10
11
#73972332
00
01
#73972368
10
11
#78919992
00
#78920028
10
#78920064
b11111111 B
#79904916
00
01
#79904952
10
11
#81914220
00
#81914256
10
#83859516
00
01
#83859552
10
11
#86069088
00
#86069124
10
#86879628
00
01
#86879664
10
11
#93023352
00
01
#93023388
10
11
#96863544
00
01
#96863580
10
11
#99978984
00
01
#99979020
10
11
#100745928
00
01
#100745964
10
11
#100746000
b11111111 B
#100754100
00
#100754136
10
#100864440
00
#100864476
10
#102770208
00
01
#102770244
10
11
#103910400
00
#103910436
10
#104072508
00
#104072544
10
#106730208
00
01
#106730244
10
11
#106865064
00
01
#106865100
10
11
#107979372
00
01
#107979408
10
11
#112079736
00
01
#112079772
10
11
#112079808
b11111111 B
#113871096
00
01
#113871132
10
11
#118903176
00
01
#118903212
10
11
#120887964
00
01
#120888000
10
11
#122077188
00
01
#122077224
10
11
#123861708
00
01
#123861744
10
11
#126024948
00
#126024984
10
#126983952
00
01
#126983988
10
11
#128060136
00
01
#128060172
10
11
#128926512
00
#128926548
10
#128926584
b11111111 B
#129028680
00
#129028716
10
#129929112
00
#129929148
10
#130863600
00
01
#130863636
10
11
#131864832
00
01
#131864868
10
11
#133064964
00
#133065000
10
#133861860
00
01
#133861896
10
11
#135970632
00
01
#135970668
10
11
#136876500
00
01
#136876536
10
11
#136969128
00
#136969164
10
#136969200
b11111111 B
#145867320
00
#145867356
10
#146081196
00
#146081232
10
#146722824
00
#146722860
10
#146875392
00
01
#146875428
10
11
#147924324
00
#147924360
10
#147976092
00
#147976128
10
#150865416
00
#150865452
10
#150909012
00
#150909048
10
#154908540
00
#154908576
10
#154908612
b11111111 B
#155070648
00
#155070684
10
#160882020
00
01
#160882056
10
11
#163075212
00
01
#163075248
10
11
#165851460
00
01
#165851496
10
11
#165919572
00
#165919608
10
#166879944
00
01
#166879980
10
11
#167036616
00
#167036652
10
#169845552
00
#169845588
10
#171845352
00
01
#171845388
10
11
#171845424
b11111111 B
#171903924
00
01
#171903960
10
11
#172014264
00
#172014300
10
#172905156
00
01
#172905192
10
11
#174869532
00
#174869568
10
#175951152
00
01
#175951188
10
11
#179878500
00
01
#179878536
10
11
#183916152
00
01
#183916188
10
11
#183959748
00
#183959784
10
#186023556
00
01
#186023592
10
11
#186023628
b11111111 B
#186884496
00
#186884532
10
#188041032
00
#188041068
10
#189061344
00
01
#189061380
10
11
#191031156
00
01
#191031192
10
11
#191905704
00
01
#191905740
10
11
#192016044
00
01
#192016080
10
11
#192872880
00
01
#192872916
10
11
#192881052
00
01
#192881088
10
11
#193067676
00
01
#193067712
10
11
#193067748
b11111111 B
#193880952
00
#193880988
10
#195868440
00
01
#195868476
10
11
#195954264
00
01
#195954300
10
11
#197910432
00
01
#197910468
10
11
#198913068
00
01
#198913104
10
11
#198921240
00
01
#198921276
10
11
#199880244
00
01
#199880280
10
11
#201967200
00
#201967236
10
#202018968
00
01
#202019004
10
11
#202019040
b11111111 B
#203975136
00
01
#203975172
10
11
#204009192
00
#204009228
10
#204757056
00
#204757092
10
#204917796
00
01
#204917832
10
11
#205848216
00
01
#205848252
10
11
#205916328
00
#205916364
10
#207962424
00
01
#207962460
10
11
#208030536
00
01
#208030572
10
11
#208881936
00
01
#208881972
10
11
#208882008
b11111111 B
#210928032
00
#210928068
10
#211072428
00
01
#211072464
10
11
#211870692
00
01
#211870728
10
11
#214905780
00
01
#214905816
10
11
#215879760
00
01
#215879796
10
11
#216919152
00
01
#216919188
10
11
#217966716
00
01
#217966752
10
11
#219014280
00
01
#219014316
10
11
#219022452
00
01
#219022488
10
11
#219022524
b11111111 B
#219864312
00
#219864348
10
#220869648
00
#220869684
10
#220921416
00
#220921452
10
#221091696
00
01
#221091732
10
11
#223076484
00
#223076520
10
#224753436
00
01
#224753472
10
11
#225919512
00
01
#225919548
10
11
#225953568
00
#225953604
10
#226961604
00
01
#226961640
10
11
#226961676
b11111111 B
#227849796
00
01
#227849832
10
11
#229921776
00
01
#229921812
10
11
#230777280
00
#230777316
10
#230913504
00
01
#230913540
10
11
#231057900
00
#231057936
10
#231951528
00
01
#231951564
10
11
#233044056
00
01
#233044092
10
11
#233926776
00
01
#233926812
10
11
#234881712
00
01
#234881748
10
11
#234881784
b11111111 B
#235903392
00
01
#235903428
10
11
#238907160
00
01
#238907196
10
11
#238915332
00
01
#238915368
10
11
#238973904
00
01
#238973940
10
11
#240921936
00
01
#240921972
10
11
#240955992
00
01
#240956028
10
11
#241868700
00
#241868736
10
#242022636
00
01
#242022672
10
11
#242074404
00
01
#242074440
10
11
#242074476
b11111111 B
#242921736
00
01
#242921772
10
11
#243973404
00
01
#243973440
10
11
#247963428
00
01
#247963464
10
11
#248764428
00
01
#248764464
10
11
#250875900
00
01
#250875936
10
11
#250918128
00
#250918164
10
#250968528
00
#250968564
10
#251088408
00
01
#251088444
10
11
#251874432
00
01
#251874468
10
11
#251874504
b11111111 B
#251924832
00
01
#251924868
10
11
#252009288
00
#252009324
10
#252017460
00
01
#252017496
10
11
#252077400
00
01
#252077436
10
11
#252751716
00
#252751752
10
#253886472
00
#253886508
10
#256737636
00
#256737672
10
#258767388
00
01
#258767424
10
11
#260912916
00
01
#260912952
10
11
#260912988
b11111111 B
#260930628
00
01
#260930664
10
11
#261895104
00
01
#261895140
10
11
#261929160
00
#261929196
10
#263860812
00
#263860848
10
#263903040
00
#263903076
10
#264872952
00
#264872988
10
#265951836
00
#265951872
10
#265977720
00
01
#265977756
10
11
#266019948
00
01
#266019984
10
11
#266020020
bxxxxxxxx B
#267680916
01
bxxxxxxxx B
#267681024
00
#267681096
11
#267681132
10
#267681168
b11010010 B
#267681312
00
#267681420
10
#267681600
00
#267681636
01
#267681708
10
#267681924
00
#267681960
11
#267682032
10
#267682212
00
#267682248
01
#267682320
10
#267682500
00
#267682608
10
#267682824
00
#267682860
11
#267682932
10
#267683112
00
#267683148
01
#267683220
10
#267683400
00
#267683436
11
#267683724
01
#267683868
10
#267684012
00
#267684084
11
#267684120
10
#267684156
b10100010 B
#267684300
00
#267684336
01
#267684408
10
#267684624
00
#267684660
11
#267684732
10
#267684912
00
#267684948
01
#267685020
10
#267685200
00
#267685308
10
#267685524
00
#267685632
10
#267685812
00
#267685848
11
#267685920
10
#267686100
00
#267686136
01
#267686208
10
#267686424
00
#267686460
11
#267686820
01
#267686856
10
#267687000
00
#267687108
10
#267687144
b00000000 B
#267687324
00
#267687432
10
#267687612
00
#267687720
10
#267687900
00
#267688008
10
#267688224
00
#267688332
10
#267688512
00
#267688620
10
#267688800
00
#267688908
10
#267689124
00
#267689232
10
#267689412
00
#267689448
11
#267689988
01
#267690024
10
#267690204
00
#267690312
10
#267690348
bxxxxxxxx B
#267690528
11
#267690708
01
bxxxxxxxx B
#267690816
00
#267690888
11
#267690924
10
#267690960
b11010100 B
#267691104
00
#267691212
10
#267691428
00
01
#267691500
10
#267691716
00
#267691752
11
#267691824
10
#267692004
00
#267692040
01
#267692112
10
#267692328
00
11
#267692400
10
#267692616
00
#267692652
01
#267692724
10
#267692904
00
#267693012
10
#267693228
00
11
#267693552
01
#267693660
10
#267693804
00
#267693876
11
#267693912
10
#267693948
b10100010 B
#267694128
00
01
#267694200
10
#267694416
00
#267694452
11
#267694524
10
#267694704
00
#267694740
01
#267694812
10
#267695028
00
#267695100
10
#267695316
00
#267695424
10
#267695604
00
#267695640
11
#267695712
10
#267695928
00
01
#267696000
10
#267696216
00
#267696252
11
#267696612
01
#267696684
10
#267696828
00
#267696900
10
#267696936
b00000000 B
#267697116
00
#267697224
10
#267697404
00
#267697512
10
#267697728
00
#267697800
10
#267698016
00
#267698124
10
#267698304
00
#267698412
10
#267698628
00
#267698700
10
#267698916
00
#267699024
10
#267699204
00
#267699240
11
#267699780
01
#267699816
10
#267699996
00
#267700104
10
#267700140
bxxxxxxxx B
#267700320
11
#267700500
01
bxxxxxxxx B
#267700608
00
#267700680
11
#267700716
10
#267700752
b11010110 B
#267700896
00
#267701004
10
#267701220
00
01
#267701328
10
#267701508
00
#267701544
11
#267701616
10
#267701796
00
#267701832
01
#267701904
10
#267702120
00
#267702156
11
#267702228
10
#267702408
00
#267702516
10
#267702696
00
#267702732
01
#267702804
10
#267703020
00
#267703056
11
#267703344
01
#267703488
10
#267703596
00
#267703668
11
#267703704
10
#267703740
b10100010 B
#267703920
00
01
#267704028
10
#267704208
00
#267704244
11
#267704316
10
#267704496
00
#267704532
01
#267704604
10
#267704820
00
#267704928
10
#267705108
00
#267705216
10
#267705396
00
#267705432
11
#267705504
10
#267705720
00
01
#267705828
10
#267706008
00
#267706044
11
#267706404
01
#267706476
10
#267706620
00
#267706728
10
#267706764
b00000000 B
#267706908
00
#267707016
10
#267707196
00
#267707304
10
#267707520
00
#267707628
10
#267707808
00
#267707916
10
#267708096
00
#267708204
10
#267708420
00
#267708528
10
#267708708
00
#267708816
10
#267708996
00
#267709032
11
#267709572
01
#267709608
10
#267709824
00
#267709896
10
#267709932
bxxxxxxxx B
#267710112
11
#267710292
01
bxxxxxxxx B
#267710400
00
#267710472
11
#267710508
10
#267710544
b11010000 B
#267710724
00
#267710796
10
#267711012
00
#267711048
01
#267711120
10
#267711300
00
#267711336
11
#267711408
10
#267711624
00
01
#267711696
10
#267711912
00
#267712020
10
#267712200
00
#267712308
10
#267712524
00
#267712596
10
#267712812
00
#267712848
11
#267713136
01
#267713280
10
#267713424
00
#267713460
11
#267713496
10
#267713532
b10100010 B
#267713712
00
#267713748
01
#267713820
10
#267714000
00
#267714036
11
#267714108
10
#267714324
00
01
#267714396
10
#267714612
00
#267714720
10
#267714900
00
#267715008
10
#267715224
00
11
#267715296
10
#267715512
00
#267715548
01
#267715620
10
#267715800
00
#267715836
11
#267716232
01
#267716268
10
#267716412
00
#267716520
10
#267716556
b00000000 B
#267716700
00
#267716808
10
#267717024
00
#267717096
10
#267717312
00
#267717420
10
#267717600
00
#267717708
10
#267717924
00
#267717996
10
#267718212
00
#267718320
10
#267718500
00
#267718608
10
#267718824
00
11
#267719364
01
#267719436
10
#267719616
00
#267719724
10
#267719760
bxxxxxxxx B
#267719904
11
#267874092
01
bxxxxxxxx B
#267874200
00
#267874272
11
#267874308
10
#267874344
b11010010 B
#267874488
00
#267874596
10
#267874776
00
#267874812
01
#267874884
10
#267875100
00
#267875136
11
#267875208
10
#267875388
00
#267875424
01
#267875496
10
#267875676
00
#267875784
10
#267876000
00
#267876036
11
#267876108
10
#267876288
00
#267876324
01
#267876396
10
#267876576
00
#267876612
11
#267876900
01
#267877080
10
#267877188
00
#267877260
11
#267877296
10
#267877332
b10100010 B
#267877476
00
#267877512
01
#267877584
10
#267877800
00
#267877836
11
#267877908
10
#267878088
00
#267878124
01
#267878196
10
#267878376
00
#267878484
10
#267878700
00
#267878808
10
#267878988
00
#267879024
11
#267879096
10
#267879276
00
#267879312
01
#267879384
10
#267879600
00
#267879636
11
#267879996
01
#267880068
10
#267880176
00
#267880284
10
#267880320
b00000000 B
#267880500
00
#267880608
10
#267880788
00
#267880896
10
#267881076
00
#267881184
10
#267881400
00
#267881508
10
#267881688
00
#267881796
10
#267881976
00
#267882084
10
#267882300
00
#267882408
10
#267882588
00
#267882624
11
#267883164
01
#267883200
10
#267883380
00
#267883488
10
#267883524
bxxxxxxxx B
#267883704
11
#267883884
01
bxxxxxxxx B
#267883992
00
#267884064
11
#267884100
10
#267884136
b11010100 B
#267884280
00
#267884388
10
#267884604
00
01
#267884676
10
#267884892
00
#267884928
11
#267885000
10
#267885180
00
#267885216
01
#267885288
10
#267885504
00
11
#267885576
10
#267885792
00
#267885828
01
#267885900
10
#267886080
00
#267886188
10
#267886404
00
11
#267886728
01
#267886872
10
#267886980
00
#267887052
11
#267887088
10
#267887124
b10100010 B
#267887304
00
01
#267887376
10
#267887592
00
#267887628
11
#267887700
10
#267887880
00
#267887916
01
#267887988
10
#267888204
00
#267888276
10
#267888492
00
#267888600
10
#267888780
00
#267888816
11
#267888888
10
#267889104
00
01
#267889176
10
#267889392
00
#267889428
11
#267889788
01
#267889860
10
#267890004
00
#267890076
10
#267890112
b00000000 B
#267890292
00
#267890400
10
#267890580
00
#267890688
10
#267890904
00
#267890976
10
#267891192
00
#267891300
10
#267891480
00
#267891588
10
#267891804
00
#267891876
10
#267892092
00
#267892200
10
#267892380
00
#267892416
11
#267892956
01
#267892992
10
#267893172
00
#267893280
10
#267893316
bxxxxxxxx B
#267893496
11
#267893676
01
bxxxxxxxx B
#267893784
00
#267893856
11
#267893892
10
#267893928
b11010110 B
#267894072
00
#267894180
10
#267894396
00
#267894432
01
#267894504
10
#267894684
00
#267894720
11
#267894792
10
#267894972
00
#267895008
01
#267895080
10
#267895296
00
#267895332
11
#267895404
10
#267895584
00
#267895692
10
#267895872
00
#267895908
01
#267895980
10
#267896196
00
#267896232
11
#267896520
01
#267896664
10
#267896772
00
#267896844
11
#267896880
10
#267896916
b10100010 B
#267897096
00
#267897132
01
#267897204
10
#267897384
00
#267897420
11
#267897492
10
#267897672
00
#267897708
01
#267897780
10
#267897996
00
#267898104
10
#267898284
00
#267898392
10
#267898572
00
#267898608
11
#267898680
10
#267898896
00
#267898932
01
#267899004
10
#267899184
00
#267899220
11
#267899616
01
#267899652
10
#267899796
00
#267899904
10
#267899940
b00000000 B
#267900084
00
#267900192
10
#267900372
00
#267900480
10
#267900696
00
#267900804
10
#267900984
00
#267901092
10
#267901272
00
#267901380
10
#267901596
00
#267901704
10
#267901884
00
#267901992
10
#267902172
00
#267902208
11
#267902748
01
#267902820
10
#267903000
00
#267903108
10
#267903144
bxxxxxxxx B
#267903288
11
#267903504
01
bxxxxxxxx B
#267903576
00
#267903648
11
#267903684
10
#267903720
b11010000 B
#267903900
00
#267904008
10
#267904188
00
#267904224
01
#267904296
10
#267904476
00
#267904512
11
#267904584
10
#267904800
00
01
#267904908
10
#267905088
00
#267905196
10
#267905376
00
#267905484
10
#267905700
00
#267905808
10
#267905988
00
#267906024
11
#267906312
01
#267906456
10
#267906600
00
#267906636
11
#267906708
10
#267906744
b10100010 B
#267906888
00
#267906924
01
#267906996
10
#267907176
00
#267907212
11
#267907284
10
#267907500
00
01
#267907608
10
#267907788
00
#267907896
10
#267908076
00
#267908184
10
#267908400
00
#267908436
11
#267908508
10
#267908688
00
#267908724
01
#267908796
10
#267908976
00
#267909012
11
#267909408
01
#267909444
10
#267909588
00
#267909696
10
#267909732
b00000000 B
#267909876
00
#267909984
10
#267910200
00
#267910308
10
#267910488
00
#267910596
10
#267910776
00
#267910884
10
#267911100
00
#267911208
10
#267911388
00
#267911496
10
#267911676
00
#267911784
10
#267912000
00
#267912036
11
#267912540
01
#267912612
10
#267912792
00
#267912900
10
#267912936
bxxxxxxxx B
#267913080
11
#268073280
01
bxxxxxxxx B
#268073388
00
#268073424
11
#268073460
10
#268073496
b11010010 B
#268073676
00
#268073784
10
#268073964
00
#268074000
01
#268074072
10
#268074288
00
11
#268074360
10
#268074576
00
#268074612
01
#268074684
10
#268074864
00
#268074972
10
#268075188
00
11
#268075260
10
#268075476
00
#268075512
01
#268075584
10
#268075764
00
#268075800
11
#268076088
01
#268076232
10
#268076376
00
#268076412
11
#268076484
10
#268076520
b10100010 B
#268076664
00
#268076700
01
#268076772
10
#268076952
00
#268076988
11
#268077060
10
#268077276
00
#268077312
01
#268077384
10
#268077564
00
#268077672
10
#268077852
00
#268077960
10
#268078176
00
#268078212
11
#268078284
10
#268078464
00
#268078500
01
#268078572
10
#268078752
00
#268078788
11
#268079184
01
#268079220
10
#268079364
00
#268079472
10
#268079508
b00000000 B
#268079652
00
#268079760
10
#268079976
00
#268080084
10
#268080264
00
#268080372
10
#268080552
00
#268080660
10
#268080876
00
#268080984
10
#268081164
00
#268081272
10
#268081452
00
#268081560
10
#268081776
00
#268081812
11
#268082316
01
#268082388
10
#268082568
00
#268082676
10
#268082712
bxxxxxxxx B
#268082856
11
#268083072
01
bxxxxxxxx B
#268083180
00
#268083252
11
#268083288
10
#268083324
b11010100 B
#268083468
00
#268083576
10
#268083756
00
#268083792
01
#268083864
10
#268084080
00
#268084116
11
#268084188
10
#268084368
00
#268084404
01
#268084476
10
#268084656
00
#268084692
11
#268084764
10
#268084980
00
01
#268085088
10
#268085268
00
#268085376
10
#268085556
00
#268085592
11
#268085880
01
#268086024
10
#268086168
00
#268086240
11
#268086276
10
#268086312
b10100010 B
#268086456
00
#268086492
01
#268086564
10
#268086780
00
#268086816
11
#268086888
10
#268087068
00
#268087104
01
#268087176
10
#268087356
00
#268087464
10
#268087680
00
#268087788
10
#268087968
00
#268088004
11
#268088076
10
#268088256
00
#268088292
01
#268088364
10
#268088580
00
#268088616
11
#268088976
01
#268089012
10
#268089156
00
#268089264
10
#268089300
b00000000 B
#268089480
00
#268089588
10
#268089768
00
#268089876
10
#268090056
00
#268090164
10
#268090380
00
#268090488
10
#268090668
00
#268090776
10
#268090956
00
#268091064
10
#268091280
00
#268091388
10
#268091568
00
#268091604
11
#268092108
01
#268092180
10
#268092360
00
#268092468
10
#268092504
bxxxxxxxx B
#268092684
11
#268092864
01
bxxxxxxxx B
#268092972
00
#268093044
11
#268093080
10
#268093116
b11010110 B
#268093260
00
#268093368
10
#268093584
00
01
#268093656
10
#268093872
00
#268093908
11
#268093980
10
#268094160
00
#268094196
01
#268094268
10
#268094484
00
11
#268094556
10
#268094772
00
#268094880
10
#268095060
00
#268095096
01
#268095168
10
#268095384
00
11
#268095708
01
#268095852
10
#268095960
00
#268096032
11
#268096068
10
#268096104
b10100010 B
#268096284
00
01
#268096356
10
#268096572
00
#268096608
11
#268096680
10
#268096860
00
#268096896
01
#268096968
10
#268097184
00
#268097256
10
#268097472
00
#268097580
10
#268097760
00
#268097796
11
#268097868
10
#268098084
00
01
#268098156
10
#268098372
00
#268098408
11
#268098768
01
#268098840
10
#268098984
00
#268099056
10
#268099092
b00000000 B
#268099272
00
#268099380
10
#268099560
00
#268099668
10
#268099884
00
#268099956
10
#268100172
00
#268100280
10
#268100460
00
#268100568
10
#268100784
00
#268100856
10
#268101072
00
#268101180
10
#268101360
00
#268101396
11
#268101936
01
#268101972
10
#268102152
00
#268102260
10
#268102296
bxxxxxxxx B
#268102476
11
#268102656
01
bxxxxxxxx B
#268102764
00
#268102836
11
#268102872
10
#268102908
b11010000 B
#268103052
00
#268103160
10
#268103376
00
#268103412
01
#268103484
10
#268103664
00
#268103700
11
#268103772
10
#268103952
00
#268103988
01
#268104060
10
#268104276
00
#268104384
10
#268104564
00
#268104672
10
#268104852
00
#268104960
10
#268105176
00
#268105212
11
#268105500
01
#268105644
10
#268105752
00
#268105824
11
#268105860
10
#268105896
b10100010 B
#268106076
00
01
#268106184
10
#268106364
00
#268106400
11
#268106472
10
#268106652
00
#268106688
01
#268106760
10
#268106976
00
#268107084
10
#268107264
00
#268107372
10
#268107552
00
#268107588
11
#268107660
10
#268107876
00
01
#268107984
10
#268108164
00
#268108200
11
#268108596
01
#268108632
10
#268108776
00
#268108884
10
#268108920
b00000000 B
#268109064
00
#268109172
10
#268109352
00
#268109460
10
#268109676
00
#268109784
10
#268109964
00
#268110072
10
#268110252
00
#268110360
10
#268110576
00
#268110684
10
#268110864
00
#268110972
10
#268111152
00
#268111188
11
#268111728
01
#268111764
10
#268111980
00
#268112052
10
#268112088
bxxxxxxxx B
#268112268
11
#268278048
01
bxxxxxxxx B
#268278156
00
#268278228
11
#268278264
10
#268278300
b11010010 B
#268278444
00
#268278552
10
#268278732
00
#268278768
01
#268278840
10
#268279056
00
#268279092
11
#268279164
10
#268279344
00
#268279380
01
#268279452
10
#268279632
00
#268279740
10
#268279956
00
#268279992
11
#268280064
10
#268280244
00
#268280280
01
#268280352
10
#268280532
00
#268280568
11
#268280856
01
#268281036
10
#268281144
00
#268281216
11
#268281252
10
#268281288
b10100010 B
#268281432
00
#268281468
01
#268281540
10
#268281756
00
#268281792
11
#268281864
10
#268282044
00
#268282080
01
#268282152
10
#268282332
00
#268282440
10
#268282656
00
#268282764
10
#268282944
00
#268282980
11
#268283052
10
#268283232
00
#268283268
01
#268283340
10
#268283556
00
#268283592
11
#268283952
01
#268283988
10
#268284132
00
#268284240
10
#268284276
b00000000 B
#268284456
00
#268284564
10
#268284744
00
#268284852
10
#268285032
00
#268285140
10
#268285356
00
#268285464
10
#268285644
00
#268285752
10
#268285932
00
#268286040
10
#268286256
00
#268286364
10
#268286544
00
#268286580
11
#268287120
01
#268287156
10
#268287336
00
#268287444
10
#268287480
bxxxxxxxx B
#268287660
11
#268287840
01
bxxxxxxxx B
#268287948
00
#268288020
11
#268288056
10
#268288092
b11010100 B
#268288236
00
#268288344
10
#268288560
00
01
#268288632
10
#268288848
00
#268288884
11
#268288956
10
#268289136
00
#268289172
01
#268289244
10
#268289460
00
11
#268289532
10
#268289748
00
#268289784
01
#268289856
10
#268290036
00
#268290144
10
#268290360
00
11
#268290684
01
#268290828
10
#268290936
00
#268291008
11
#268291044
10
#268291080
b10100010 B
#268291260
00
01
#268291332
10
#268291548
00
#268291584
11
#268291656
10
#268291836
00
#268291872
01
#268291944
10
#268292160
00
#268292232
10
#268292448
00
#268292556
10
#268292736
00
#268292772
11
#268292844
10
#268293060
00
01
#268293132
10
#268293348
00
#268293384
11
#268293744
01
#268293816
10
#268293960
00
#268294032
10
#268294068
b00000000 B
#268294248
00
#268294356
10
#268294536
00
#268294644
10
#268294860
00
#268294932
10
#268295148
00
#268295256
10
#268295436
00
#268295544
10
#268295760
00
#268295832
10
#268296048
00
#268296156
10
#268296336
00
#268296372
11
#268296912
01
#268296948
10
#268297164
00
#268297236
10
#268297272
bxxxxxxxx B
#268297452
11
#268297632
01
bxxxxxxxx B
#268297740
00
#268297812
11
#268297848
10
#268297884
b11010110 B
#268298064
00
#268298136
10
#268298352
00
#268298388
01
#268298460
10
#268298640
00
#268298676
11
#268298748
10
#268298928
00
#268298964
01
#268299036
10
#268299252
00
#268299288
11
#268299360
10
#268299540
00
#268299648
10
#268299828
00
#268299864
01
#268299936
10
#268300152
00
#268300188
11
#268300476
01
#268300620
10
#268300728
00
#268300800
11
#268300836
10
#268300872
b10100010 B
#268301052
00
#268301088
01
#268301160
10
#268301340
00
#268301376
11
#268301448
10
#268301628
00
#268301664
01
#268301736
10
#268301952
00
#268302060
10
#268302240
00
#268302348
10
#268302528
00
#268302564
11
#268302636
10
#268302852
00
#268302888
01
#268302960
10
#268303140
00
#268303176
11
#268303536
01
#268303608
10
#268303752
00
#268303860
10
#268303896
b00000000 B
#268304040
00
#268304148
10
#268304328
00
#268304436
10
#268304652
00
#268304760
10
#268304940
00
#268305048
10
#268305228
00
#268305336
10
#268305552
00
#268305660
10
#268305840
00
#268305948
10
#268306128
00
#268306164
11
#268306704
01
#268306740
10
#268306956
00
#268307064
10
#268307100
bxxxxxxxx B
#268307244
11
#268307460
01
bxxxxxxxx B
#268307532
00
#268307604
11
#268307640
10
#268307676
b11010000 B
#268307856
00
#268307964
10
#268308144
00
#268308180
01
#268308252
10
#268308432
00
#268308468
11
#268308540
10
#268308756
00
01
#268308864
10
#268309044
00
#268309152
10
#268309332
00
#268309440
10
#268309656
00
#268309764
10
#268309944
00
#268309980
11
#268310268
01
#268310412
10
#268310556
00
#268310592
11
#268310664
10
#268310700
b10100010 B
#268310844
00
#268310880
01
#268310952
10
#268311132
00
#268311168
11
#268311240
10
#268311456
00
01
#268311564
10
#268311744
00
#268311852
10
#268312032
00
#268312140
10
#268312356
00
#268312392
11
#268312464
10
#268312644
00
#268312680
01
#268312752
10
#268312932
00
#268312968
11
#268313364
01
#268313400
10
#268313544
00
#268313652
10
#268313688
b00000000 B
#268313832
00
#268313940
10
#268314156
00
#268314264
10
#268314444
00
#268314552
10
#268314732
00
#268314840
10
#268315056
00
#268315164
10
#268315344
00
#268315452
10
#268315632
00
#268315740
10
#268315956
00
#268315992
11
#268316496
01
#268316568
10
#268316748
00
#268316856
10
#268316892
bxxxxxxxx B
#268317036
11
#268473636
01
bxxxxxxxx B
#268473744
00
#268473780
11
#268473816
10
#268473852
b11010010 B
#268474032
00
#268474140
10
#268474320
00
#268474356
01
#268474428
10
#268474644
00
11
#268474716
10
#268474932
00
#268474968
01
#268475040
10
#268475220
00
#268475328
10
#268475544
00
11
#268475616
10
#268475832
00
#268475868
01
#268475940
10
#268476084
11
#268476120
00
01
#268476156
11
#268476444
01
#268476588
10
#268476732
00
#268476768
11
#268476840
10
#268476876
b10100010 B
#268477020
00
#268477056
01
#268477128
10
#268477344
00
11
#268477416
10
#268477632
00
#268477668
01
#268477740
10
#268477920
00
#268478028
10
#268478244
00
#268478316
10
#268478532
00
#268478568
11
#268478640
10
#268478820
00
#268478856
01
#268478928
10
#268479144
00
11
#268479540
01
#268479576
10
#268479720
00
#268479828
10
#268479864
b00000000 B
#268480044
00
#268480116
10
#268480332
00
#268480440
10
#268480620
00
#268480728
10
#268480944
00
#268481016
10
#268481232
00
#268481340
10
#268481520
00
#268481628
10
#268481844
00
#268481916
10
#268482132
00
#268482168
11
#268482672
01
#268482744
10
#268482924
00
#268483032
10
#268483068
bxxxxxxxx B
#268483212
11
#268483428
01
bxxxxxxxx B
#268483536
00
#268483608
11
#268483644
10
#268483680
b11010100 B
#268483824
00
#268483932
10
#268484112
00
#268484148
01
#268484220
10
#268484436
00
#268484472
11
#268484544
10
#268484724
00
#268484760
01
#268484832
10
#268485012
00
#268485048
11
#268485120
10
#268485336
00
01
#268485444
10
#268485624
00
#268485732
10
#268485912
00
#268485948
11
#268486236
01
#268486380
10
#268486524
00
#268486596
11
#268486632
10
#268486668
b10100010 B
#268486812
00
#268486848
01
#268486920
10
#268487136
00
#268487172
11
#268487244
10
#268487424
00
#268487460
01
#268487532
10
#268487712
00
#268487820
10
#268488036
00
#268488144
10
#268488324
00
#268488360
11
#268488432
10
#268488612
00
#268488648
01
#268488720
10
#268488936
00
#268488972
11
#268489332
01
#268489368
10
#268489512
00
#268489620
10
#268489656
b00000000 B
#268489836
00
#268489944
10
#268490124
00
#268490232
10
#268490412
00
#268490520
10
#268490736
00
#268490844
10
#268491024
00
#268491132
10
#268491312
00
#268491420
10
#268491636
00
#268491744
10
#268491924
00
#268491960
11
#268492464
01
#268492536
10
#268492716
00
#268492824
10
#268492860
bxxxxxxxx B
#268493040
11
#268493220
01
bxxxxxxxx B
#268493328
00
#268493400
11
#268493436
10
#268493472
b11010110 B
#268493616
00
#268493724
10
#268493940
00
01
#268494012
10
#268494228
00
#268494264
11
#268494336
10
#268494516
00
#268494552
01
#268494624
10
#268494840
00
11
#268494912
10
#268495128
00
#268495236
10
#268495416
00
#268495452
01
#268495524
10
#268495740
00
11
#268496064
01
#268496208
10
#268496316
00
#268496388
11
#268496424
10
#268496460
b10100010 B
#268496640
00
01
#268496712
10
#268496928
00
#268496964
11
#268497036
10
#268497216
00
#268497252
01
#268497324
10
#268497540
00
#268497612
10
#268497828
00
#268497936
10
#268498116
00
#268498152
11
#268498224
10
#268498440
00
01
#268498512
10
#268498728
00
#268498764
11
#268499124
01
#268499196
10
#268499340
00
#268499412
10
#268499448
b00000000 B
#268499628
00
#268499736
10
#268499916
00
#268500024
10
#268500240
00
#268500312
10
#268500528
00
#268500636
10
#268500816
00
#268500924
10
#268501140
00
#268501212
10
#268501428
00
#268501536
10
#268501716
00
#268501752
11
#268502292
01
#268502328
10
#268502508
00
#268502616
10
#268502652
bxxxxxxxx B
#268502832
11
#268503012
01
bxxxxxxxx B
#268503120
00
#268503192
11
#268503228
10
#268503264
b11010000 B
#268503408
00
#268503516
10
#268503732
00
#268503768
01
#268503840
10
#268504020
00
#268504056
11
#268504128
10
#268504308
00
#268504344
01
#268504416
10
#268504632
00
#268504740
10
#268504920
00
#268505028
10
#268505208
00
#268505316
10
