Sniffer_I2C/Arranque/nuestra1.vcd
$date
  febrero 3, 2012
$end
$version
  ChronoVu LA-8 Version 3,08 
$end
$comment
  File: /home/mat/Escritorio/Arranque quad/nuestro1.kdt
  from sample 0 to sample 8388607
$end
$timescale 10 ns $end
$scope module la8 $end
$var wire 1 0 SCL_(clock) $end
$var wire 1 1 SDA_(data) $end
$var wire 8 B I2C Bus $end
$upscope $end
$enddefinitions $end
$dumpvars
10
11
bxxxxxxxx B
$end
#0
10
11
bxxxxxxxx B
#24
bxxxxxxxx B
#24504
00
#24528
10
#43776
01
bxxxxxxxx B
#44040
00
#44112
11
#44232
10
#44256
b11010010 B
#44328
00
#44520
10
#44616
00
#44688
01
#44808
10
#44904
00
#44976
11
#45096
10
#45216
00
#45264
01
#45384
10
#45504
00
#45672
10
#45792
00
#45864
11
#45984
10
#46080
00
#46152
01
#46272
10
#46368
00
#46440
11
#46704
01
#46848
10
#46968
00
#47040
11
#47136
10
#47160
b10100010 B
#47256
00
#47304
01
#47424
10
#47544
00
#47616
11
#47736
10
#47832
00
#47904
01
#48024
10
#48120
00
#48312
10
#48408
00
#48600
10
#48696
00
#48768
11
#48888
10
#49008
00
#49056
01
#49176
10
#49296
00
#49368
11
#49704
01
#49752
10
#49872
00
#50040
10
#50064
b00000000 B
#50160
00
#50328
10
#50448
00
#50640
10
#50736
00
#50928
10
#51024
00
#51216
10
#51312
00
#51504
10
#51624
00
#51792
10
#51912
00
#52080
10
#52200
00
#52272
11
#52752
01
#52800
10
#52920
00
#53088
10
#53112
bxxxxxxxx B
#53544
11
#64560
00
#64584
10
#71232
01
bxxxxxxxx B
#71496
00
#71568
11
#71688
10
#71712
b11010100 B
#71808
00
#71976
10
#72096
00
#72144
01
#72264
10
#72384
00
#72456
11
#72552
10
#72672
00
#72744
01
#72864
10
#72960
00
#73032
11
#73152
10
#73248
00
#73320
01
#73440
10
#73536
00
#73728
10
#73848
00
#73896
11
#74160
01
#74304
10
#74424
00
#74496
11
#74616
10
#74640
b10100010 B
#74712
00
#74784
01
#74904
10
#75000
00
#75072
11
#75192
10
#75288
00
#75360
01
#75480
10
#75576
00
#75768
10
#75888
00
#76056
10
#76176
00
#76248
11
#76344
10
#76464
00
#76536
01
#76656
10
#76752
00
#76824
11
#77184
01
#77232
10
#77328
00
#77520
10
#77544
b00000000 B
#77616
00
#77808
10
#77904
00
#78096
10
#78192
00
#78384
10
#78504
00
#78672
10
#78792
00
#78960
10
#79080
00
#79272
10
#79368
00
#79560
10
#79656
00
#79728
11
#80232
01
#80280
10
#80376
00
#80568
10
#80592
bxxxxxxxx B
#81000
11
#88032
00
#88056
10
#94944
01
bxxxxxxxx B
#95232
00
#95280
11
#95400
10
#95424
b11010110 B
#95520
00
#95688
10
#95808
00
#95856
01
#96000
10
#96096
00
#96168
11
#96288
10
#96384
00
#96456
01
#96576
10
#96672
00
#96744
11
#96864
10
#96960
00
#97152
10
#97272
00
#97320
01
#97440
10
#97560
00
#97632
11
#97872
01
#98040
10
#98136
00
#98208
11
#98328
10
#98352
b10100010 B
#98424
00
#98496
01
#98616
10
#98712
00
#98784
11
#98904
10
#99024
00
#99072
01
#99192
10
#99312
00
#99480
10
#99600
00
#99792
10
#99888
00
#99960
11
#100080
10
#100176
00
#100248
01
#100368
10
#100464
00
#100536
11
#100872
01
#100920
10
#101040
00
#101208
10
#101232
b00000000 B
#101328
00
#101520
10
#101616
00
#101808
10
#101904
00
#102096
10
#102192
00
#102384
10
#102504
00
#102672
10
#102792
00
#102960
10
#103080
00
#103248
10
#103368
00
#103416
11
#103920
01
#103968
10
#104088
00
#104280
10
#104304
bxxxxxxxx B
#104712
11
#117696
01
bxxxxxxxx B
#117960
00
#118008
11
#118152
10
#118176
b11010000 B
#118248
00
#118440
10
#118536
00
#118584
01
#118728
10
#118824
00
#118896
11
#119016
10
#119112
00
#119184
01
#119304
10
#119424
00
#119592
10
#119712
00
#119880
10
#120000
00
#120192
10
#120288
00
#120336
11
#120624
01
#120768
10
#120864
00
#120936
11
#121056
10
#121080
b10100010 B
#121176
00
#121224
01
#121344
10
#121464
00
#121512
11
#121632
10
#121752
00
#121800
01
#121944
10
#122040
00
#122232
10
#122328
00
#122520
10
#122616
00
#122688
11
#122808
10
#122904
00
#122976
01
#123096
10
#123216
00
#123264
11
#123624
01
#123672
10
#123768
00
#123960
10
#123984
b00000000 B
#124080
00
#124248
10
#124368
00
#124536
10
#124656
00
#124848
10
#124944
00
#125136
10
#125232
00
#125424
10
#125520
00
#125712
10
#125832
00
#126000
10
#126120
00
#126168
11
#126672
01
#126720
10
#126840
00
#127008
10
#127032
bxxxxxxxx B
#127464
11
#140064
01
bxxxxxxxx B
#140328
00
#140400
11
#140520
10
#140544
b11010010 B
#140616
00
#140808
10
#140928
00
#140976
01
#141096
10
#141216
00
#141264
11
#141384
10
#141504
00
#141552
01
#141696
10
#141792
00
#141984
10
#142080
00
#142128
11
#142272
10
#142368
00
#142440
01
#142560
10
#142656
00
#142728
11
#142992
01
#143136
10
#143256
00
#143328
11
#143424
10
#143448
b10100010 B
#143544
00
#143592
01
#143736
10
#143832
00
#143880
11
#144024
10
#144120
00
#144192
01
#144312
10
#144408
00
#144600
10
#144720
00
#144888
10
#145008
00
#145056
11
#145176
10
#145296
00
#145344
01
#145488
10
#145584
00
#145632
11
#145992
01
#146040
10
#146160
00
#146352
10
#146376
b00000000 B
#146448
00
#146640
10
#146736
00
#146928
10
#147024
00
#147216
10
#147336
00
#147504
10
#147624
00
#147792
10
#147912
00
#148080
10
#148200
00
#148392
10
#148488
00
#148536
11
#149064
01
#149112
10
#149208
00
#149400
10
#149424
bxxxxxxxx B
#149832
11
#162360
01
bxxxxxxxx B
#162624
00
#162672
11
#162816
10
#162840
b11010100 B
#162912
00
#163104
10
#163200
00
#163272
01
#163392
10
#163488
00
#163560
11
#163680
10
#163800
00
#163848
01
#163968
10
#164088
00
#164136
11
#164256
10
#164376
00
#164424
01
#164568
10
#164664
00
#164856
10
#164952
00
#165024
11
#165288
01
#165432
10
#165552
00
#165624
11
#165720
10
#165744
b10100010 B
#165840
00
#165888
01
#166008
10
#166128
00
#166176
11
#166320
10
#166416
00
#166464
01
#166608
10
#166704
00
#166896
10
#166992
00
#167184
10
#167280
00
#167352
11
#167472
10
#167592
00
#167640
01
#167760
10
#167880
00
#167928
11
#168288
01
#168336
10
#168432
00
#168624
10
#168648
b00000000 B
#168720
00
#168912
10
#169032
00
#169200
10
#169320
00
#169488
10
#169608
00
#169800
10
#169896
00
#170088
10
#170184
00
#170376
10
#170472
00
#170664
10
#170760
00
#170832
11
#171336
01
#171384
10
#171480
00
#171672
10
#171696
bxxxxxxxx B
#172104
11
#184488
01
bxxxxxxxx B
#184776
00
#184824
11
#184944
10
#184968
b11010110 B
#185064
00
#185232
10
#185352
00
#185400
01
#185544
10
#185640
00
#185688
11
#185832
10
#185928
00
#186000
01
#186120
10
#186216
00
#186288
11
#186408
10
#186528
00
#186696
10
#186816
00
#186864
01
#186984
10
#187104
00
#187152
11
#187416
01
#187584
10
#187680
00
#187752
11
#187872
10
#187896
b10100010 B
#187968
00
#188040
01
#188160
10
#188256
00
#188328
11
#188448
10
#188568
00
#188616
01
#188736
10
#188856
00
#189024
10
#189144
00
#189336
10
#189432
00
#189480
11
#189624
10
#189720
00
#189768
01
#189912
10
#190008
00
#190080
11
#190416
01
#190464
10
#190584
00
#190752
10
#190776
b00000000 B
#190872
00
#191064
10
#191160
00
#191352
10
#191448
00
#191640
10
#191736
00
#191928
10
#192048
00
#192216
10
#192336
00
#192504
10
#192624
00
#192816
10
#192912
00
#192960
11
#193464
01
#193512
10
#193632
00
#193824
10
#193848
bxxxxxxxx B
#194256
11
#206712
01
bxxxxxxxx B
#206976
00
#207048
11
#207168
10
#207192
b11010000 B
#207288
00
#207456
10
#207576
00
#207624
01
#207744
10
#207864
00
#207912
11
#208056
10
#208152
00
#208200
01
#208344
10
#208440
00
#208632
10
#208728
00
#208920
10
#209040
00
#209208
10
#209328
00
#209376
11
#209544
10
#209568
00
#209640
01
#209784
10
#209808
b01010001 B
#209904
00
#209976
11
#210096
10
#210192
00
#210240
01
#210384
10
#210480
00
#210552
11
#210672
10
#210768
00
#210840
01
#210960
10
#211080
00
#211248
10
#211368
00
#211536
10
#211656
00
#211728
11
#211848
10
#211944
00
#211992
01
#212136
10
#212232
00
#212280
11
#212640
01
#212688
10
#212712
b00000000 B
#212808
00
#213000
10
#213096
00
#213288
10
#213384
00
#213576
10
#213696
00
#213864
10
#213984
00
#214152
10
#214272
00
#214440
10
#214560
00
#214752
10
#214848
00
#215040
10
#215136
00
#215208
11
#215712
01
#215760
10
#215784
bxxxxxxxx B
#215856
00
#216048
10
#216480
11
#224736
00
#224760
10
#228984
01
bxxxxxxxx B
#229248
00
#229296
11
#229440
10
#229464
b11010010 B
#229536
00
#229728
10
#229824
00
#229896
01
#230016
10
#230112
00
#230184
11
#230304
10
#230424
00
#230472
01
#230592
10
#230712
00
#230880
10
#231000
00
#231072
11
#231192
10
#231288
00
#231360
01
#231480
10
#231576
00
#231648
11
#231912
01
#232056
10
#232176
00
#232248
11
#232344
10
#232368
b10100010 B
#232464
00
#232512
01
#232632
10
#232752
00
#232824
11
#232944
10
#233040
00
#233088
01
#233232
10
#233328
00
#233520
10
#233616
00
#233808
10
#233904
00
#233976
11
#234096
10
#234216
00
#234264
01
#234384
10
#234504
00
#234576
11
#234912
01
#234960
10
#235080
00
#235248
10
#235272
b00000000 B
#235368
00
#235536
10
#235656
00
#235848
10
#235944
00
#236136
10
#236232
00
#236424
10
#236520
00
#236712
10
#236832
00
#237000
10
#237120
00
#237288
10
#237408
00
#237480
11
#237960
01
#238008
10
#238128
00
#238296
10
#238320
bxxxxxxxx B
#238752
11
#242688
00
#242712
10
#251136
01
bxxxxxxxx B
#251400
00
#251448
11
#251592
10
#251616
b11010100 B
#251688
00
#251880
10
#251976
00
#252024
01
#252168
10
#252264
00
#252336
11
#252456
10
#252576
00
#252624
01
#252744
10
#252864
00
#252912
11
#253032
10
#253152
00
#253224
01
#253320
10
#253440
00
#253632
10
#253728
00
#253776
11
#254064
01
#254208
10
#254304
00
#254376
11
#254496
10
#254520
b10100010 B
#254616
00
#254664
01
#254784
10
#254904
00
#254952
11
#255072
10
#255192
00
#255240
01
#255384
10
#255480
00
#255672
10
#255768
00
#255960
10
#256056
00
#256128
11
#256248
10
#256344
00
#256416
01
#256536
10
#256656
00
#256704
11
#257064
01
#257112
10
#257232
00
#257400
10
#257424
b00000000 B
#257520
00
#257688
10
#257808
00
#257976
10
#258096
00
#258288
10
#258384
00
#258576
10
#258672
00
#258864
10
#258960
00
#259152
10
#259272
00
#259440
10
#259560
00
#259608
11
#260112
01
#260160
10
#260256
00
#260448
10
#260472
bxxxxxxxx B
#260880
11
#263400
00
#263424
10
#273384
01
bxxxxxxxx B
#273648
00
#273720
11
#273816
10
#273840
b11010110 B
#273936
00
#274128
10
#274224
00
#274296
01
#274416
10
#274512
00
#274584
11
#274704
10
#274800
00
#274872
01
#274992
10
#275112
00
#275160
11
#275280
10
#275400
00
#275568
10
#275688
00
#275760
01
#275880
10
#275976
00
#276048
11
#276312
01
#276456
10
#276552
00
#276624
11
#276744
10
#276768
b10100010 B
#276840
00
#276912
01
#277032
10
#277152
00
#277200
11
#277320
10
#277440
00
#277512
01
#277608
10
#277728
00
#277920
10
#278016
00
#278208
10
#278304
00
#278376
11
#278496
10
#278592
00
#278664
01
#278784
10
#278904
00
#278952
11
#279312
01
#279360
10
#279456
00
#279648
10
#279672
b00000000 B
#279768
00
#279936
10
#280056
00
#280224
10
#280344
00
#280536
10
#280632
00
#280824
10
#280920
00
#281112
10
#281208
00
#281400
10
#281496
00
#281688
10
#281808
00
#281856
11
#282360
01
#282408
10
#282528
00
#282696
10
#282720
bxxxxxxxx B
#283152
11
#294672
01
bxxxxxxxx B
#294960
00
#295008
11
#295128
10
#295152
b11010000 B
#295248
00
#295416
10
#295536
00
#295584
01
#295704
10
#295824
00
#295872
11
#296016
10
#296112
00
#296160
01
#296304
10
#296400
00
#296592
10
#296688
00
#296880
10
#297000
00
#297168
10
#297288
00
#297336
11
#297600
01
#297768
10
#297864
00
#297936
11
#298056
10
#298080
b10100010 B
#298152
00
#298224
01
#298344
10
#298440
00
#298512
11
#298632
10
#298728
00
#298800
01
#298920
10
#299040
00
#299208
10
#299328
00
#299496
10
#299616
00
#299664
11
#299808
10
#299904
00
#299976
01
#300096
10
#300192
00
#300264
11
#300624
01
#300672
10
#300768
00
#300960
10
#300984
b00000000 B
#301056
00
#301248
10
#301344
00
#301536
10
#301656
00
#301824
10
#301944
00
#302112
10
#302232
00
#302424
10
#302520
00
#302712
10
#302808
00
#303000
10
#303096
00
#303168
11
#303672
01
#303720
10
#303816
00
#304008
10
#304032
bxxxxxxxx B
#304440
11
#304824
00
#304848
10
#317280
01
bxxxxxxxx B
#317544
00
#317592
11
#317712
10
#317736
b11010010 B
#317832
00
#318024
10
#318120
00
#318192
01
#318312
10
#318408
00
#318456
11
#318600
10
#318696
00
#318768
01
#318888
10
#318984
00
#319176
10
#319296
00
#319344
11
#319464
10
#319584
00
#319632
01
#319752
10
#319872
00
#319920
11
#320208
01
#320352
10
#320448
00
#320520
11
#320640
10
#320664
b10100010 B
#320736
00
#320808
01
#320928
10
#321048
00
#321096
11
#321216
10
#321336
00
#321384
01
#321504
10
#321624
00
#321816
10
#321912
00
#322104
10
#322200
00
#322248
11
#322392
10
#322488
00
#322560
01
#322680
10
#322776
00
#322848
11
#323208
01
#323256
10
#323352
00
#323544
10
#323568
b00000000 B
#323640
00
#323832
10
#323952
00
#324120
10
#324240
00
#324408
10
#324528
00
#324720
10
#324816
00
#325008
10
#325104
00
#325296
10
#325392
00
#325584
10
#325704
00
#325752
11
#326256
01
#326304
10
#326400
00
#326592
10
#326616
bxxxxxxxx B
#327048
11
#331056
00
#331080
10
#338520
01
bxxxxxxxx B
#338784
00
#338832
11
#338952
10
#338976
b11010100 B
#339072
00
#339264
10
#339360
00
#339408
01
#339552
10
#339648
00
#339720
11
#339840
10
#339936
00
#340008
01
#340128
10
#340248
00
#340296
11
#340416
10
#340536
00
#340584
01
#340704
10
#340824
00
#340992
10
#341112
00
#341160
11
#341448
01
#341568
10
#341688
00
#341760
11
#341880
10
#341904
b10100010 B
#341976
00
#342024
01
#342168
10
#342264
00
#342312
11
#342456
10
#342552
00
#342624
01
#342744
10
#342840
00
#343032
10
#343152
00
#343320
10
#343440
00
#343488
11
#343608
10
#343728
00
#343776
01
#343920
10
#344016
00
#344064
11
#344424
01
#344472
10
#344592
00
#344760
10
#344784
b00000000 B
#344880
00
#345048
10
#345168
00
#345336
10
#345456
00
#345648
10
#345744
00
#345936
10
#346032
00
#346224
10
#346320
00
#346512
10
#346632
00
#346800
10
#346920
00
#346968
11
#347472
01
#347520
10
#347640
00
#347808
10
#347832
bxxxxxxxx B
#348264
11
#359640
01
bxxxxxxxx B
#359904
00
#359976
11
#360096
10
#360120
b11010110 B
#360192
00
#360384
10
#360480
00
#360552
01
#360672
10
#360768
00
#360840
11
#360960
10
#361080
00
#361128
01
#361248
10
#361368
00
#361416
11
#361536
10
#361656
00
#361848
10
#361944
00
#361992
01
#362136
10
#362232
00
#362304
11
#362568
01
#362712
10
#362832
00
#362904
11
#363000
10
#363024
b10100010 B
#363120
00
#363168
01
#363288
10
#363408
00
#363480
11
#363600
10
#363696
00
#363744
01
#363888
10
#363984
00
#364176
10
#364272
00
#364464
10
#364560
00
#364632
11
#364752
10
#364872
00
#364920
01
#365040
10
#365160
00
#365208
11
#365568
01
#365616
10
#365736
00
#365904
10
#365928
b00000000 B
#366024
00
#366192
10
#366312
00
#366504
10
#366600
00
#366792
10
#366888
00
#367080
10
#367176
00
#367368
10
#367488
00
#367656
10
#367776
00
#367944
10
#368064
00
#368136
11
#368616
01
#368664
10
#368784
00
#368952
10
#368976
bxxxxxxxx B
#369408
11
#380760
01
bxxxxxxxx B
#381024
00
#381096
11
#381216
10
#381240
b11010000 B
#381312
00
#381504
10
#381600
00
#381648
01
#381792
10
#381888
00
#381960
11
#382080
10
#382152
00
#382248
01
#382368
10
#382488
00
#382656
10
#382776
00
#382944
10
#383064
00
#383256
10
#383352
00
#383424
11
#383688
01
#383832
10
#383928
00
#384000
11
#384120
10
#384144
b10100010 B
#384240
00
#384288
01
#384408
10
#384528
00
#384576
11
#384696
10
#384816
00
#384888
01
#385008
10
#385104
00
#385296
10
#385392
00
#385584
10
#385680
00
#385752
11
#385872
10
#385968
00
#386040
01
#386160
10
#386280
00
#386328
11
#386688
01
#386736
10
#386832
00
#387024
10
#387048
b00000000 B
#387144
00
#387312
10
#387432
00
#387600
10
#387720
00
#387912
10
#388008
00
#388200
10
#388296
00
#388488
10
#388584
00
#388776
10
#388896
00
#389064
10
#389184
00
#389232
11
#389736
01
#389784
10
#389904
00
#390072
10
#390096
bxxxxxxxx B
#390528
11
#401856
01
bxxxxxxxx B
#402120
00
#402192
11
#402312
10
#402336
b11010010 B
#402408
00
#402600
10
#402720
00
#402768
01
#402888
10
#403008
00
#403056
11
#403176
10
#403296
00
#403368
01
#403488
10
#403584
00
#403776
10
#403872
00
#403944
11
#404064
10
#404160
00
#404232
01
#404352
10
#404448
00
#404520
11
#404784
01
#404928
10
#405048
00
#405120
11
#405216
10
#405240
b10100010 B
#405336
00
#405384
01
#405528
10
#405624
00
#405672
11
#405816
10
#405912
00
#405960
01
#406104
10
#406200
00
#406392
10
#406512
00
#406680
10
#406800
00
#406848
11
#406968
10
#407088
00
#407136
01
#407280
10
#407376
00
#407424
11
#407784
01
#407832
10
#407952
00
#408144
10
#408168
b00000000 B
#408240
00
#408432
10
#408528
00
#408720
10
#408816
00
#409008
10
#409104
00
#409296
10
#409416
00
#409584
10
#409704
00
#409872
10
#409992
00
#410184
10
#410280
00
#410352
11
#410856
01
#410880
10
#411000
00
#411192
10
#411216
bxxxxxxxx B
#411624
11
#420816
00
#420840
10
#423072
01
bxxxxxxxx B
#423336
00
#423408
11
#423528
10
#423552
b11010100 B
#423648
00
#423816
10
#423936
00
#423984
01
#424104
10
#424224
00
#424272
11
#424416
10
#424512
00
#424560
01
#424704
10
#424800
00
#424872
11
#424992
10
#425088
00
#425160
01
#425280
10
#425400
00
#425568
10
#425688
00
#425736
11
#426000
01
#426144
10
#426264
00
#426336
11
#426456
10
#426480
b10100010 B
#426552
00
#426600
01
#426744
10
#426840
00
#426912
11
#427032
10
#427128
00
#427200
01
#427320
10
#427440
00
#427608
10
#427728
00
#427896
10
#428016
00
#428064
11
#428208
10
#428304
00
#428376
01
#428496
10
#428592
00
#428664
11
#429024
01
#429072
10
#429168
00
#429360
10
#429384
b00000000 B
#429456
00
#429648
10
#429744
00
#429936
10
#430056
00
#430224
10
#430344
00
#430512
10
#430632
00
#430824
10
#430920
00
#431112
10
#431208
00
#431400
10
#431496
00
#431568
11
#432072
01
#432120
10
#432216
00
#432408
10
#432432
bxxxxxxxx B
#432840
11
#438768
00
#438792
10
#444192
01
bxxxxxxxx B
#444456
00
#444504
11
#444648
10
#444672
b11010110 B
#444744
00
#444936
10
#445032
00
#445104
01
#445224
10
#445344
00
#445392
11
#445512
10
#445632
00
#445680
01
#445800
10
#445920
00
#445968
11
#446112
10
#446208
00
#446400
10
#446496
00
#446544
01
#446688
10
#446784
00
#446856
11
#447120
01
#447264
10
#447384
00
#447456
11
#447552
10
#447576
b10100010 B
#447672
00
#447720
01
#447840
10
#447960
00
#448008
11
#448152
10
#448248
00
#448320
01
#448440
10
#448536
00
#448728
10
#448824
00
#449016
10
#449136
00
#449184
11
#449304
10
#449424
00
#449472
01
#449592
10
#449712
00
#449784
11
#450120
01
#450168
10
#450264
00
#450456
10
#450480
b00000000 B
#450552
00
#450744
10
#450864
00
#451032
10
#451152
00
#451320
10
#451440
00
#451632
10
#451728
00
#451920
10
#452016
00
#452208
10
#452304
00
#452496
10
#452592
00
#452664
11
#453168
01
#453216
10
#453312
00
#453504
10
#453528
bxxxxxxxx B
#453960
11
#465336
01
bxxxxxxxx B
#465600
00
#465648
11
#465768
10
#465792
b11010000 B
#465888
00
#466080
10
#466176
00
#466224
01
#466368
10
#466464
00
#466536
11
#466656
10
#466752
00
#466824
01
#466944
10
#467064
00
#467232
10
#467352
00
#467520
10
#467640
00
#467832
10
#467928
00
#468000
11
#468264
01
#468408
10
#468504
00
#468576
11
#468696
10
#468720
b10100010 B
#468792
00
#468864
01
#468984
10
#469104
00
#469152
11
#469272
10
#469392
00
#469440
01
#469560
10
#469680
00
#469872
10
#469968
00
#470160
10
#470256
00
#470328
11
#470448
10
#470544
00
#470616
01
#470736
10
#470856
00
#470904
11
#471264
01
#471312
10
#471408
00
#471600
10
#471624
b00000000 B
#471720
00
#471888
10
#472008
00
#472176
10
#472296
00
#472488
10
#472584
00
#472776
10
#472872
00
#473064
10
#473160
00
#473352
10
#473448
00
#473640
10
#473760
00
#473808
11
#474312
01
#474360
10
#474480
00
#474648
10
#474672
bxxxxxxxx B
#475104
11
#486480
01
bxxxxxxxx B
#486744
00
#486816
11
#486936
10
#486960
b11010010 B
#487032
00
#487224
10
#487344
00
#487392
01
#487512
10
#487632
00
#487680
11
#487800
10
#487920
00
#487992
01
#488112
10
#488208
00
#488400
10
#488496
00
#488544
11
#488688
10
#488784
00
#488856
01
#488976
10
#489072
00
#489144
11
#489408
01
#489552
10
#489672
00
#489744
11
#489840
10
#489864
b10100010 B
#489960
00
#490008
01
#490152
10
#490248
00
#490296
11
#490440
10
#490536
00
#490608
01
#490728
10
#490824
00
#491016
10
#491136
00
#491304
10
#491424
00
#491472
11
#491592
10
#491712
00
#491760
01
#491904
10
#492000
00
#492048
11
#492408
01
#492456
10
#492576
00
#492768
10
#492792
b00000000 B
#492864
00
#493056
10
#493152
00
#493344
10
#493440
00
#493632
10
#493728
00
#493920
10
#494040
00
#494208
10
#494328
00
#494496
10
#494616
00
#494808
10
#494904
00
#494976
11
#495480
01
#495504
10
#495624
00
#495816
10
#495840
bxxxxxxxx B
#496248
11
#507576
01
bxxxxxxxx B
#507840
00
#507888
11
#508008
10
#508032
b11010100 B
#508128
00
#508320
10
#508416
00
#508464
01
#508608
10
#508704
00
#508776
11
#508896
10
#508992
00
#509064
01
#509184
10
#509304
00
#509352
11
#509472
10
#509592
00
#509640
01
#509760
10
#509880
00
#510072
10
#510168
00
#510240
11
#510504
01
#510648
10
#510744
00
#510816
11
#510936
10
#510960
b10100010 B
#511032
00
#511104
01
#511224
10
#511344
00
#511392
11
#511512
10
#511632
00
#511704
01
#511800
10
#511920
00
#512112
10
#512208
00
#512400
10
#512496
00
#512568
11
#512688
10
#512784
00
#512856
01
#512976
10
#513096
00
#513144
11
#513504
01
#513552
10
#513648
00
#513840
10
#513864
b00000000 B
#513936
00
#514128
10
#514224
00
#514416
10
#514512
00
#514704
10
#514824
00
#514992
10
#515112
00
#515280
10
#515400
00
#515592
10
#515688
00
#515880
10
#515976
00
#516048
11
#516552
01
#516600
10
#516696
00
#516888
10
#516912
bxxxxxxxx B
#517320
11
#528720
01
bxxxxxxxx B
#528984
00
#529056
11
#529176
10
#529200
b11010110 B
#529272
00
#529464
10
#529560
00
#529632
01
#529752
10
#529848
00
#529920
11
#530040
10
#530136
00
#530208
01
#530328
10
#530448
00
#530496
11
#530616
10
#530736
00
#530904
10
#531024
00
#531072
01
#531216
10
#531312
00
#531360
11
#531648
01
#531792
10
#531888
00
#531960
11
#532080
10
#532104
b10100010 B
#532200
00
#532248
01
#532368
10
#532488
00
#532536
11
#532656
10
#532776
00
#532824
01
#532968
10
#533064
00
#533256
10
#533352
00
#533544
10
#533640
00
#533712
11
#533832
10
#533928
00
#534000
01
#534120
10
#534240
00
#534288
11
#534648
01
#534696
10
#534792
00
#534984
10
#535008
b00000000 B
#535104
00
#535272
10
#535392
00
#535560
10
#535680
00
#535872
10
#535968
00
#536160
10
#536256
00
#536448
10
#536544
00
#536736
10
#536856
00
#537024
10
#537144
00
#537192
11
#537696
01
#537744
10
#537864
00
#538032
10
#538056
bxxxxxxxx B
#538488
11
#549816
01
bxxxxxxxx B
#550080
00
#550128
11
#550272
10
#550296
b11010000 B
#550368
00
#550560
10
#550656
00
#550728
01
#550848
10
#550968
00
#551016
11
#551136
10
#551256
00
#551304
01
#551424
10
#551544
00
#551736
10
#551832
00
#552024
10
#552120
00
#552312
10
#552408
00
#552480
11
#552744
01
#552888
10
#553008
00
#553080
11
#553176
10
#553200
b10100010 B
#553296
00
#553368
01
#553464
10
#553584
00
#553656
11
#553776
10
#553872
00
#553920
01
#554064
10
#554160
00
#554352
10
#554448
00
#554640
10
#554760
00
#554808
11
#554928
10
#555048
00
#555096
01
#555216
10
#555336
00
#555384
11
#555744
01
#555792
10
#555912
00
#556080
10
#556104
b00000000 B
#556200
00
#556392
10
#556488
00
#556680
10
#556776
00
#556968
10
#557064
00
#557256
10
#557352
00
#557544
10
#557664
00
#557832
10
#557952
00
#558120
10
#558240
00
#558312
11
#558792
01
#558840
10
#558960
00
#559152
10
#559176
bxxxxxxxx B
#559584
11
#571032
01
bxxxxxxxx B
#571296
00
#571344
11
#571464
10
#571488
b11010010 B
#571584
00
#571776
10
#571872
00
#571920
01
#572064
10
#572160
00
#572232
11
#572352
10
#572448
00
#572520
01
#572640
10
#572760
00
#572928
10
#573048
00
#573096
11
#573216
10
#573336
00
#573384
01
#573528
10
#573624
00
#573672
11
#573960
01
#574104
10
#574200
00
#574272
11
#574392
10
#574416
b10100010 B
#574512
00
#574560
01
#574680
10
#574800
00
#574848
11
#574968
10
#575088
00
#575136
01
#575256
10
#575376
00
#575568
10
#575664
00
#575856
10
#575952
00
#576024
11
#576144
10
#576240
00
#576312
01
#576432
10
#576552
00
#576600
11
#576960
01
#577008
10
#577104
00
#577296
10
#577320
b00000000 B
#577416
00
#577584
10
#577704
00
#577872
10
#577992
00
#578184
10
#578280
00
#578472
10
#578568
00
#578760
10
#578856
00
#579048
10
#579168
00
#579336
10
#579456
00
#579504
11
#580008
01
#580056
10
#580176
00
#580344
10
#580368
bxxxxxxxx B
#580800
11
#593160
01
bxxxxxxxx B
#593424
00
#593496
11
#593616
10
#593640
b11010100 B
#593712
00
#593904
10
#594000
00
#594072
01
#594192
10
#594288
00
#594360
11
#594480
10
#594600
00
#594648
01
#594768
10
#594888
00
#594936
11
#595056
10
#595176
00
#595224
01
#595368
10
#595464
00
#595656
10
#595752
00
#595824
11
#596088
01
#596232
10
#596352
00
#596424
11
#596520
10
#596544
b10100010 B
#596640
00
#596688
01
#596808
10
#596928
00
#596976
11
#597120
10
#597216
00
#597264
01
#597408
10
#597504
00
#597696
10
#597792
00
#597984
10
#598080
00
#598152
11
#598272
10
#598392
00
#598440
01
#598560
10
#598680
00
#598752
11
#599088
01
#599136
10
#599232
00
#599424
10
#599448
b00000000 B
#599520
00
#599712
10
#599832
00
#600000
10
#600120
00
#600288
10
#600408
00
#600600
10
#600696
00
#600888
10
#600984
00
#601176
10
#601272
00
#601464
10
#601560
00
#601632
11
#602136
01
#602184
10
#602280
00
#602472
10
#602496
bxxxxxxxx B
#602928
11
#614280
01
bxxxxxxxx B
#614544
00
#614592
11
#614736
10
#614760
b11010110 B
#614832
00
#615024
10
#615120
00
#615192
01
#615312
10
#615432
00
#615480
11
#615600
10
#615720
00
#615768
01
#615888
10
#616008
00
#616056
11
#616200
10
#616296
00
#616488
10
#616584
00
#616656
01
#616776
10
#616872
00
#616944
11
#617208
01
#617352
10
#617472
00
#617544
11
#617640
10
#617664
b10100010 B
#617760
00
#617832
01
#617952
10
#618048
00
#618120
11
#618240
10
#618336
00
#618408
01
#618528
10
#618624
00
#618816
10
#618912
00
#619104
10
#619224
00
#619272
11
#619392
10
#619512
00
#619560
01
#619680
10
#619800
00
#619848
11
#620208
01
#620256
10
#620376
00
#620544
10
#620568
b00000000 B
#620664
00
#620856
10
#620952
00
#621144
10
#621240
00
#621432
10
#621528
00
#621720
10
#621840
00
#622008
10
#622128
00
#622296
10
#622416
00
#622608
10
#622704
00
#622776
11
#623256
01
#623304
10
#623424
00
#623616
10
#623640
bxxxxxxxx B
#624048
11
#635424
01
bxxxxxxxx B
#635688
00
#635760
11
#635880
10
#635904
b11010000 B
#635976
00
#636168
10
#636288
00
#636336
01
#636456
10
#636576
00
#636648
11
#636744
10
#636864
00
#636912
01
#637056
10
#637152
00
#637344
10
#637440
00
#637632
10
#637728
00
#637920
10
#638040
00
#638088
11
#638352
01
#638496
10
#638616
00
#638688
11
#638808
10
#638832
b10100010 B
#638904
00
#638952
01
#639096
10
#639192
00
#639240
11
#639384
10
#639480
00
#639552
01
#639672
10
#639768
00
#639960
10
#640080
00
#640248
10
#640368
00
#640440
11
#640536
10
#640656
00
#640704
01
#640848
10
#640944
00
#641016
11
#641376
01
#641424
10
#641520
00
#641712
10
#641736
b00000000 B
#641808
00
#642000
10
#642096
00
#642288
10
#642384
00
#642576
10
#642696
00
#642864
10
#642984
00
#643152
10
#643272
00
#643464
10
#643560
00
#643752
10
#643848
00
#643920
11
#644424
01
#644472
10
#644568
00
#644760
10
#644784
bxxxxxxxx B
#645192
11
#655152
01
bxxxxxxxx B
#655416
00
#655488
11
#655608
10
#655632
b11010010 B
#655728
00
#655896
10
#656016
00
#656064
01
#656184
10
#656304
00
#656352
11
#656496
10
#656592
00
#656640
01
#656784
10
#656880
00
#657072
10
#657168
00
#657240
11
#657360
10
#657480
00
#657528
01
#657648
10
#657768
00
#657816
11
#658080
01
#658224
10
#658344
00
#658416
11
#658536
10
#658560
b10100010 B
#658632
00
#658680
01
#658824
10
#658920
00
#658992
11
#659112
10
#659208
00
