Sniffer_I2C/logs/81.vcd
$date
  December 22, 2011
$end
$version
  ChronoVu LA-8 Version 3.06 
$end
$comment
  File: C:\Users\Mat\Desktop\Snifeando 2\8.kdt
  from sample 0 to sample 4595714
$end
$timescale 10 ns $end
$scope module la8 $end
$var wire 1 0 SCL_(clock) $end
$var wire 1 1 SDA_(data) $end
$var wire 8 B I2C Bus $end
$upscope $end
$enddefinitions $end
$dumpvars
10
01
bxxxxxxxx B
$end
#0
10
01
bxxxxxxxx B
#24
b00011000 B
#120
00
#168
11
#552
01
#600
10
#720
00
#840
10
#1032
00
#1056
11
#1128
10
#1320
00
#1440
10
#1632
00
#1656
01
#1728
10
#1920
00
#2040
10
#2232
00
#2328
10
#2520
00
#2640
10
#2832
00
#2856
11
#2928
10
#2952
bxxxxxxxx B
#3120
00
#3696
01
#3744
10
#3936
00
#4032
10
#4224
11
#11256
00
#11280
10
#58152
00
#58176
10
#81600
00
#81624
10
#87120
00
#87144
10
#107808
00
01
#107832
10
11
#160416
01
bxxxxxxxx B
#160512
00
#160584
11
#160608
10
#160632
b11010010 B
#160824
00
#160920
10
#161112
00
#161136
01
#161208
10
#161424
00
#161448
11
#161520
10
#161712
00
#161736
01
#161808
10
#162024
00
#162120
10
#162312
00
#162336
11
#162408
10
#162624
00
#162648
01
#162720
10
#162912
00
#162936
11
#163248
01
#163392
10
#163512
00
#163560
11
#163608
10
#163632
b10100010 B
#163824
00
#163848
01
#163920
10
#164112
00
#164136
11
#164208
10
#164424
00
#164448
01
#164520
10
#164712
00
#164808
10
#165024
00
#165120
10
#165312
00
#165336
11
#165408
10
#165624
00
#165648
01
#165720
10
#165912
00
#165936
11
#166320
01
#166368
10
#166512
00
#166560
11
#166608
10
#166632
b11111010 B
#166824
00
#166920
10
#167112
00
#167208
10
#167424
00
#167520
10
#167712
00
#167808
10
#168024
00
#168048
01
#168120
10
#168312
00
#168336
11
#168408
10
#168624
00
#168648
01
#168720
10
#168912
00
#168936
11
#169464
01
#169512
10
#169704
00
#169824
10
#169848
bxxxxxxxx B
#170016
11
#170208
01
bxxxxxxxx B
#170304
00
#170376
11
#170424
10
#170448
b11010100 B
#170616
00
#170712
10
#170904
00
#170928
01
#171024
10
#171216
00
#171240
11
#171312
10
#171504
00
#171528
01
#171624
10
#171816
00
#171840
11
#171912
10
#172104
00
#172128
01
#172224
10
#172416
00
#172512
10
#172704
00
#172752
11
#173040
01
#173184
10
#173304
00
#173376
11
#173424
10
#173448
b10100010 B
#173616
00
#173640
01
#173712
10
#173904
00
#173952
11
#174024
10
#174216
00
#174240
01
#174312
10
#174504
00
#174624
10
#174816
00
#174912
10
#175104
00
#175152
11
#175224
10
#175416
00
#175440
01
#175512
10
#175704
00
#175752
11
#176136
01
#176184
10
#176304
00
#176424
10
#176448
bxxxxxxxx B
#176616
00
#176712
10
#176784
11
#176808
01
bxxxxxxxx B
#176904
00
#176952
11
#177024
10
#177048
b11001000 B
#177216
00
#177312
10
#177504
00
#177528
01
#177624
10
#177816
00
#177912
10
#178104
00
#178152
11
#178224
10
#178416
00
#178440
01
#178512
10
#178704
00
#178752
11
#179280
01
#179304
10
#179520
00
#179544
10
#179568
00
#179616
10
#179808
11
#180000
01
bxxxxxxxx B
#180120
00
#180192
11
#180216
10
#180240
b11010110 B
#180408
00
#180504
10
#180720
00
#180744
01
#180816
10
#181008
00
#181032
11
#181104
10
#181320
00
#181344
01
#181416
10
#181608
00
#181632
11
#181704
10
#181920
00
#182016
10
#182208
00
#182232
01
#182304
10
#182520
00
#182544
11
#182832
01
#182976
10
#183120
00
#183168
11
#183216
10
#183240
b10100010 B
#183408
00
#183432
01
#183504
10
#183720
00
#183744
11
#183816
10
#184008
00
#184032
01
#184104
10
#184320
00
#184416
10
#184608
00
#184704
10
#184920
00
#184944
11
#185016
10
#185208
00
#185232
01
#185304
10
#185520
00
#185544
11
#185928
01
#185976
10
#186120
00
#186168
11
#186216
10
#186240
b10100001 B
#186408
00
#186432
01
#186504
10
#186720
00
#186744
11
#186816
10
#187008
00
#187032
01
#187104
10
#187320
00
#187416
10
#187608
00
#187704
10
#187920
00
#188016
10
#188208
00
#188232
11
#188304
10
#188520
00
#189072
01
#189120
10
#189312
00
#189408
10
#189432
bxxxxxxxx B
#189624
11
#189816
01
bxxxxxxxx B
#189912
00
#189984
11
#190008
10
#190032
b11010000 B
#190200
00
#190320
10
#190512
00
#190536
01
#190608
10
#190800
00
#190848
11
#190920
10
#191112
00
#191136
01
#191208
10
#191400
00
#191520
10
#191712
00
#191808
10
#192000
00
#192120
10
#192312
00
#192336
11
#192624
01
#192792
10
#192912
00
#192960
11
#193008
10
#193032
b10100010 B
#193200
00
#193248
01
#193320
10
#193512
00
#193536
11
#193608
10
#193800
00
#193848
01
#193920
10
#194112
00
#194208
10
#194400
00
#194520
10
#194712
00
#194736
11
#194808
10
#195000
00
#195048
01
#195120
10
#195312
00
#195336
11
#195720
01
#195768
10
#195912
00
#196008
10
#196032
b01100010 B
#196200
00
#196248
11
#196320
10
#196512
00
#196608
10
#196800
00
#196848
01
#196920
10
#197112
00
#197208
10
#197400
00
#197520
10
#197712
00
#197736
11
#197808
10
#198000
00
#198048
01
#198120
10
#198312
00
#198336
11
#198864
01
#198912
10
#199104
00
#199224
10
#199248
bxxxxxxxx B
#199416
11
#205752
00
#205776
10
#237480
00
#237504
10
#320256
00
#320280
10
#349224
00
#349248
10
#376080
01
bxxxxxxxx B
#376200
00
#376248
11
#376296
10
#376320
b11010010 B
#376488
00
#376584
10
#376800
00
#376824
01
#376896
10
#377088
00
#377112
11
#377184
10
#377400
00
#377424
01
#377496
10
#377688
00
#377784
10
#378000
00
#378024
11
#378096
10
#378288
00
#378312
01
#378384
10
#378600
00
#378624
11
#378912
01
#379056
10
#379200
00
#379248
11
#379296
10
#379320
b10100010 B
#379488
00
#379512
01
#379584
10
#379800
00
#379824
11
#379896
10
#380088
00
#380112
01
#380184
10
#380400
00
#380496
10
#380688
00
#380784
10
#381000
00
#381024
11
#381096
10
#381288
00
#381312
01
#381384
10
#381600
00
#381624
11
#382008
01
#382056
10
#382200
00
#382248
11
#382296
10
#382320
b11111010 B
#382488
00
#382584
10
#382800
00
#382896
10
#383088
00
#383184
10
#383400
00
#383496
10
#383688
00
#383712
01
#383784
10
#384000
00
#384024
11
#384096
10
#384288
00
#384312
01
#384384
10
#384600
00
#384624
11
#385152
01
#385200
10
#385392
00
#385488
10
#385512
bxxxxxxxx B
#385704
11
#385896
01
bxxxxxxxx B
#385992
00
#386064
11
#386088
10
#386112
b11010100 B
#386280
00
#386400
10
#386592
00
#386616
01
#386688
10
#386880
00
#386928
11
#387000
10
#387192
00
#387216
01
#387288
10
#387480
00
#387528
11
#387600
10
#387792
00
#387816
01
#387888
10
#388080
00
#388200
10
#388392
00
#388416
11
#388704
01
#388944
10
#389088
00
#389136
11
#389184
10
#389208
b10100010 B
#389400
00
#389424
01
#389496
10
#389688
00
#389712
11
#389784
10
#390000
00
#390024
01
#390096
10
#390288
00
#390384
10
#390600
00
#390696
10
#390888
00
#390912
11
#390984
10
#391200
00
#391224
01
#391296
10
#391488
00
#391512
11
#391896
01
#391944
10
#392088
00
#392184
10
#392208
b00110010 B
#392400
00
#392496
10
#392688
00
#392712
11
#392784
10
#393000
00
#393096
10
#393288
00
#393312
01
#393384
10
#393600
00
#393696
10
#393888
00
#393912
11
#393984
10
#394200
00
#394224
01
#394296
10
#394488
00
#394512
11
#395040
01
#395088
10
#395280
00
#395400
10
#395424
bxxxxxxxx B
#395592
11
#395784
01
bxxxxxxxx B
#395880
00
#395952
11
#396000
10
#396024
b11010110 B
#396192
00
#396288
10
#396480
00
#396504
01
#396600
10
#396792
00
#396816
11
#396888
10
#397080
00
#397104
01
#397200
10
#397392
00
#397416
11
#397488
10
#397680
00
#397800
10
#397992
00
#398016
01
#398088
10
#398280
00
#398328
11
#398616
01
#398760
10
#398880
00
#398952
11
#399000
10
#399024
b10100010 B
#399192
00
#399216
01
#399288
10
#399480
00
#399528
11
#399600
10
#399792
00
#399816
01
#399888
10
#400080
00
#400200
10
#400392
00
#400488
10
#400680
00
#400728
11
#400800
10
#400992
00
#401016
01
#401088
10
#401280
00
#401328
11
#401688
01
#401736
10
#401880
00
#401952
11
#402000
10
#402024
b10011110 B
#402192
00
#402216
01
#402288
10
#402480
00
#402600
10
#402792
00
#402816
11
#402888
10
#403080
00
#403200
10
#403392
00
#403488
10
#403680
00
#403800
10
#403992
00
#404016
01
#404088
10
#404280
00
#404328
11
#404856
01
#404904
10
#405096
00
#405192
10
#405216
bxxxxxxxx B
#405384
11
#405576
01
bxxxxxxxx B
#405696
00
#405744
11
#405792
10
#405816
b11010000 B
#405984
00
#406080
10
#406296
00
#406320
01
#406392
10
#406584
00
#406608
11
#406680
10
#406896
00
#406920
01
#406992
10
#407184
00
#407280
10
#407496
00
#407592
10
#407784
00
#407880
10
#408096
00
#408120
11
#408408
01
#409128
10
#409296
00
#409344
11
#409392
10
#409416
b10100010 B
#409584
00
#409608
01
#409680
10
#409896
00
#409920
11
#409992
10
#410184
00
#410208
01
#410280
10
#410496
00
#410592
10
#410784
00
#410880
10
#411096
00
#411120
11
#411192
10
#411384
00
#411408
01
#411480
10
#411696
00
#411720
11
#412104
01
#412152
10
#412296
00
#412392
10
#412416
b01100010 B
#412584
00
#412608
11
#412680
10
#412896
00
#412992
10
#413184
00
#413208
01
#413280
10
#413496
00
#413592
10
#413784
00
#413880
10
#414096
00
#414120
11
#414192
10
#414384
00
#414408
01
#414480
10
#414696
00
#414720
11
#415248
01
#415296
10
#415488
00
#415584
10
#415608
bxxxxxxxx B
#415800
11
#445776
00
#445800
10
#495432
00
#495456
10
#513360
00
#513384
10
#534048
00
#534072
10
#570360
01
bxxxxxxxx B
#570480
00
#570528
11
#570576
10
#570600
b11010010 B
#570768
00
#570864
10
#571080
00
#571104
01
#571176
10
#571368
00
#571392
11
#571464
10
#571680
00
#571704
01
#571776
10
#571968
00
#572064
10
#572280
00
#572304
11
#572376
10
#572568
00
#572592
01
#572688
10
#572880
00
#572904
11
#573192
01
#573336
10
#573480
00
#573528
11
#573576
10
#573600
b10100011 B
#573768
00
#573792
01
#573864
10
#574080
00
#574104
11
#574176
10
#574368
00
#574392
01
#574464
10
#574680
00
#574776
10
#574968
00
#575064
10
#575280
00
#575304
11
#575376
10
#575424
00
#575448
10
#575568
00
#575592
01
#575664
10
#575880
00
#575904
11
#576288
01
#576336
10
#576360
b01111101 B
#576480
00
#576528
11
#576576
10
#576768
00
#576864
10
#577080
00
#577176
10
#577368
00
#577464
10
#577680
00
#577776
10
#577968
00
#577992
01
#578064
10
#578280
00
#578304
11
#578376
10
#578568
00
#578592
01
#578664
10
#578880
00
#578904
11
#579432
01
#579480
10
#579504
bxxxxxxxx B
#579672
00
#579768
10
#579984
11
#580176
01
bxxxxxxxx B
#580272
00
#580344
11
#580368
10
#580392
b11010100 B
#580560
00
#580680
10
#580872
00
#580896
01
#580968
10
#581160
00
#581208
11
#581280
10
#581472
00
#581496
01
#581568
10
#581760
00
#581808
11
#581880
10
#582072
00
#582096
01
#582168
10
#582360
00
#582480
10
#582672
00
#582696
11
#582984
01
#583128
10
#583272
00
#583320
11
#583368
10
#583392
b10100010 B
#583560
00
#583584
01
#583680
10
#583872
00
#583896
11
#583968
10
#584160
00
#584184
01
#584280
10
#584472
00
#584568
10
#584760
00
#584880
10
#585072
00
#585096
11
#585168
10
#585360
00
#585384
01
#585480
10
#585672
00
#585696
11
#586080
01
#586128
10
#586272
00
#586368
10
#586392
b00110010 B
#586560
00
#586680
10
#586872
00
#586896
11
#586968
10
#587160
00
#587280
10
#587472
00
#587496
01
#587568
10
#587760
00
#587880
10
#588072
00
#588096
11
#588168
10
#588360
00
#588384
01
#588480
10
#588672
00
#588696
11
#589224
01
#589272
10
#589464
00
#589560
10
#589584
bxxxxxxxx B
#589776
11
#589968
01
bxxxxxxxx B
#590064
00
#590136
11
#590160
10
#590184
b11010110 B
#590376
00
#590472
10
#590664
00
#590688
01
#590760
10
#590976
00
#591000
11
#591072
10
#591264
00
#591288
01
#591360
10
#591576
00
#591600
11
#591672
10
#591864
00
#591960
10
#592176
00
#592200
01
#592272
10
#592464
00
#592488
11
#592800
01
#592944
10
#593064
00
#593136
11
#593160
10
#593184
b10100010 B
#593376
00
#593400
01
#593472
10
#593664
00
#593688
11
#593760
10
#593976
00
#594000
01
#594072
10
#594264
00
#594360
10
#594576
00
#594672
10
#594864
00
#594888
11
#594960
10
#595176
00
#595200
01
#595272
10
#595464
00
#595488
11
#595872
01
#595920
10
#596064
00
#596112
10
11
#596136
00
b11010001 B
#596160
10
#596376
00
#596400
01
#596472
10
#596664
00
#596688
11
#596760
10
#596976
00
#597000
01
#597072
10
#597264
00
#597360
10
#597576
00
#597672
10
#597864
00
#597888
11
#597960
10
#598176
00
#598200
01
#598272
10
#598464
00
#598488
11
#599016
01
#599064
10
#599088
bxxxxxxxx B
#599256
00
#599376
10
#599568
11
#599760
01
bxxxxxxxx B
#599856
00
#599928
11
#599976
10
#600000
b11010000 B
#600168
00
#600264
10
#600456
00
#600504
01
#600576
10
#600768
00
#600792
11
#600864
10
#601056
00
#601104
01
#601176
10
#601368
00
#601464
10
#601656
00
#601776
10
#601968
00
#602064
10
#602256
00
#602304
11
#602592
01
#602736
10
#602856
00
#602928
11
#602976
10
#603000
b10100010 B
#603168
00
#603192
01
#603264
10
#603456
00
#603504
11
#603576
10
#603768
00
#603792
01
#603864
10
#604056
00
#604176
10
#604368
00
#604464
10
#604656
00
#604704
11
#604776
10
#604968
00
#604992
01
#605064
10
#605256
00
#605304
11
#605688
01
#605736
10
#605856
00
#605976
10
#606000
b01011110 B
#606168
00
#606192
11
#606264
10
#606456
00
#606504
01
#606576
10
#606768
00
#606792
11
#606864
10
#607056
00
#607176
10
#607368
00
#607464
10
#607656
00
#607776
10
#607968
00
#607992
01
#608064
10
#608256
00
#608304
11
#608832
01
#608880
10
#609072
00
#609168
10
#609192
bxxxxxxxx B
#609360
11
#705072
00
#705096
10
#710592
00
#710616
10
#728520
00
#728544
10
#746448
00
#746472
10
#772056
01
bxxxxxxxx B
#772152
00
#772224
11
#772248
10
#772272
b11010010 B
#772440
00
#772560
10
#772752
00
#772776
01
#772848
10
#773040
00
#773088
11
#773160
10
#773352
00
#773376
01
#773448
10
#773640
00
#773760
10
#773952
00
#773976
11
#774048
10
#774240
00
#774264
01
#774360
10
#774552
00
#774576
11
#774864
01
#775008
10
#775152
00
#775200
11
#775248
10
#775272
b10100010 B
#775440
00
#775464
01
#775560
10
#775752
00
#775776
11
#775848
10
#776040
00
#776064
01
#776160
10
#776352
00
#776448
10
#776640
00
#776760
10
#776952
00
#776976
11
#777048
10
#777240
00
#777264
01
#777360
10
#777552
00
#777576
11
#777960
01
#778008
10
#778152
00
#778200
11
#778248
10
#778272
b11111010 B
#778440
00
#778560
10
#778752
00
#778848
10
#779040
00
#779160
10
#779352
00
#779448
10
#779640
00
#779664
01
#779760
10
#779952
00
#779976
11
#780048
10
#780240
00
#780264
01
#780360
10
#780552
00
#780576
11
#781104
01
#781152
10
#781344
00
#781440
10
#781464
bxxxxxxxx B
#781656
11
#781848
01
bxxxxxxxx B
#781944
00
#782016
11
#782040
10
#782064
b11010100 B
#782256
00
#782352
10
#782544
00
#782568
01
#782640
10
#782856
00
#782880
11
#782952
10
#783144
00
#783168
01
#783240
10
#783456
00
#783480
11
#783552
10
#783744
00
#783768
01
#783840
10
#784056
00
#784152
10
#784344
00
#784368
11
#784680
01
#784824
10
#784944
00
#784992
11
#785040
10
#785064
b10100010 B
#785256
00
#785280
01
#785352
10
#785544
00
#785568
11
#785640
10
#785856
00
#785880
01
#785952
10
#786144
00
#786240
10
#786456
00
#786552
10
#786744
00
#786768
11
#786840
10
#787056
00
#787080
01
#787152
10
#787344
00
#787368
11
#787752
01
#787800
10
#787944
00
#788040
10
#788064
b00110010 B
#788256
00
#788352
10
#788544
00
#788568
11
#788640
10
#788856
00
#788952
10
#789144
00
#789168
01
#789240
10
#789456
00
#789552
10
#789744
00
#789768
11
#789840
10
#790056
00
#790080
01
#790152
10
#790344
00
#790368
11
#790896
01
#790944
10
#791136
00
#791256
10
#791280
bxxxxxxxx B
#791448
11
#791640
01
bxxxxxxxx B
#791736
00
#791808
11
#791856
10
#791880
b11010110 B
#792048
00
#792144
10
#792336
00
#792384
01
#792456
10
#792648
00
#792672
11
#792744
10
#792936
00
#792984
01
#793056
10
#793248
00
#793272
11
#793344
10
#793536
00
#793656
10
#793848
00
#793872
01
#793944
10
#794136
00
#794184
11
#794472
01
#794616
10
#794736
00
#794808
11
#794856
10
#794880
bxxxxxxxx B
#795048
00
#795072
01
#795144
10
#795336
00
#795384
11
#795456
10
#795648
00
#795672
01
#795744
10
#795936
00
#796056
10
#796104
11
#796128
01
bxxxxxxxx B
#796248
00
#796344
10
#796368
b01001010 B
#796536
00
#796584
11
#796656
10
#796848
00
#796872
01
#796944
10
#797136
00
#797184
11
#797544
01
#797592
10
#797736
00
#797808
11
#797856
10
#798048
00
#798072
01
#798144
10
#798336
00
#798384
11
#798456
10
#798648
00
#798672
01
#798744
10
#798936
00
#799056
10
#799248
00
#799272
11
#799344
10
#799368
bxxxxxxxx B
#799536
00
#799584
01
#799656
10
#799848
00
#799944
10
#800136
00
#800184
11
#800712
01
#800760
10
#800952
00
#801048
10
#801240
11
#801456
01
bxxxxxxxx B
#801552
00
#801624
11
#801648
10
#801672
b11010000 B
#801840
00
#801960
10
#802152
00
#802176
01
#802248
10
#802440
00
#802488
11
#802560
10
#802752
00
#802776
01
#802848
10
#803040
00
#803160
10
#803352
00
#803448
10
#803640
00
#803760
10
#803952
00
#803976
11
#804264
01
#804408
10
#804552
00
#804600
11
#804648
10
#804672
b10100010 B
#804840
00
#804864
01
#804960
10
#805152
00
#805176
11
#805248
10
#805440
00
#805464
01
#805560
10
#805752
00
#805848
10
#806040
00
#806136
10
#806352
00
#806376
11
#806448
10
#806640
00
#806664
01
#806736
10
#806952
00
#806976
11
#807360
01
#807408
10
#807552
00
#807648
10
#807672
b01011111 B
#807840
00
#807864
11
#807936
10
#808152
00
#808176
01
#808248
10
#808440
00
#808464
11
#808536
10
#808752
00
#808848
10
#809040
00
#809136
10
#809352
00
#809448
10
#809640
00
#809736
10
#809952
00
#810504
01
#810552
10
#810744
00
#810840
10
#810864
bxxxxxxxx B
#811056
11
#822312
00
#822336
10
#827832
00
#827856
10
#836112
00
#836136
10
#865080
00
#865104
10
#870600
00
01
#870624
10
11
#888528
00
#888552
10
#927144
00
#927168
10
#974928
01
bxxxxxxxx B
#975024
00
#975096
11
#975120
10
#975144
b11010010 B
#975336
00
#975432
10
#975624
00
#975648
01
#975720
10
#975936
00
#975960
11
#976032
10
#976224
00
#976248
01
#976320
10
#976536
00
#976632
10
#976824
00
#976848
11
#976920
10
#977136
00
#977160
01
#977232
10
#977424
00
#977448
11
#977760
01
#977904
10
#978024
00
#978072
11
#978120
10
#978144
b10100010 B
#978336
00
#978360
01
#978432
10
#978624
00
#978648
11
#978720
10
#978936
00
#978960
01
#979032
10
#979224
00
#979320
10
#979536
00
#979632
10
#979824
00
#979848
11
#979920
10
#980136
00
#980160
01
#980232
10
#980424
00
#980448
11
#980832
01
#980880
10
#981024
00
#981072
11
#981120
10
#981144
b11111010 B
#981336
00
#981432
10
#981624
00
#981720
10
#981936
00
#982032
10
#982224
00
#982320
10
#982536
00
#982560
01
#982632
10
#982824
00
#982848
11
#982920
10
#983136
00
#983160
01
#983232
10
#983424
00
#983448
11
#984000
01
#984024
10
#984216
00
#984336
10
#984360
bxxxxxxxx B
#984528
11
#984720
01
bxxxxxxxx B
#984816
00
#984912
11
#984936
10
#984960
b11010100 B
#985128
00
#985224
10
#985416
00
#985464
01
#985536
10
#985728
00
#985752
11
#985824
10
#986016
00
#986064
01
#986136
10
#986328
00
#986352
11
#986424
10
#986616
00
#986664
01
#986736
10
#986928
00
#987024
10
#987216
00
#987264
11
#987552
01
#987696
10
#987816
00
#987888
11
#987936
10
#987960
b10100010 B
#988128
00
#988152
01
#988224
10
#988416
00
#988464
11
#988536
10
#988728
00
#988752
01
#988824
10
#989016
00
#989136
10
#989328
00
#989424
10
#989616
00
#989664
11
#989736
10
#989928
00
#989952
01
#990024
10
#990216
00
#990264
11
#990624
01
#990672
10
#990816
00
#990936
10
#990960
b00110010 B
#991128
00
#991224
10
#991416
00
#991464
11
#991536
10
#991728
00
#991824
10
#992016
00
#992064
01
#992136
10
#992328
00
#992424
10
#992616
00
#992664
11
#992736
10
#992928
00
#992952
01
#993024
10
#993216
00
#993264
11
#993792
01
#993840
10
#994032
00
#994128
10
#994152
bxxxxxxxx B
#994320
11
#994536
01
bxxxxxxxx B
#994632
00
#994704
11
#994752
10
#994776
b11010110 B
#994920
00
#995016
10
#995232
00
#995256
01
#995328
10
#995520
00
#995544
11
#995616
10
#995832
00
#995856
01
#995928
10
#996120
00
#996144
11
#996216
10
#996432
00
#996528
10
#996720
00
#996744
01
#996816
10
#997032
00
#997056
11
#997344
01
#997488
10
#997632
00
#997680
11
#997728
10
#997752
b10100010 B
#997920
00
#997944
01
#998016
10
#998232
00
#998256
11
#998328
10
#998520
00
#998544
01
#998616
10
#998832
00
#998928
10
#999120
00
#999216
10
#999432
00
#999456
11
#999528
10
#999720
00
#999744
01
#999816
10
#1000032
00
#1000056
11
#1000440
01
#1000488
10
#1000632
00
#1000680
11
#1000728
10
#1000752
b10100010 B
#1000920
00
#1000944
01
#1001016
10
#1001232
00
#1001256
11
#1001328
10
#1001520
00
#1001544
01
#1001616
10
#1001832
00
#1001928
10
#1002120
00
#1002216
10
#1002432
00
#1002456
11
#1002528
10
#1002720
00
#1002744
01
#1002816
10
#1003032
00
#1003056
11
#1003584
01
#1003632
10
#1003824
00
#1003920
10
#1003944
bxxxxxxxx B
#1004136
11
#1004328
01
bxxxxxxxx B
#1004424
00
#1004496
11
#1004520
10
#1004544
b11010000 B
#1004736
00
#1004832
10
#1005024
00
#1005048
01
#1005120
10
#1005336
00
#1005360
11
#1005432
10
#1005624
00
#1005648
01
#1005720
10
#1005936
00
#1006032
10
#1006224
00
#1006320
10
#1006536
00
#1006632
10
#1006824
00
#1006848
11
#1007136
01
#1007304
10
#1007424
00
#1007472
11
#1007520
10
#1007544
b10100010 B
#1007736
00
#1007760
01
#1007832
10
#1008024
00
#1008048
11
#1008120
10
#1008336
00
#1008360
01
#1008432
10
#1008624
00
#1008720
10
#1008912
00
#1009032
10
#1009224
00
#1009248
11
#1009320
10
#1009512
00
#1009560
01
#1009632
10
#1009824
00
#1009848
11
#1010232
01
#1010280
10
#1010424
00
#1010520
10
#1010544
b01100001 B
#1010712
00
#1010760
11
#1010832
10
#1011024
00
#1011120
10
#1011312
00
#1011360
01
#1011432
10
#1011624
00
#1011720
10
#1011912
00
#1012032
10
#1012224
00
#1012320
10
#1012512
00
#1012560
11
#1012632
10
#1012824
00
#1013376
01
#1013424
10
#1013616
00
#1013736
10
#1013760
bxxxxxxxx B
#1013928
11
#1105080
00
#1105104
10
#1107840
00
#1107864
10
#1164000
01
bxxxxxxxx B
#1164096
00
#1164168
11
#1164216
10
#1164240
b11010010 B
#1164408
00
#1164504
10
#1164696
00
#1164744
01
#1164816
10
#1165008
00
#1165032
11
#1165104
10
#1165296
00
#1165344
01
#1165416
10
#1165608
00
#1165704
10
#1165896
00
#1165944
11
#1166016
10
#1166208
00
#1166232
01
#1166304
10
#1166496
00
#1166544
11
#1166832
01
#1166976
10
#1167096
00
#1167168
11
#1167216
10
#1167240
b10100010 B
#1167408
00
#1167432
01
#1167504
10
#1167696
00
#1167744
11
#1167816
10
#1168008
00
#1168032
01
#1168104
10
#1168296
00
#1168416
10
#1168608
00
#1168704
10
#1168896
00
#1168944
11
#1169016
10
#1169208
00
#1169232
01
#1169304
10
#1169496
00
#1169544
11
#1169928
01
#1169976
10
#1170096
00
#1170168
11
#1170216
10
#1170240
b11111010 B
#1170408
00
#1170504
10
#1170696
00
#1170816
10
#1171008
00
#1171104
10
#1171296
00
#1171416
10
#1171608
00
#1171632
01
#1171704
10
#1171896
00
#1171944
11
#1172016
10
#1172208
00
#1172232
01
#1172304
10
#1172496
00
#1172544
11
#1173072
01
#1173120
10
#1173312
00
#1173408
10
#1173432
bxxxxxxxx B
#1173600
11
#1173816
01
bxxxxxxxx B
#1173912
00
#1173984
11
#1174008
10
#1174032
b11010100 B
#1174200
00
#1174320
10
#1174512
00
#1174536
01
#1174608
10
#1174800
00
#1174848
11
#1174920
10
#1175112
00
#1175136
01
#1175208
10
#1175400
00
#1175448
11
#1175520
10
#1175712
00
#1175736
01
#1175808
10
#1176000
00
#1176120
10
#1176312
00
#1176336
11
#1176624
01
#1176768
10
#1176912
00
#1176960
11
#1177008
10
#1177032
b10100010 B
#1177200
00
#1177224
01
#1177320
10
#1177512
00
#1177536
11
#1177608
10
#1177800
00
#1177824
01
#1177920
10
#1178112
00
#1178208
10
#1178400
00
#1178520
10
#1178712
00
#1178736
11
#1178808
10
#1179000
00
#1179024
01
#1179120
10
#1179312
00
#1179336
11
#1179720
01
#1179768
10
#1179912
00
#1180008
10
#1180032
b00110010 B
#1180200
00
#1180320
10
#1180512
00
#1180536
11
#1180608
10
#1180800
00
#1180920
10
#1181112
00
#1181136
01
#1181208
10
#1181400
00
#1181520
10
#1181712
00
#1181736
11
#1181808
10
#1182000
00
#1182024
01
#1182096
10
#1182312
00
#1182336
11
#1182864
01
#1182912
10
#1183104
00
#1183200
10
#1183224
bxxxxxxxx B
#1183416
11
#1183608
01
bxxxxxxxx B
#1183704
00
#1183776
11
#1183800
10
#1183824
b11010110 B
#1184016
00
#1184112
10
#1184304
00
#1184328
01
#1184400
10
#1184616
00
#1184640
11
#1184712
10
#1184904
00
#1184928
01
#1185000
10
#1185216
00
#1185240
11
#1185312
10
#1185504
00
#1185600
10
#1185816
00
#1185840
01
#1185912
10
#1186104
00
#1186128
11
#1186440
01
#1186584
10
#1186704
00
#1186752
11
#1186800
10
#1186824
b10100010 B
#1187016
00
#1187040
01
#1187112
10
#1187304
00
#1187328
11
#1187400
10
#1187616
00
#1187640
01
#1187712
10
#1187904
00
#1188000
10
#1188216
00
#1188312
10
#1188504
00
#1188528
11
#1188600
10
#1188816
00
#1188840
01
#1188912
10
#1189104
00
#1189128
11
#1189512
01
#1189560
10
#1189704
00
#1189752
11
#1189800
10
#1189824
b10011101 B
#1190016
00
#1190040
01
#1190112
10
#1190304
00
#1190400
10
#1190616
00
#1190640
11
#1190712
10
#1190904
00
#1191000
10
#1191216
00
#1191312
10
#1191504
00
#1191528
01
#1191600
10
#1191816
00
#1191840
11
#1191912
10
#1192104
00
#1192656
01
#1192704
10
#1192896
00
#1193016
10
#1193040
bxxxxxxxx B
#1193208
11
#1193400
01
bxxxxxxxx B
#1193496
00
#1193568
11
#1193616
10
#1193640
b11010000 B
#1193808
00
#1193904
10
#1194096
00
#1194120
01
#1194216
10
#1194408
00
#1194432
11
#1194504
10
#1194696
00
#1194720
01
#1194816
10
#1195008
00
#1195104
10
#1195296
00
#1195416
10
#1195608
00
#1195704
10
#1195896
00
#1195944
11
#1196232
01
#1196376
10
#1196496
00
#1196568
11
#1196616
10
#1196640
b10100010 B
#1196808
00
#1196832
01
#1196904
10
#1197096
00
#1197144
11
#1197216
10
#1197408
00
#1197432
01
#1197504
10
#1197696
00
#1197816
10
#1198008
00
#1198104
10
#1198296
00
#1198344
11
#1198416
10
#1198608
00
#1198632
01
#1198704
10
#1198896
00
#1198944
11
#1199304
01
#1199352
10
#1199496
00
#1199616
10
#1199640
b01100010 B
#1199808
00
#1199832
11
#1199904
10
#1200096
00
#1200216
10
#1200408
00
#1200432
01
#1200504
10
#1200696
00
#1200816
10
#1201008
00
#1201104
10
#1201296
00
#1201344
11
#1201416
10
#1201608
00
#1201632
01
#1201704
10
#1201896
00
#1201944
11
#1202472
01
#1202520
10
#1202712
00
#1202808
10
#1202832
bxxxxxxxx B
#1203000
11
#1226472
00
#1226496
10
#1310616
00
#1310640
10
#1313376
00
#1313400
10
#1363032
00
#1363056
10
#1365888
01
bxxxxxxxx B
#1365984
00
#1366056
11
#1366080
10
#1366104
b11010010 B
#1366296
00
#1366392
10
#1366584
00
#1366608
01
#1366680
10
#1366896
00
#1366920
11
#1366992
10
#1367184
00
#1367208
01
#1367280
10
#1367496
00
#1367592
10
#1367784
00
#1367808
11
#1367880
10
#1368096
00
#1368120
01
#1368192
10
#1368384
00
#1368408
11
#1368720
01
#1368864
10
#1368984
00
#1369032
11
#1369080
10
#1369104
b10100010 B
#1369296
00
#1369320
01
#1369392
10
#1369584
00
#1369608
11
#1369680
10
#1369896
00
#1369920
01
#1369992
10
#1370184
00
#1370280
10
#1370496
00
#1370592
10
#1370784
00
#1370808
11
#1370880
10
#1371096
00
#1371120
01
#1371192
10
#1371384
00
#1371408
11
#1371792
01
#1371840
10
#1371984
00
#1372032
11
#1372080
10
#1372104
b11111010 B
#1372296
00
#1372392
10
#1372584
00
#1372680
10
#1372896
00
#1372992
10
#1373184
00
#1373280
10
#1373496
00
#1373520
01
#1373592
10
#1373784
00
#1373808
11
#1373880
10
#1374096
00
#1374120
01
#1374192
10
#1374384
00
#1374408
11
#1374936
01
#1374984
10
#1375176
00
#1375296
10
#1375320
bxxxxxxxx B
#1375488
11
#1375680
01
bxxxxxxxx B
#1375776
00
#1375848
11
#1375896
10
#1375920
b11010100 B
#1376088
00
#1376184
10
#1376376
00
#1376400
01
#1376496
10
#1376688
00
#1376712
11
#1376784
10
#1376976
00
#1377000
01
#1377096
10
#1377288
00
#1377312
11
#1377384
10
