Sniffer_I2C/arranque_y_frenado/1.vcd
$date
  febrero 2, 2012
$end
$version
  ChronoVu LA-8 Version 3,08 
$end
$comment
  File: /home/mat/Escritorio/Arranque quad/1.kdt
  from sample 0 to sample 8388607
$end
$timescale 10 ns $end
$scope module la8 $end
$var wire 1 0 SCL_(clock) $end
$var wire 1 1 SDA_(data) $end
$var wire 8 B I2C Bus $end
$upscope $end
$enddefinitions $end
$dumpvars
10
11
bxxxxxxxx B
$end
#0
10
11
bxxxxxxxx B
#24
bxxxxxxxx B
#59544
01
bxxxxxxxx B
#59640
00
#59736
11
#59760
10
#59784
b11010010 B
#59952
00
#60048
10
#60240
00
#60288
01
#60360
10
#60552
00
#60576
11
#60648
10
#60840
00
#60888
01
#60960
10
#61152
00
#61248
10
#61440
00
#61488
11
#61560
10
#61752
00
#61776
01
#61848
10
#62040
00
#62088
11
#62376
01
#62520
10
#62640
00
#62712
11
#62760
10
#62784
b10100010 B
#62952
00
#62976
01
#63048
10
#63240
00
#63288
11
#63360
10
#63552
00
#63576
01
#63648
10
#63840
00
#63960
10
#64152
00
#64248
10
#64440
00
#64488
11
#64560
10
#64752
00
#64776
01
#64848
10
#65040
00
#65088
11
#65448
01
#65496
10
#65640
00
#65784
10
#65808
b00000000 B
#65952
00
#66048
10
#66240
00
#66360
10
#66552
00
#66648
10
#66840
00
#66960
10
#67152
00
#67248
10
#67440
00
#67560
10
#67752
00
#67848
10
#68040
00
#68088
11
#68616
01
#68664
10
#68856
00
#68952
10
#68976
bxxxxxxxx B
#69144
11
#69360
01
bxxxxxxxx B
#69456
00
#69504
11
#69552
10
#69576
b11010100 B
#69744
00
#69840
10
#70056
00
#70080
01
#70152
10
#70344
00
#70392
11
#70440
10
#70656
00
#70680
01
#70752
10
#70944
00
#70992
11
#71040
10
#71256
00
#71280
01
#71352
10
#71544
00
#71664
10
#71856
00
#71880
11
#72168
01
#72312
10
#72456
00
#72504
11
#72552
10
#72576
b10100010 B
#72744
00
#72768
01
#72864
10
#73056
00
#73080
11
#73152
10
#73344
00
#73368
01
#73464
10
#73656
00
#73752
10
#73944
00
#74064
10
#74256
00
#74280
11
#74352
10
#74544
00
#74568
01
#74664
10
#74856
00
#74880
11
#75264
01
#75312
10
#75456
00
#75552
10
#75576
b00000000 B
#75744
00
#75864
10
#76056
00
#76152
10
#76344
00
#76464
10
#76656
00
#76752
10
#76944
00
#77040
10
#77256
00
#77352
10
#77544
00
#77664
10
#77856
00
#77880
11
#78408
01
#78456
10
#78648
00
#78744
10
#78768
bxxxxxxxx B
#78960
11
#79152
01
bxxxxxxxx B
#79248
00
#79320
11
#79344
10
#79368
b11010110 B
#79536
00
#79656
10
#79848
00
#79872
01
#79944
10
#80136
00
#80184
11
#80256
10
#80448
00
#80472
01
#80544
10
#80736
00
#80784
11
#80856
10
#81048
00
#81144
10
#81336
00
#81384
01
#81456
10
#81648
00
#81672
11
#81960
01
#82128
10
#82248
00
#82296
11
#82344
10
#82368
b10100010 B
#82536
00
#82584
01
#82656
10
#82848
00
#82872
11
#82944
10
#83136
00
#83184
01
#83256
10
#83448
00
#83544
10
#83736
00
#83856
10
#84048
00
#84072
11
#84144
10
#84336
00
#84384
01
#84456
10
#84648
00
#84672
11
#85056
01
#85104
10
#85248
00
#85344
10
#85368
b00000000 B
#85536
00
#85656
10
#85848
00
#85944
10
#86136
00
#86256
10
#86448
00
#86544
10
#86736
00
#86856
10
#87048
00
#87144
10
#87336
00
#87456
10
#87648
00
#87672
11
#88200
01
#88248
10
#88440
00
#88560
10
#88584
bxxxxxxxx B
#88752
11
#88944
01
bxxxxxxxx B
#89040
00
#89112
11
#89160
10
#89184
b11010000 B
#89352
00
#89448
10
#89640
00
#89664
01
#89760
10
#89952
00
#89976
11
#90048
10
#90240
00
#90264
01
#90360
10
#90552
00
#90648
10
#90840
00
#90960
10
#91152
00
#91248
10
#91440
00
#91488
11
#91776
01
#91920
10
#92040
00
#92112
11
#92160
10
#92184
b10100010 B
#92352
00
#92376
01
#92448
10
#92640
00
#92688
11
#92760
10
#92952
00
#92976
01
#93048
10
#93240
00
#93360
10
#93552
00
#93648
10
#93840
00
#93888
11
#93960
10
#94152
00
#94176
01
#94248
10
#94440
00
#94488
11
#94848
01
#94896
10
#95040
00
#95160
10
#95184
b00000000 B
#95352
00
#95448
10
#95640
00
#95760
10
#95952
00
#96048
10
#96240
00
#96360
10
#96552
00
#96648
10
#96840
00
#96960
10
#97152
00
#97248
10
#97440
00
#97488
11
#98016
01
#98064
10
#98256
00
#98352
10
#98376
bxxxxxxxx B
#98544
11
#262416
01
bxxxxxxxx B
#262536
00
#262608
11
#262632
10
#262656
b11010010 B
#262824
00
#262920
10
#263136
00
#263160
01
#263232
10
#263424
00
#263472
11
#263520
10
#263736
00
#263760
01
#263832
10
#264024
00
#264120
10
#264336
00
#264360
11
#264432
10
#264624
00
#264648
01
#264720
10
#264936
00
#264960
11
#265248
01
#265392
10
#265536
00
#265584
11
#265632
10
#265656
b10100010 B
#265824
00
#265848
01
#265920
10
#266136
00
#266160
11
#266232
10
#266424
00
#266448
01
#266520
10
#266736
00
#266832
10
#267024
00
#267120
10
#267336
00
#267360
11
#267432
10
#267624
00
#267648
01
#267720
10
#267936
00
#267960
11
#268344
01
#268392
10
#268536
00
#268632
10
#268656
b00000000 B
#268824
00
#268920
10
#269136
00
#269232
10
#269424
00
#269520
10
#269736
00
#269832
10
#270024
00
#270120
10
#270336
00
#270432
10
#270624
00
#270720
10
#270936
00
#270960
11
#271488
01
#271536
10
#271728
00
#271824
10
#271848
bxxxxxxxx B
#272040
11
#272232
01
bxxxxxxxx B
#272328
00
#272400
11
#272424
10
#272448
b11010100 B
#272616
00
#272736
10
#272928
00
#272952
01
#273024
10
#273216
00
#273264
11
#273336
10
#273528
00
#273552
01
#273624
10
#273816
00
#273864
11
#273936
10
#274128
00
#274152
01
#274224
10
#274416
00
#274536
10
#274728
00
#274752
11
#275040
01
#275184
10
#275328
00
#275376
11
#275424
10
#275448
b10100010 B
#275616
00
#275664
01
#275736
10
#275928
00
#275952
11
#276024
10
#276216
00
#276264
01
#276336
10
#276528
00
#276624
10
#276816
00
#276936
10
#277128
00
#277152
11
#277224
10
#277416
00
#277464
01
#277536
10
#277728
00
#277752
11
#278136
01
#278184
10
#278328
00
#278424
10
#278448
b00000000 B
#278472
00
#278496
10
#278616
00
#278736
10
#278928
00
#279024
10
#279216
00
#279336
10
#279528
00
#279624
10
#279816
00
#279936
10
#280128
00
#280224
10
#280416
00
#280536
10
#280728
00
#280752
11
#281280
01
#281328
10
#281352
bxxxxxxxx B
#281520
00
#281640
10
#281832
11
#282024
01
bxxxxxxxx B
#282120
00
#282336
11
#282432
10
#282456
b11010110 B
#282624
00
#282720
10
#282936
00
#282960
01
#283032
10
#283224
00
#283248
11
#283320
10
#283536
00
#283560
01
#283632
10
#283824
00
#283848
11
#283920
10
#284136
00
#284232
10
#284424
00
#284448
01
#284520
10
#284736
00
#284760
11
#285048
01
#285192
10
#285336
00
#285384
11
#285432
10
#285456
b10100010 B
#285624
00
#285648
01
#285720
10
#285936
00
#285960
11
#286032
10
#286224
00
#286248
01
#286320
10
#286536
00
#286632
10
#286824
00
#286920
10
#287136
00
#287160
11
#287232
10
#287424
00
#287448
01
#287520
10
#287736
00
#287760
11
#288144
01
#288192
10
#288336
00
#288432
10
#288456
b00000000 B
#288624
00
#288720
10
#288936
00
#289032
10
#289224
00
#289320
10
#289536
00
#289632
10
#289824
00
#289920
10
#290136
00
#290232
10
#290424
00
#290520
10
#290736
00
#290760
11
#291288
01
#291336
10
#291528
00
#291624
10
#291648
bxxxxxxxx B
#291816
11
#292032
01
bxxxxxxxx B
#292128
00
#292200
11
#292224
10
#292248
b11010000 B
#292416
00
#292536
10
#292728
00
#292752
01
#292824
10
#293016
00
#293064
11
#293136
10
#293328
00
#293352
01
#293424
10
#293616
00
#293736
10
#293928
00
#294024
10
#294216
00
#294336
10
#294528
00
#294552
11
#294840
01
#295008
10
#295128
00
#295176
11
#295224
10
#295248
b10100010 B
#295416
00
#295440
01
#295536
10
#295728
00
#295752
11
#295824
10
#296016
00
#296040
01
#296136
10
#296328
00
#296424
10
#296616
00
#296736
10
#296928
00
#296952
11
#297024
10
#297216
00
#297240
01
#297336
10
#297528
00
#297552
11
#297936
01
#297984
10
#298128
00
#298224
10
#298248
b00000000 B
#298416
00
#298536
10
#298728
00
#298824
10
#299016
00
#299136
10
#299328
00
#299424
10
#299616
00
#299736
10
#299928
00
#300024
10
#300216
00
#300336
10
#300528
00
#300552
11
#301080
01
#301128
10
#301320
00
#301416
10
#301440
bxxxxxxxx B
#301632
11
#393120
00
#393144
10
#460008
01
bxxxxxxxx B
#460104
00
#460176
11
#460200
10
#460224
b11010010 B
#460416
00
#460512
10
#460704
00
#460728
01
#460800
10
#461016
00
#461040
11
#461112
10
#461304
00
#461328
01
#461400
10
#461616
00
#461712
10
#461904
00
#461928
11
#462000
10
#462216
00
#462240
01
#462312
10
#462504
00
#462528
11
#462840
01
#462984
10
#463104
00
#463152
11
#463200
10
#463224
b10100010 B
#463416
00
#463440
01
#463512
10
#463704
00
#463728
11
#463800
10
#464016
00
#464040
01
#464112
10
#464304
00
#464400
10
#464616
00
#464712
10
#464904
00
#464928
11
#465000
10
#465216
00
#465240
01
#465312
10
#465504
00
#465528
11
#465912
01
#465960
10
#466104
00
#466200
10
#466224
b00000000 B
#466416
00
#466512
10
#466704
00
#466800
10
#467016
00
#467112
10
#467304
00
#467400
10
#467616
00
#467712
10
#467904
00
#468000
10
#468216
00
#468312
10
#468504
00
#468528
11
#469056
01
#469104
10
#469296
00
#469416
10
#469440
bxxxxxxxx B
#469608
11
#469800
01
bxxxxxxxx B
#469896
00
#469968
11
#470016
10
#470040
b11010100 B
#470208
00
#470304
10
#470496
00
#470544
01
#470616
10
#470808
00
#470832
11
#470904
10
#471096
00
#471120
01
#471216
10
#471408
00
#471432
11
#471504
10
#471696
00
#471720
01
#471816
10
#472008
00
#472104
10
#472296
00
#472344
11
#472632
01
#472776
10
#472896
00
#472968
11
#473016
10
#473040
b10100010 B
#473208
00
#473232
01
#473304
10
#473496
00
#473544
11
#473616
10
#473808
00
#473832
01
#473904
10
#474096
00
#474216
10
#474408
00
#474504
10
#474696
00
#474744
11
#474816
10
#475008
00
#475032
01
#475104
10
#475296
00
#475344
11
#475704
01
#475752
10
#475896
00
#476016
10
#476040
b00000000 B
#476208
00
#476304
10
#476496
00
#476616
10
#476808
00
#476904
10
#477096
00
#477216
10
#477408
00
#477504
10
#477696
00
#477816
10
#478008
00
#478104
10
#478296
00
#478344
11
#478872
01
#478920
10
#479112
00
#479208
10
#479232
bxxxxxxxx B
#479400
11
#479616
01
bxxxxxxxx B
#479712
00
#479784
11
#479808
10
#479832
b11010110 B
#480000
00
#480096
10
#480312
00
#480336
01
#480408
10
#480600
00
#480648
11
#480696
10
#480912
00
#480936
01
#481008
10
#481200
00
#481248
11
#481296
10
#481512
00
#481608
10
#481800
00
#481824
01
#481896
10
#482112
00
#482136
11
#482424
01
#482568
10
#482712
00
#482760
11
#482808
10
#482832
b10100010 B
#483000
00
#483024
01
#483096
10
#483312
00
#483336
11
#483408
10
#483600
00
#483624
01
#483696
10
#483912
00
#484008
10
#484200
00
#484296
10
#484512
00
#484536
11
#484608
10
#484800
00
#484824
01
#484896
10
#485112
00
#485136
11
#485520
01
#485568
10
#485664
00
#485688
10
#485712
00
b00000000 B
#485808
10
#486000
00
#486096
10
#486312
00
#486408
10
#486600
00
#486696
10
#486912
00
#487008
10
#487200
00
#487296
10
#487512
00
#487608
10
#487800
00
#487896
10
#488112
00
#488136
11
#488664
01
#488712
10
#488736
bxxxxxxxx B
#488904
00
#489000
10
#489216
11
#489408
01
bxxxxxxxx B
#489504
00
#489576
11
#489600
10
#489624
b11010000 B
#489792
00
#489912
10
#490104
00
#490128
01
#490200
10
#490392
00
#490440
11
#490512
10
#490704
00
#490728
01
#490800
10
#490992
00
#491112
10
#491304
00
#491400
10
#491592
00
#491712
10
#491904
00
#491928
11
#492216
01
#492384
10
#492504
00
#492552
11
#492600
10
#492624
b10100010 B
#492792
00
#492840
01
#492912
10
#493104
00
#493128
11
#493200
10
#493392
00
#493440
01
#493512
10
#493704
00
#493800
10
#493992
00
#494112
10
#494304
00
#494328
11
#494400
10
#494592
00
#494640
01
#494712
10
#494904
00
#494928
11
#495312
01
#495360
10
#495504
00
#495600
10
#495624
b00000000 B
#495792
00
#495912
10
#496104
00
#496200
10
#496392
00
#496512
10
#496704
00
#496800
10
#496992
00
#497112
10
#497304
00
#497400
10
#497592
00
#497712
10
#497904
00
#497928
11
#498456
01
#498504
10
#498696
00
#498816
10
#498840
bxxxxxxxx B
#499008
11
#662376
01
bxxxxxxxx B
#662472
00
#662544
11
#662592
10
#662616
b11010010 B
#662784
00
#662880
10
#663096
00
#663120
01
#663192
10
#663384
00
#663408
11
#663480
10
#663696
00
#663720
01
#663792
10
#663984
00
#664080
10
#664272
00
#664320
11
#664392
10
#664584
00
#664608
01
#664680
10
#664872
00
#664920
11
#665208
01
#665352
10
#665472
00
#665544
11
#665592
10
#665616
b10100010 B
#665784
00
#665808
01
#665880
10
#666072
00
#666120
11
#666192
10
#666384
00
#666408
01
#666480
10
#666672
00
#666792
10
#666984
00
#667080
10
#667272
00
#667320
11
#667392
10
#667584
00
#667608
01
#667680
10
#667872
00
#667920
11
#668304
01
#668352
10
#668472
00
#668592
10
#668616
b00000000 B
#668784
00
#668880
10
#669072
00
#669192
10
#669384
00
#669480
10
#669672
00
#669792
10
#669984
00
#670080
10
#670272
00
#670392
10
#670584
00
#670680
10
#670872
00
#670920
11
#671448
01
#671496
10
#671688
00
#671784
10
#671808
bxxxxxxxx B
#671976
11
#672192
01
bxxxxxxxx B
#672288
00
#672360
11
#672384
10
#672408
b11010100 B
#672576
00
#672696
10
#672888
00
#672912
01
#672984
10
#673176
00
#673224
11
#673296
10
#673488
00
#673512
01
#673584
10
#673776
00
#673824
11
#673896
10
#674088
00
#674112
01
#674184
10
#674376
00
#674496
10
#674688
00
#674712
11
#675000
01
#675144
10
#675288
00
#675336
11
#675384
10
#675408
b10100010 B
#675576
00
#675600
01
#675696
10
#675888
00
#675912
11
#675984
10
#676176
00
#676200
01
#676296
10
#676488
00
#676584
10
#676776
00
#676896
10
#677088
00
#677112
11
#677184
10
#677376
00
#677400
01
#677496
10
#677664
00
#677712
11
#678096
01
#678144
10
#678288
00
#678384
10
#678408
b00000000 B
#678576
00
#678696
10
#678888
00
#678984
10
#679176
00
#679296
10
#679488
00
#679584
10
#679776
00
#679896
10
#680088
00
#680184
10
#680376
00
#680496
10
#680688
00
#680712
11
#681240
01
#681288
10
#681480
00
#681576
10
#681600
bxxxxxxxx B
#681792
11
#681984
01
bxxxxxxxx B
#682080
00
#682152
11
#682176
10
#682200
b11010110 B
#682392
00
#682488
10
#682680
00
#682704
01
#682776
10
#682992
00
#683016
11
#683088
10
#683280
00
#683304
01
#683376
10
#683592
00
#683616
11
#683688
10
#683880
00
#683976
10
#684192
00
#684216
01
#684288
10
#684480
00
#684504
11
#684816
01
#684960
10
#685080
00
#685152
11
#685176
10
#685200
b10100010 B
#685392
00
#685416
01
#685488
10
#685680
00
#685704
11
#685776
10
#685992
00
#686016
01
#686088
10
#686280
00
#686376
10
#686592
00
#686688
10
#686880
00
#686904
11
#686976
10
#687192
00
#687216
01
#687288
10
#687480
00
#687504
11
#687888
01
#687936
10
#688080
00
#688176
10
#688200
b00000000 B
#688392
00
#688488
10
#688680
00
#688776
10
#688992
00
#689088
10
#689280
00
#689376
10
#689592
00
#689688
10
#689880
00
#689976
10
#690192
00
#690288
10
#690480
00
#690504
11
#691032
01
#691080
10
#691272
00
#691392
10
#691416
bxxxxxxxx B
#691584
11
#691776
01
bxxxxxxxx B
#691872
00
#691944
11
#691992
10
#692016
b11010000 B
#692184
00
#692280
10
#692472
00
#692496
01
#692592
10
#692784
00
#692808
11
#692880
10
#693072
00
#693096
01
#693192
10
#693384
00
#693480
10
#693672
00
#693792
10
#693984
00
#694080
10
#694272
00
#694320
11
#694608
01
#694752
10
#694872
00
#694944
11
#694992
10
#695016
b10100010 B
#695184
00
#695208
01
#695280
10
#695472
00
#695520
11
#695592
10
#695784
00
#695808
01
#695880
10
#696072
00
#696192
10
#696384
00
#696480
10
#696672
00
#696720
11
#696792
10
#696984
00
#697008
01
#697080
10
#697272
00
#697320
11
#697680
01
#697728
10
#697872
00
#697992
10
#698016
b00000000 B
#698184
00
#698280
10
#698472
00
#698592
10
#698784
00
#698880
10
#699072
00
#699192
10
#699384
00
#699480
10
#699672
00
#699792
10
#699984
00
#700080
10
#700272
00
#700320
11
#700848
01
#700896
10
#701088
00
#701184
10
#701208
bxxxxxxxx B
#701376
11
#868872
01
bxxxxxxxx B
#868968
00
#869040
11
#869064
10
#869088
b11010010 B
#869256
00
#869352
10
#869568
00
#869592
01
#869664
10
#869856
00
#869904
11
#869952
10
#870168
00
#870192
01
#870264
10
#870456
00
#870576
10
#870768
00
#870792
11
#870864
10
#871056
00
#871080
01
#871176
10
#871368
00
#871392
11
#871680
01
#871824
10
#871968
00
#872016
11
#872064
10
#872088
b10100010 B
#872256
00
#872280
01
#872376
10
#872568
00
#872592
11
#872664
10
#872856
00
#872880
01
#872976
10
#873168
00
#873264
10
#873456
00
#873576
10
#873768
00
#873792
11
#873864
10
#874056
00
#874080
01
#874176
10
#874368
00
#874392
11
#874776
01
#874824
10
#874968
00
#875064
10
#875088
b00000000 B
#875256
00
#875376
10
#875568
00
#875664
10
#875856
00
#875976
10
#876168
00
#876264
10
#876456
00
#876576
10
#876768
00
#876864
10
#877056
00
#877176
10
#877368
00
#877392
11
#877920
01
#877968
10
#878160
00
#878256
10
#878280
bxxxxxxxx B
#878472
11
#878664
01
bxxxxxxxx B
#878760
00
#878832
11
#878856
10
#878880
b11010100 B
#879072
00
#879168
10
#879360
00
#879384
01
#879456
10
#879672
00
#879696
11
#879768
10
#879960
00
#879984
01
#880056
10
#880272
00
#880296
11
#880368
10
#880560
00
#880584
01
#880656
10
#880872
00
#880968
10
#881160
00
#881184
11
#881496
01
#881640
10
#881760
00
#881808
11
#881856
10
#881880
b10100010 B
#882072
00
#882096
01
#882168
10
#882360
00
#882384
11
#882456
10
#882672
00
#882696
01
#882768
10
#882960
00
#883056
10
#883272
00
#883368
10
#883560
00
#883584
11
#883656
10
#883872
00
#883896
01
#883968
10
#884160
00
#884184
11
#884568
01
#884616
10
#884760
00
#884856
10
#884880
b00000000 B
#885048
00
#885168
10
#885360
00
#885456
10
#885648
00
#885768
10
#885960
00
#886056
10
#886248
00
#886368
10
#886560
00
#886656
10
#886848
00
#886968
10
#887160
00
#887184
11
#887712
01
#887760
10
#887952
00
#888072
10
#888096
bxxxxxxxx B
#888264
11
#888456
01
bxxxxxxxx B
#888552
00
#888624
11
#888672
10
#888696
b11010110 B
#888864
00
#888960
10
#889152
00
#889176
01
#889272
10
#889464
00
#889488
11
#889560
10
#889752
00
#889776
01
#889872
10
#890064
00
#890088
11
#890160
10
#890352
00
#890472
10
#890664
00
#890688
01
#890760
10
#890952
00
#891000
11
#891288
01
#891432
10
#891552
00
#891624
11
#891672
10
#891696
b10100010 B
#891864
00
#891888
01
#891960
10
#892152
00
#892200
11
#892272
10
#892464
00
#892488
01
#892560
10
#892752
00
#892872
10
#893064
00
#893160
10
#893352
00
#893400
11
#893472
10
#893664
00
#893688
01
#893760
10
#893952
00
#894000
11
#894360
01
#894408
10
#894552
00
#894672
10
#894696
b00000000 B
#894864
00
#894960
10
#895152
00
#895272
10
#895464
00
#895560
10
#895752
00
#895872
10
#896064
00
#896160
10
#896352
00
#896472
10
#896664
00
#896760
10
#896952
00
#897000
11
#897528
01
#897576
10
#897768
00
#897864
10
#897888
bxxxxxxxx B
#898056
11
#898248
01
bxxxxxxxx B
#898368
00
#898440
11
#898464
10
#898488
b11010000 B
#898656
00
#898752
10
#898968
00
#898992
01
#899064
10
#899256
00
#899280
11
#899352
10
#899568
00
#899592
01
#899664
10
#899856
00
#899952
10
#900168
00
#900264
10
#900456
00
#900552
10
#900768
00
#900792
11
#901080
01
#901224
10
#901368
00
#901416
11
#901464
10
#901488
b10100010 B
#901656
00
#901680
01
#901752
10
#901968
00
#901992
11
#902064
10
#902256
00
#902280
01
#902352
10
#902568
00
#902664
10
#902856
00
#902952
10
#903168
00
#903192
11
#903264
10
#903456
00
#903480
01
#903552
10
#903768
00
#903792
11
#904176
01
#904224
10
#904368
00
#904464
10
#904488
b00000000 B
#904656
00
#904752
10
#904968
00
#905064
10
#905256
00
#905352
10
#905568
00
#905664
10
#905856
00
#905952
10
#906168
00
#906264
10
#906456
00
#906552
10
#906768
00
#906792
11
#907320
01
#907368
10
#907560
00
#907656
10
#907680
bxxxxxxxx B
#907872
11
#1069440
01
bxxxxxxxx B
#1069536
00
#1069608
11
#1069632
10
#1069656
b11010010 B
#1069848
00
#1069944
10
#1070136
00
#1070160
01
#1070232
10
#1070448
00
#1070472
11
#1070544
10
#1070736
00
#1070760
01
#1070832
10
#1071048
00
#1071144
10
#1071336
00
#1071384
11
#1071432
10
#1071648
00
#1071672
01
#1071744
10
#1071936
00
#1071984
11
#1072272
01
#1072416
10
#1072536
00
#1072608
11
#1072632
10
#1072656
b10100010 B
#1072848
00
#1072872
01
#1072944
10
#1073136
00
#1073184
11
#1073232
10
#1073448
00
#1073472
01
#1073544
10
#1073736
00
#1073832
10
#1074048
00
#1074144
10
#1074336
00
#1074360
11
#1074432
10
#1074648
00
#1074672
01
#1074744
10
#1074936
00
#1074960
11
#1075344
01
#1075392
10
#1075536
00
#1075632
10
#1075656
b00000000 B
#1075848
00
#1075944
10
#1076136
00
#1076232
10
#1076448
00
#1076544
10
#1076736
00
#1076832
10
#1077048
00
#1077144
10
#1077336
00
#1077432
10
#1077648
00
#1077744
10
#1077936
00
#1077960
11
#1078512
01
#1078560
10
#1078728
00
#1078848
10
#1078872
bxxxxxxxx B
#1079040
11
#1079232
01
bxxxxxxxx B
#1079328
00
#1079400
11
#1079448
10
#1079472
b11010100 B
#1079640
00
#1079736
10
#1079928
00
#1079976
01
#1080048
10
#1080240
00
#1080264
11
#1080336
10
#1080528
00
#1080576
01
#1080648
10
#1080840
00
#1080864
11
#1080936
10
#1081128
00
#1081176
01
#1081248
10
#1081440
00
#1081536
10
#1081728
00
#1081776
11
#1082064
01
#1082208
10
#1082328
00
#1082400
11
#1082448
10
#1082472
b10100010 B
#1082640
00
#1082664
01
#1082736
10
#1082928
00
#1082976
11
#1083048
10
#1083240
00
#1083264
01
#1083336
10
#1083528
00
#1083648
10
#1083840
00
#1083936
10
#1084128
00
#1084176
11
#1084248
10
#1084440
00
#1084464
01
#1084536
10
#1084728
00
#1084776
11
#1085136
01
#1085184
10
#1085328
00
#1085448
10
#1085472
b00000000 B
#1085640
00
#1085736
10
#1085928
00
#1086048
10
#1086240
00
#1086336
10
#1086528
00
#1086648
10
#1086840
00
#1086936
10
#1087128
00
#1087248
10
#1087440
00
#1087536
10
#1087728
00
#1087776
11
#1088304
01
#1088352
10
#1088544
00
#1088640
10
#1088664
bxxxxxxxx B
#1088832
11
#1089048
01
bxxxxxxxx B
#1089144
00
#1089216
11
#1089240
10
#1089264
b11010110 B
#1089432
00
#1089528
10
#1089744
00
#1089768
01
#1089840
10
#1090032
00
#1090080
11
#1090128
10
#1090344
00
#1090368
01
#1090440
10
#1090632
00
#1090680
11
#1090728
10
#1090944
00
#1091040
10
#1091232
00
#1091256
01
#1091352
10
#1091544
00
#1091568
11
#1091856
01
#1092000
10
#1092144
00
#1092192
11
#1092240
10
#1092264
b10100010 B
#1092432
00
#1092456
01
#1092552
10
#1092744
00
#1092768
11
#1092840
10
#1093032
00
#1093056
01
#1093152
10
#1093344
00
#1093440
10
#1093632
00
#1093752
10
#1093944
00
#1093968
11
#1094040
10
#1094232
00
#1094256
01
#1094352
10
#1094544
00
#1094568
11
#1094952
01
#1095000
10
#1095144
00
#1095240
10
#1095264
b00000000 B
#1095432
00
#1095552
10
#1095744
00
#1095840
10
#1096032
00
#1096152
10
#1096344
00
#1096440
10
#1096632
00
#1096752
10
#1096944
00
#1097040
10
#1097232
00
#1097352
10
#1097544
00
#1097568
11
#1098096
01
#1098144
10
#1098336
00
#1098432
10
#1098456
bxxxxxxxx B
#1098648
11
#1098840
01
bxxxxxxxx B
#1098936
00
#1099008
11
#1099032
10
#1099056
b11010000 B
#1099248
00
#1099344
10
#1099536
00
#1099560
01
#1099632
10
#1099848
00
#1099872
11
#1099944
10
#1100136
00
#1100160
01
#1100232
10
#1100448
00
#1100544
10
#1100736
00
#1100832
10
#1101048
00
#1101144
10
#1101336
00
#1101360
11
#1101672
01
#1101816
10
#1101936
00
#1101984
11
#1102032
10
#1102056
b10100010 B
#1102248
00
#1102272
01
#1102344
10
#1102536
00
#1102560
11
#1102632
10
#1102848
00
#1102872
01
#1102944
10
#1103136
00
#1103232
10
#1103448
00
#1103544
10
#1103736
00
#1103760
11
#1103832
10
#1104048
00
#1104072
01
#1104144
10
#1104336
00
#1104360
11
#1104744
01
#1104792
10
#1104936
00
#1105032
10
#1105056
b00000000 B
#1105224
00
#1105344
10
#1105536
00
#1105632
10
#1105824
00
#1105944
10
#1106136
00
#1106232
10
#1106424
00
#1106544
10
#1106736
00
#1106832
10
#1107024
00
#1107144
10
#1107336
00
#1107360
11
#1107888
01
#1107936
10
#1108128
00
#1108248
10
#1108272
bxxxxxxxx B
#1108440
11
#1270224
01
bxxxxxxxx B
#1270320
00
#1270392
11
#1270416
10
#1270440
b11010010 B
#1270608
00
#1270728
10
#1270920
00
#1270944
01
#1271016
10
#1271208
00
#1271256
11
#1271328
10
#1271520
00
#1271544
01
#1271616
10
#1271808
00
#1271928
10
#1272120
00
#1272144
11
#1272216
10
#1272408
00
#1272456
01
#1272528
10
#1272720
00
#1272744
11
#1273032
01
#1273200
10
#1273320
00
#1273368
11
#1273416
10
#1273440
b10100010 B
#1273608
00
#1273656
01
#1273728
10
#1273920
00
#1273944
11
#1274016
10
#1274208
00
#1274256
01
#1274328
10
#1274520
00
#1274616
10
#1274808
00
#1274928
10
#1275120
00
#1275144
11
#1275216
10
#1275408
00
#1275456
01
#1275528
10
#1275720
00
#1275744
11
#1276128
01
#1276176
10
#1276320
00
#1276416
10
#1276440
b00000000 B
#1276608
00
#1276728
10
#1276920
00
#1277016
10
#1277208
00
#1277328
10
#1277520
00
#1277616
10
#1277808
00
#1277928
10
#1278120
00
#1278216
10
#1278408
00
#1278528
10
#1278720
00
#1278744
11
#1279272
01
#1279320
10
#1279512
00
#1279632
10
#1279656
bxxxxxxxx B
#1279824
11
#1280016
01
bxxxxxxxx B
#1280112
00
#1280184
11
#1280208
10
#1280232
b11010100 B
#1280424
00
#1280520
10
#1280712
00
#1280736
01
#1280832
10
#1281024
00
#1281048
11
#1281120
10
#1281312
00
#1281336
01
#1281432
10
#1281624
00
#1281648
11
#1281720
10
#1281912
00
#1281936
01
#1282032
10
#1282224
00
#1282320
10
#1282512
00
#1282560
11
#1282848
01
#1282992
10
#1283112
00
#1283184
11
#1283208
10
#1283232
b10100010 B
#1283424
00
#1283448
01
#1283520
10
#1283712
00
#1283760
11
#1283808
10
#1284024
00
#1284048
01
#1284120
10
#1284312
00
#1284432
10
#1284624
00
#1284720
10
#1284912
00
#1284960
11
#1285008
10
#1285224
00
#1285248
01
#1285320
10
#1285512
00
#1285560
11
#1285920
01
#1285968
10
#1286112
00
#1286232
10
#1286256
b00000000 B
#1286424
00
#1286520
10
#1286712
00
#1286832
10
#1287024
00
#1287120
10
#1287312
00
#1287432
10
#1287624
00
#1287720
10
#1287912
00
#1288032
10
#1288224
00
#1288320
10
#1288512
00
#1288560
11
#1289064
01
#1289112
10
#1289304
00
#1289424
10
#1289448
bxxxxxxxx B
#1289616
11
#1289808
01
bxxxxxxxx B
#1289904
00
#1290000
11
#1290024
10
#1290048
b11010110 B
#1290216
00
#1290312
10
#1290504
00
#1290552
01
#1290624
10
#1290816
00
#1290840
11
#1290912
10
#1291104
00
#1291152
01
#1291224
10
#1291416
00
#1291440
11
#1291512
10
#1291704
00
#1291824
10
#1292016
00
#1292040
01
#1292112
10
#1292304
00
#1292352
11
#1292640
01
#1292784
10
#1292904
00
#1292976
11
#1293024
10
#1293048
b10100010 B
#1293216
00
#1293240
01
#1293312
10
#1293504
00
#1293552
11
#1293624
10
#1293816
00
#1293840
01
#1293912
10
#1294104
00
#1294224
10
#1294416
00
#1294512
10
#1294704
00
#1294752
11
#1294824
10
#1295016
00
#1295040
01
#1295112
10
#1295304
00
#1295352
11
#1295736
01
#1295784
10
#1295904
00
#1296024
10
#1296048
b00000000 B
#1296216
00
#1296312
10
#1296504
00
#1296624
10
#1296816
00
#1296912
10
#1297104
00
#1297224
10
#1297416
00
#1297512
10
#1297704
00
#1297824
10
#1298016
00
#1298112
10
#1298304
00
#1298352
11
#1298880
01
#1298928
10
#1299120
00
#1299216
10
#1299240
bxxxxxxxx B
#1299408
11
#1299624
01
bxxxxxxxx B
#1299720
00
#1299792
11
#1299816
10
#1299840
b11010000 B
#1300008
00
#1300128
10
#1300320
00
#1300344
01
#1300416
10
#1300608
00
#1300656
11
#1300728
10
#1300920
00
#1300944
01
#1301016
10
#1301208
00
#1301328
10
#1301520
00
#1301616
10
#1301808
00
#1301928
10
#1302120
00
#1302144
11
#1302432
01
#1302600
10
#1302720
00
#1302768
11
#1302816
10
#1302840
b10100010 B
#1303008
00
#1303032
01
#1303128
10
#1303320
00
#1303344
11
#1303416
10
#1303608
00
#1303632
01
#1303728
10
#1303920
00
