Sniffer_I2C/arranque_y_frenado/2.vcd
$date
  febrero 2, 2012
$end
$version
  ChronoVu LA-8 Version 3,08 
$end
$comment
  File: /home/mat/Escritorio/Arranque quad/2.kdt
  from sample 0 to sample 8388607
$end
$timescale 10 ns $end
$scope module la8 $end
$var wire 1 0 SCL_(clock) $end
$var wire 1 1 SDA_(data) $end
$var wire 8 B I2C Bus $end
$upscope $end
$enddefinitions $end
$dumpvars
10
11
bxxxxxxxx B
$end
#0
10
11
bxxxxxxxx B
#24
bxxxxxxxx B
#52488
01
bxxxxxxxx B
#52584
00
#55272
11
#55392
10
#55416
b11010010 B
#55584
00
#55680
10
#55872
00
#55920
01
#55992
10
#56184
00
#56208
11
#56280
10
#56472
00
#56520
01
#56592
10
#56784
00
#56880
10
#57072
00
#57120
11
#57192
10
#57384
00
#57408
01
#57480
10
#57672
00
#57720
11
#58008
01
#58152
10
#58272
00
#58344
11
#58392
10
#58416
b10100010 B
#58584
00
#58608
01
#58680
10
#58872
00
#58920
11
#58992
10
#59184
00
#59208
01
#59280
10
#59472
00
#59592
10
#59784
00
#59880
10
#60072
00
#60120
11
#60192
10
#60384
00
#60408
01
#60480
10
#60672
00
#60720
11
#61104
01
#61152
10
#61272
00
#61392
10
#61416
b00000000 B
#61584
00
#61680
10
#61872
00
#61992
10
#62184
00
#62280
10
#62472
00
#62592
10
#62784
00
#62880
10
#63072
00
#63192
10
#63384
00
#63480
10
#63672
00
#63720
11
#64248
01
#64296
10
#64488
00
#64536
11
#64704
01
#64776
10
#64800
bxxxxxxxx B
#64992
11
#65184
01
bxxxxxxxx B
#65280
00
#65352
11
#65376
10
#65400
b11010100 B
#65592
00
#65688
10
#65880
00
#65904
01
#65976
10
#66192
00
#66216
11
#66288
10
#66480
00
#66504
01
#66576
10
#66792
00
#66816
11
#66888
10
#67080
00
#67104
01
#67176
10
#67392
00
#67488
10
#67680
00
#67704
11
#68016
01
#68160
10
#68280
00
#68328
11
#68376
10
#68400
b10100010 B
#68592
00
#68616
01
#68688
10
#68880
00
#68904
11
#68976
10
#69192
00
#69216
01
#69288
10
#69480
00
#69576
10
#69792
00
#69888
10
#70080
00
#70104
11
#70176
10
#70392
00
#70416
01
#70488
10
#70680
00
#70704
11
#71088
01
#71136
10
#71280
00
#71376
10
#71400
b00000000 B
#71592
00
#71688
10
#71880
00
#71976
10
#72192
00
#72288
10
#72480
00
#72576
10
#72792
00
#72888
10
#73080
00
#73176
10
#73392
00
#73488
10
#73680
00
#73704
11
#74232
01
#74280
10
#74472
00
#74592
10
#74616
bxxxxxxxx B
#74784
11
#74976
01
bxxxxxxxx B
#75072
00
#75144
11
#75192
10
#75216
b11010110 B
#75384
00
#75480
10
#75672
00
#75696
01
#75792
10
#75984
00
#76008
11
#76080
10
#76272
00
#76296
01
#76392
10
#76584
00
#76608
11
#76680
10
#76872
00
#76992
10
#77184
00
#77208
01
#77280
10
#77472
00
#77520
11
#77808
01
#77952
10
#78072
00
#78144
11
#78192
10
#78216
b10100010 B
#78384
00
#78408
01
#78480
10
#78672
00
#78720
11
#78792
10
#78984
00
#79008
01
#79080
10
#79272
00
#79392
10
#79584
00
#79680
10
#79872
00
#79920
11
#79992
10
#80184
00
#80208
01
#80280
10
#80472
00
#80520
11
#80880
01
#80928
10
#81072
00
#81192
10
#81216
b00000000 B
#81384
00
#81480
10
#81672
00
#81792
10
#81984
00
#82080
10
#82272
00
#82392
10
#82584
00
#82680
10
#82872
00
#82992
10
#83184
00
#83280
10
#83472
00
#83520
11
#84048
01
#84096
10
#84288
00
#84384
10
#84408
bxxxxxxxx B
#84576
11
#84768
01
bxxxxxxxx B
#84888
00
#84960
11
#84984
10
#85008
b11010000 B
#85176
00
#85272
10
#85488
00
#85512
01
#85584
10
#85776
00
#85800
11
#85872
10
#86088
00
#86112
01
#86184
10
#86376
00
#86472
10
#86688
00
#86784
10
#86976
00
#87072
10
#87288
00
#87312
11
#87600
01
#87744
10
#87888
00
#87936
11
#87984
10
#88008
b10100010 B
#88176
00
#88200
01
#88272
10
#88488
00
#88512
11
#88584
10
#88776
00
#88800
01
#88872
10
#89088
00
#89184
10
#89376
00
#89472
10
#89688
00
#89712
11
#89784
10
#89976
00
#90000
01
#90072
10
#90288
00
#90312
11
#90696
01
#90744
10
#90888
00
#90984
10
#91008
b00000000 B
#91176
00
#91272
10
#91488
00
#91584
10
#91776
00
#91872
10
#92088
00
#92184
10
#92376
00
#92472
10
#92688
00
#92784
10
#92976
00
#93072
10
#93288
00
#93312
11
#93840
01
#93888
10
#94080
00
#94176
10
#94200
bxxxxxxxx B
#94392
11
#263352
01
bxxxxxxxx B
#263448
00
#263520
11
#263568
10
#263592
b11010010 B
#263760
00
#263856
10
#264048
00
#264096
01
#264168
10
#264360
00
#264384
11
#264456
10
#264648
00
#264696
01
#264768
10
#264960
00
#265056
10
#265248
00
#265296
11
#265368
10
#265560
00
#265584
01
#265656
10
#265848
00
#265896
11
#266184
01
#266328
10
#266448
00
#266520
11
#266568
10
#266592
b10100010 B
#266760
00
#266784
01
#266856
10
#267048
00
#267096
11
#267168
10
#267360
00
#267384
01
#267456
10
#267648
00
#267768
10
#267960
00
#268056
10
#268248
00
#268296
11
#268368
10
#268560
00
#268584
01
#268656
10
#268848
00
#268896
11
#269280
01
#269328
10
#269448
00
#269568
10
#269592
b00000000 B
#269760
00
#269856
10
#270048
00
#270168
10
#270360
00
#270456
10
#270648
00
#270768
10
#270960
00
#271056
10
#271248
00
#271368
10
#271560
00
#271656
10
#271848
00
#271896
11
#272424
01
#272472
10
#272664
00
#272760
10
#272784
bxxxxxxxx B
#272952
11
#273168
01
bxxxxxxxx B
#273264
00
#273336
11
#273360
10
#273384
b11010100 B
#273552
00
#273672
10
#273864
00
#273888
01
#273960
10
#274152
00
#274200
11
#274272
10
#274464
00
#274488
01
#274560
10
#274752
00
#274800
11
#274872
10
#275064
00
#275088
01
#275160
10
#275352
00
#275472
10
#275664
00
#275688
11
#275976
01
#276120
10
#276264
00
#276312
11
#276360
10
#276384
b10100010 B
#276552
00
#276576
01
#276672
10
#276864
00
#276888
11
#276960
10
#277152
00
#277176
01
#277272
10
#277464
00
#277560
10
#277752
00
#277872
10
#278064
00
#278088
11
#278160
10
#278352
00
#278376
01
#278472
10
#278664
00
#278688
11
#279072
01
#279120
10
#279264
00
#279360
10
#279384
b00000000 B
#279552
00
#279672
10
#279864
00
#279960
10
#280152
00
#280272
10
#280464
00
#280560
10
#280752
00
#280872
10
#281064
00
#281160
10
#281352
00
#281472
10
#281664
00
#281688
11
#282216
01
#282264
10
#282456
00
#282552
10
#282576
bxxxxxxxx B
#282768
11
#282960
01
bxxxxxxxx B
#283056
00
#283128
11
#283152
10
#283176
b11010110 B
#283368
00
#283464
10
#283656
00
#283680
01
#283752
10
#283968
00
#283992
11
#284064
10
#284256
00
#284280
01
#284352
10
#284568
00
#284592
11
#284664
10
#284856
00
#284952
10
#285168
00
#285192
01
#285264
10
#285456
00
#285480
11
#285792
01
#285936
10
#286056
00
#286128
11
#286152
10
#286176
b10100010 B
#286368
00
#286392
01
#286464
10
#286656
00
#286680
11
#286752
10
#286968
00
#286992
01
#287064
10
#287256
00
#287352
10
#287568
00
#287664
10
#287856
00
#287880
11
#287952
10
#288168
00
#288192
01
#288264
10
#288456
00
#288480
11
#288864
01
#288912
10
#289056
00
#289152
10
#289176
b00000000 B
#289368
00
#289464
10
#289656
00
#289752
10
#289968
00
#290064
10
#290256
00
#290352
10
#290568
00
#290664
10
#290856
00
#290952
10
#291168
00
#291264
10
#291456
00
#291480
11
#292008
01
#292056
10
#292248
00
#292368
10
#292392
bxxxxxxxx B
#292560
11
#292752
01
bxxxxxxxx B
#292848
00
#292920
11
#292968
10
#292992
b11010000 B
#293160
00
#293256
10
#293448
00
#293472
01
#293568
10
#293760
00
#293784
11
#293856
10
#294048
00
#294072
01
#294168
10
#294360
00
#294456
10
#294648
00
#294768
10
#294960
00
#295056
10
#295248
00
#295296
11
#295584
01
#295728
10
#295848
00
#295920
11
#295968
10
#295992
b10100010 B
#296160
00
#296184
01
#296256
10
#296448
00
#296496
11
#296568
10
#296760
00
#296784
01
#296856
10
#297048
00
#297168
10
#297360
00
#297456
10
#297648
00
#297696
11
#297768
10
#297960
00
#297984
01
#298056
10
#298248
00
#298296
11
#298680
01
#298728
10
#298848
00
#298968
10
#298992
b00000000 B
#299160
00
#299256
10
#299448
00
#299568
10
#299760
00
#299856
10
#300048
00
#300168
10
#300360
00
#300456
10
#300648
00
#300768
10
#300960
00
#301056
10
#301248
00
#301296
11
#301824
01
#301872
10
#302064
00
#302160
10
#302184
bxxxxxxxx B
#302352
11
#456432
01
bxxxxxxxx B
#456528
00
#456600
11
#456648
10
#456672
b11010010 B
#456840
00
#456936
10
#457128
00
#457176
01
#457248
10
#457440
00
#457464
11
#457536
10
#457728
00
#457776
01
#457848
10
#458040
00
#458136
10
#458328
00
#458376
11
#458448
10
#458640
00
#458664
01
#458736
10
#458928
00
#458976
11
#459264
01
#459432
10
#459528
00
#459600
11
#459648
10
#459672
b10100010 B
#459840
00
#459864
01
#459936
10
#460128
00
#460176
11
#460248
10
#460440
00
#460464
01
#460536
10
#460728
00
#460848
10
#461040
00
#461136
10
#461328
00
#461376
11
#461448
10
#461640
00
#461664
01
#461736
10
#461928
00
#461976
11
#462360
01
#462408
10
#462528
00
#462648
10
#462672
b00000000 B
#462840
00
#462936
10
#463128
00
#463248
10
#463440
00
#463536
10
#463728
00
#463848
10
#464040
00
#464136
10
#464328
00
#464448
10
#464640
00
#464736
10
#464928
00
#464976
11
#465504
01
#465552
10
#465744
00
#465840
10
#465864
bxxxxxxxx B
#466032
11
#466248
01
bxxxxxxxx B
#466344
00
#466416
11
#466440
10
#466464
b11010100 B
#466632
00
#466752
10
#466944
00
#466968
01
#467040
10
#467232
00
#467280
11
#467352
10
#467544
00
#467568
01
#467640
10
#467832
00
#467880
11
#467952
10
#468144
00
#468168
01
#468240
10
#468432
00
#468552
10
#468744
00
#468768
11
#469056
01
#469200
10
#469344
00
#469392
11
#469440
10
#469464
b10100010 B
#469632
00
#469656
01
#469752
10
#469944
00
#469968
11
#470040
10
#470232
00
#470256
01
#470352
10
#470544
00
#470640
10
#470832
00
#470952
10
#471144
00
#471168
11
#471240
10
#471432
00
#471456
01
#471552
10
#471744
00
#471768
11
#472152
01
#472200
10
#472344
00
#472440
10
#472464
b00000000 B
#472632
00
#472752
10
#472944
00
#473040
10
#473232
00
#473352
10
#473544
00
#473640
10
#473832
00
#473952
10
#474144
00
#474240
10
#474432
00
#474552
10
#474744
00
#474768
11
#475296
01
#475344
10
#475536
00
#475632
10
#475656
bxxxxxxxx B
#475848
11
#476040
01
bxxxxxxxx B
#476136
00
#476208
11
#476232
10
#476256
b11010110 B
#476448
00
#476544
10
#476736
00
#476760
01
#476832
10
#477048
00
#477072
11
#477144
10
#477336
00
#477360
01
#477432
10
#477648
00
#477672
11
#477744
10
#477936
00
#478032
10
#478248
00
#478272
01
#478344
10
#478536
00
#478560
11
#478848
01
#479016
10
#479136
00
#479184
11
#479232
10
#479256
b10100010 B
#479448
00
#479472
01
#479544
10
#479736
00
#479760
11
#479832
10
#480048
00
#480072
01
#480144
10
#480336
00
#480432
10
#480648
00
#480744
10
#480936
00
#480960
11
#481032
10
#481248
00
#481272
01
#481344
10
#481536
00
#481560
11
#481944
01
#481992
10
#482136
00
#482232
10
#482256
b00000000 B
#482448
00
#482544
10
#482736
00
#482832
10
#483048
00
#483144
10
#483336
00
#483432
10
#483648
00
#483744
10
#483936
00
#484032
10
#484248
00
#484344
10
#484536
00
#484560
11
#485088
01
#485136
10
#485328
00
#485448
10
#485472
bxxxxxxxx B
#485640
11
#485832
01
bxxxxxxxx B
#485928
00
#486000
11
#486048
10
#486072
b11010000 B
#486240
00
#486336
10
#486528
00
#486552
01
#486648
10
#486840
00
#486864
11
#486936
10
#487128
00
#487152
01
#487248
10
#487440
00
#487536
10
#487728
00
#487848
10
#488040
00
#488136
10
#488328
00
#488376
11
#488664
01
#488808
10
#488928
00
#489000
11
#489048
10
#489072
b10100010 B
#489240
00
#489264
01
#489336
10
#489528
00
#489576
11
#489648
10
#489840
00
#489864
01
#489936
10
#490128
00
#490248
10
#490440
00
#490536
10
#490728
00
#490776
11
#490848
10
#491040
00
#491064
01
#491136
10
#491328
00
#491376
11
#491736
01
#491784
10
#491928
00
#492048
10
#492072
b00000000 B
#492240
00
#492336
10
#492528
00
#492648
10
#492840
00
#492936
10
#493128
00
#493248
10
#493440
00
#493536
10
#493728
00
#493848
10
#494040
00
#494136
10
#494328
00
#494376
11
#494904
01
#494952
10
#495144
00
#495240
10
#495264
bxxxxxxxx B
#495432
11
#644280
00
#644304
10
#653928
00
#653952
10
#658128
01
bxxxxxxxx B
#658224
00
#658296
11
#658320
10
#658344
b11010010 B
#658512
00
#658632
10
#658824
00
#658848
01
#658920
10
#659112
00
#659160
11
#659232
10
#659424
00
#659448
01
#659520
10
#659712
00
#659832
10
#660024
00
#660048
11
#660120
10
#660312
00
#660336
01
#660432
10
#660624
00
#660648
11
#660936
01
#661080
10
#661224
00
#661272
11
#661320
10
#661344
b10100010 B
#661512
00
#661536
01
#661632
10
#661824
00
#661848
11
#661920
10
#662112
00
#662136
01
#662232
10
#662424
00
#662520
10
#662712
00
#662832
10
#663024
00
#663048
11
#663120
10
#663312
00
#663336
01
#663432
10
#663624
00
#663648
11
#664032
01
#664080
10
#664224
00
#664320
10
#664344
b00000000 B
#664512
00
#664632
10
#664824
00
#664920
10
#665112
00
#665232
10
#665424
00
#665520
10
#665712
00
#665832
10
#666024
00
#666120
10
#666312
00
#666432
10
#666624
00
#666648
11
#667176
01
#667224
10
#667416
00
#667512
10
#667536
bxxxxxxxx B
#667728
11
#667920
01
bxxxxxxxx B
#668016
00
#668088
11
#668112
10
#668136
b11010100 B
#668328
00
#668424
10
#668616
00
#668640
01
#668712
10
#668928
00
#668952
11
#669024
10
#669216
00
#669240
01
#669312
10
#669528
00
#669552
11
#669624
10
#669816
00
#669840
01
#669912
10
#670128
00
#670224
10
#670416
00
#670440
11
#670752
01
#670896
10
#671016
00
#671064
11
#671112
10
#671136
b10100010 B
#671328
00
#671352
01
#671424
10
#671616
00
#671640
11
#671712
10
#671928
00
#671952
01
#672024
10
#672216
00
#672312
10
#672528
00
#672624
10
#672816
00
#672840
11
#672912
10
#673128
00
#673152
01
#673248
10
#673416
00
#673440
11
#673824
01
#673872
10
#674016
00
#674112
10
#674136
b00000000 B
#674328
00
#674424
10
#674616
00
#674712
10
#674928
00
#675024
10
#675216
00
#675312
10
#675528
00
#675624
10
#675816
00
#675912
10
#676128
00
#676224
10
#676416
00
#676440
11
#676968
01
#677016
10
#677208
00
#677328
10
#677352
bxxxxxxxx B
#677520
11
#677712
01
bxxxxxxxx B
#677808
00
#677880
11
#677928
10
#677952
b11010110 B
#678120
00
#678216
10
#678408
00
#678432
01
#678528
10
#678720
00
#678744
11
#678816
10
#679008
00
#679032
01
#679128
10
#679320
00
#679344
11
#679416
10
#679608
00
#679728
10
#679920
00
#679944
01
#680016
10
#680208
00
#680256
11
#680544
01
#680688
10
#680808
00
#680880
11
#680928
10
#680952
b10100010 B
#681120
00
#681144
01
#681216
10
#681408
00
#681456
11
#681528
10
#681720
00
#681744
01
#681816
10
#682008
00
#682128
10
#682320
00
#682416
10
#682608
00
#682656
11
#682728
10
#682920
00
#682944
01
#683016
10
#683208
00
#683256
11
#683616
01
#683664
10
#683808
00
#683928
10
#683952
b00000000 B
#684120
00
#684216
10
#684408
00
#684528
10
#684720
00
#684816
10
#685008
00
#685128
10
#685320
00
#685416
10
#685608
00
#685728
10
#685920
00
#686016
10
#686208
00
#686256
11
#686784
01
#686832
10
#687024
00
#687120
10
#687144
bxxxxxxxx B
#687312
11
#687504
01
bxxxxxxxx B
#687624
00
#687696
11
#687720
10
#687744
b11010000 B
#687912
00
#688008
10
#688224
00
#688248
01
#688320
10
#688512
00
#688536
11
#688608
10
#688824
00
#688848
01
#688920
10
#689112
00
#689208
10
#689424
00
#689520
10
#689712
00
#689808
10
#690024
00
#690048
11
#690336
01
#690504
10
#690624
00
#690672
11
#690720
10
#690744
b10100010 B
#690912
00
#690936
01
#691008
10
#691224
00
#691248
11
#691320
10
#691512
00
#691536
01
#691608
10
#691824
00
#691920
10
#692112
00
#692208
10
#692424
00
#692448
11
#692520
10
#692712
00
#692736
01
#692808
10
#693024
00
#693048
11
#693432
01
#693480
10
#693624
00
#693720
10
#693744
b00000000 B
#693912
00
#694008
10
#694224
00
#694320
10
#694512
00
#694608
10
#694824
00
#694920
10
#695112
00
#695208
10
#695424
00
#695520
10
#695712
00
#695808
10
#696024
00
#696048
11
#696576
01
#696624
10
#696816
00
#696912
10
#696936
bxxxxxxxx B
#697128
11
#765576
00
#765600
10
#775224
00
#775248
10
#855792
01
bxxxxxxxx B
#855888
00
#855960
11
#856008
10
#856032
b11010010 B
#856200
00
#856296
10
#856488
00
#856536
01
#856608
10
#856800
00
#856824
11
#856896
10
#857088
00
#857136
01
#857208
10
#857400
00
#857496
10
#857688
00
#857736
11
#857808
10
#858000
00
#858024
01
#858096
10
#858288
00
#858336
11
#858624
01
#858768
10
#858888
00
#858960
11
#859008
10
#859032
b10100010 B
#859200
00
#859224
01
#859296
10
#859488
00
#859536
11
#859608
10
#859800
00
#859824
01
#859896
10
#860088
00
#860208
10
#860400
00
#860496
10
#860688
00
#860736
11
#860808
10
#861000
00
#861024
01
#861096
10
#861288
00
#861336
11
#861720
01
#861768
10
#861888
00
#862008
10
#862032
b00000000 B
#862200
00
#862296
10
#862488
00
#862608
10
#862800
00
#862896
10
#863088
00
#863208
10
#863400
00
#863496
10
#863688
00
#863808
10
#864000
00
#864096
10
#864288
00
#864336
11
#864864
01
#864912
10
#865104
00
#865200
10
#865224
bxxxxxxxx B
#865392
11
#865608
01
bxxxxxxxx B
#865704
00
#865776
11
#865800
10
#865824
b11010100 B
#865992
00
#866088
10
#866304
00
#866328
01
#866400
10
#866592
00
#866640
11
#866688
10
#866904
00
#866928
01
#867000
10
#867192
00
#867240
11
#867288
10
#867504
00
#867528
01
#867600
10
#867792
00
#867912
10
#868104
00
#868128
11
#868416
01
#868560
10
#868704
00
#868752
11
#868800
10
#868824
b10100010 B
#868992
00
#869016
01
#869112
10
#869304
00
#869328
11
#869400
10
#869592
00
#869616
01
#869688
10
#869904
00
#870000
10
#870192
00
#870288
10
#870504
00
#870528
11
#870600
10
#870792
00
#870816
01
#870888
10
#871104
00
#871128
11
#871512
01
#871560
10
#871704
00
#871800
10
#871824
b00000000 B
#871992
00
#872088
10
#872304
00
#872400
10
#872592
00
#872688
10
#872904
00
#873000
10
#873192
00
#873288
10
#873504
00
#873600
10
#873792
00
#873888
10
#874104
00
#874128
11
#874656
01
#874704
10
#874896
00
#874992
10
#875016
bxxxxxxxx B
#875208
11
#875400
01
bxxxxxxxx B
#875496
00
#875568
11
#875592
10
#875616
b11010110 B
#875784
00
#875904
10
#876096
00
#876120
01
#876192
10
#876384
00
#876432
11
#876504
10
#876696
00
#876720
01
#876792
10
#876984
00
#877032
11
#877104
10
#877296
00
#877392
10
#877584
00
#877632
01
#877704
10
#877896
00
#877920
11
#878208
01
#878376
10
#878496
00
#878544
11
#878592
10
#878616
b10100010 B
#878784
00
#878832
01
#878904
10
#879096
00
#879120
11
#879192
10
#879384
00
#879432
01
#879504
10
#879696
00
#879792
10
#879984
00
#880104
10
#880296
00
#880320
11
#880392
10
#880584
00
#880632
01
#880704
10
#880896
00
#880920
11
#881304
01
#881352
10
#881496
00
#881592
10
#881616
b00000000 B
#881784
00
#881904
10
#882096
00
#882192
10
#882384
00
#882504
10
#882696
00
#882792
10
#882984
00
#883104
10
#883296
00
#883392
10
#883584
00
#883704
10
#883896
00
#883920
11
#884448
01
#884496
10
#884688
00
#884808
10
#884832
bxxxxxxxx B
#885000
11
#885192
01
bxxxxxxxx B
#885288
00
#885360
11
#885408
10
#885432
b11010000 B
#885600
00
#885696
10
#885888
00
#885912
01
#886008
10
#886200
00
#886224
11
#886296
10
#886488
00
#886512
01
#886608
10
#886800
00
#886896
10
#887088
00
#887208
10
#887400
00
#887496
10
#887688
00
#887736
11
#888024
01
#888168
10
#888264
00
#888360
11
#888408
10
#888432
b10100010 B
#888600
00
#888624
01
#888696
10
#888888
00
#888936
11
#888984
10
#889200
00
#889224
01
#889296
10
#889488
00
#889608
10
#889800
00
#889896
10
#890088
00
#890136
11
#890184
10
#890400
00
#890424
01
#890496
10
#890688
00
#890736
11
#891120
01
#891168
10
#891288
00
#891408
10
#891432
b00000000 B
#891600
00
#891696
10
#891888
00
#892008
10
#892200
00
#892296
10
#892488
00
#892608
10
#892800
00
#892896
10
#893088
00
#893208
10
#893400
00
#893496
10
#893688
00
#893736
11
#894264
01
#894312
10
#894504
00
#894600
10
#894624
bxxxxxxxx B
#894792
11
#1053288
01
bxxxxxxxx B
#1053384
00
#1053456
11
#1053480
10
#1053504
b11010010 B
#1053672
00
#1053768
10
#1053984
00
#1054008
01
#1054080
10
#1054272
00
#1054320
11
#1054368
10
#1054584
00
#1054608
01
#1054680
10
#1054872
00
#1054992
10
#1055184
00
#1055208
11
#1055280
10
#1055472
00
#1055496
01
#1055592
10
#1055784
00
#1055808
11
#1056096
01
#1056240
10
#1056384
00
#1056432
11
#1056480
10
#1056504
b10100010 B
#1056672
00
#1056696
01
#1056792
10
#1056984
00
#1057008
11
#1057080
10
#1057272
00
#1057296
01
#1057392
10
#1057584
00
#1057680
10
#1057872
00
#1057992
10
#1058184
00
#1058208
11
#1058280
10
#1058472
00
#1058496
01
#1058592
10
#1058784
00
#1058808
11
#1059192
01
#1059240
10
#1059384
00
#1059480
10
#1059504
b00000000 B
#1059672
00
#1059768
10
#1059984
00
#1060080
10
#1060272
00
#1060368
10
#1060584
00
#1060680
10
#1060872
00
#1060968
10
#1061184
00
#1061280
10
#1061472
00
#1061568
10
#1061784
00
#1061808
11
#1062336
01
#1062384
10
#1062576
00
#1062672
10
#1062696
bxxxxxxxx B
#1062888
11
#1063080
01
bxxxxxxxx B
#1063176
00
#1063248
11
#1063272
10
#1063296
b11010100 B
#1063464
00
#1063584
10
#1063776
00
#1063800
01
#1063872
10
#1064064
00
#1064112
11
#1064184
10
#1064376
00
#1064400
01
#1064472
10
#1064664
00
#1064712
11
#1064784
10
#1064976
00
#1065000
01
#1065072
10
#1065264
00
#1065384
10
#1065576
00
#1065600
11
#1065912
01
#1066056
10
#1066176
00
#1066224
11
#1066272
10
#1066296
b10100010 B
#1066464
00
#1066512
01
#1066584
10
#1066776
00
#1066800
11
#1066872
10
#1067064
00
#1067112
01
#1067184
10
#1067376
00
#1067472
10
#1067664
00
#1067784
10
#1067976
00
#1068000
11
#1068072
10
#1068264
00
#1068312
01
#1068384
10
#1068576
00
#1068600
11
#1068984
01
#1069032
10
#1069176
00
#1069272
10
#1069296
b00000000 B
#1069464
00
#1069584
10
#1069776
00
#1069872
10
#1070064
00
#1070184
10
#1070376
00
#1070472
10
#1070664
00
#1070784
10
#1070976
00
#1071072
10
#1071264
00
#1071384
10
#1071576
00
#1071600
11
#1072128
01
#1072176
10
#1072368
00
#1072488
10
#1072512
bxxxxxxxx B
#1072680
11
#1072872
01
bxxxxxxxx B
#1072968
00
#1073040
11
#1073088
10
#1073112
b11010110 B
#1073280
00
#1073376
10
#1073568
00
#1073592
01
#1073688
10
#1073880
00
#1073904
11
#1073976
10
#1074168
00
#1074192
01
#1074288
10
#1074480
00
#1074504
11
#1074576
10
#1074768
00
#1074888
10
#1075080
00
#1075104
01
#1075176
10
#1075368
00
#1075416
11
#1075704
01
#1075848
10
#1075968
00
#1076040
11
#1076088
10
#1076112
b10100010 B
#1076280
00
#1076304
01
#1076376
10
#1076568
00
#1076616
11
#1076688
10
#1076880
00
#1076904
01
#1076976
10
#1077168
00
#1077288
10
#1077480
00
#1077576
10
#1077768
00
#1077816
11
#1077864
10
#1078080
00
#1078104
01
#1078176
10
#1078368
00
#1078416
11
#1078776
01
#1078824
10
#1078968
00
#1079088
10
#1079112
b00000000 B
#1079280
00
#1079376
10
#1079568
00
#1079688
10
#1079880
00
#1079976
10
#1080168
00
#1080288
10
#1080480
00
#1080576
10
#1080768
00
#1080888
10
#1081080
00
#1081176
10
#1081368
00
#1081416
11
#1081920
01
#1081968
10
#1082184
00
#1082280
10
#1082304
bxxxxxxxx B
#1082472
11
#1082664
01
bxxxxxxxx B
#1082784
00
#1082832
11
#1082880
10
#1082904
b11010000 B
#1083072
00
#1083168
10
#1083384
00
#1083408
01
#1083480
10
#1083672
00
#1083696
11
#1083768
10
#1083984
00
#1084008
01
#1084080
10
#1084272
00
#1084368
10
#1084584
00
#1084680
10
#1084872
00
#1084968
10
#1085184
00
#1085208
11
#1085496
01
#1085640
10
#1085784
00
#1085832
11
#1085880
10
#1085904
b10100010 B
#1086072
00
#1086096
01
#1086168
10
#1086384
00
#1086408
11
#1086480
10
#1086672
00
#1086696
01
#1086768
10
#1086984
00
#1087080
10
#1087272
00
#1087368
10
#1087584
00
#1087608
11
#1087680
10
#1087872
00
#1087896
01
#1087968
10
#1088184
00
#1088208
11
#1088592
01
#1088640
10
#1088784
00
#1088880
10
#1088904
b00000000 B
#1089072
00
#1089168
10
#1089384
00
#1089480
10
#1089672
00
#1089768
10
#1089984
00
#1090080
10
#1090272
00
#1090368
10
#1090584
00
#1090680
10
#1090872
00
#1090968
10
#1091184
00
#1091208
11
#1091736
01
#1091784
10
#1091976
00
#1092072
10
#1092096
bxxxxxxxx B
#1092264
11
#1256256
01
bxxxxxxxx B
#1256352
00
#1256424
11
#1256448
10
#1256472
b11010010 B
#1256664
00
#1256760
10
#1256952
00
#1256976
01
#1257048
10
#1257264
00
#1257288
11
#1257360
10
#1257552
00
#1257576
01
#1257648
10
#1257864
00
#1257960
10
#1258152
00
#1258176
11
#1258248
10
#1258464
00
#1258488
01
#1258560
10
#1258752
00
#1258776
11
#1259088
01
#1259232
10
#1259352
00
#1259400
11
#1259448
10
#1259472
b10100010 B
#1259664
00
#1259688
01
#1259760
10
#1259952
00
#1259976
11
#1260048
10
#1260264
00
#1260288
01
#1260360
10
#1260552
00
#1260648
10
#1260864
00
#1260960
10
#1261152
00
#1261176
11
#1261248
10
#1261464
00
#1261488
01
#1261560
10
#1261752
00
#1261776
11
#1262160
01
#1262208
10
#1262352
00
#1262448
10
#1262472
b00000000 B
#1262664
00
#1262760
10
#1262952
00
#1263048
10
#1263264
00
#1263360
10
#1263552
00
#1263648
10
#1263864
00
#1263960
10
#1264152
00
#1264248
10
#1264464
00
#1264560
10
#1264752
00
#1264776
11
#1265304
01
#1265352
10
#1265544
00
#1265664
10
#1265688
bxxxxxxxx B
#1265856
11
#1266048
01
bxxxxxxxx B
#1266144
00
#1266216
11
#1266264
10
#1266288
b11010100 B
#1266456
00
#1266552
10
#1266744
00
#1266792
01
#1266864
10
#1267056
00
#1267080
11
#1267152
10
#1267344
00
#1267392
01
#1267464
10
#1267656
00
#1267680
11
#1267752
10
#1267944
00
#1267992
01
#1268064
10
#1268256
00
#1268352
10
#1268544
00
#1268592
11
#1268880
01
#1269024
10
#1269144
00
#1269216
11
#1269264
10
#1269288
b10100010 B
#1269456
00
#1269480
01
#1269552
10
#1269744
00
#1269792
11
#1269864
10
#1270056
00
#1270080
01
#1270152
10
#1270344
00
#1270464
10
#1270656
00
#1270752
10
#1270944
00
#1270992
11
#1271064
10
#1271256
00
#1271280
01
#1271352
10
#1271544
00
#1271592
11
#1271952
01
#1272000
10
#1272144
00
#1272264
10
#1272288
b00000000 B
#1272456
00
#1272552
10
#1272744
00
#1272864
10
#1273056
00
#1273152
10
#1273344
00
#1273464
10
#1273656
00
#1273752
10
#1273944
00
#1274064
10
#1274256
00
#1274352
10
#1274544
00
#1274592
11
#1275120
01
#1275168
10
#1275360
00
#1275456
10
#1275480
bxxxxxxxx B
#1275648
11
#1275864
01
bxxxxxxxx B
#1275960
00
#1276008
11
#1276056
10
#1276080
b11010110 B
#1276248
00
#1276344
10
#1276560
00
#1276584
01
#1276656
10
#1276848
00
#1276896
11
#1276944
10
#1277160
00
#1277184
01
#1277256
10
#1277448
00
#1277496
11
#1277544
10
#1277760
00
#1277856
10
#1278048
00
#1278072
01
#1278168
10
#1278360
00
#1278384
11
#1278672
01
#1278816
10
#1278960
00
#1279008
11
#1279056
10
#1279080
b10100010 B
#1279248
00
#1279272
01
#1279368
10
#1279560
00
#1279584
11
#1279656
10
#1279848
00
#1279872
01
#1279968
10
#1280160
00
#1280256
10
#1280448
00
#1280568
10
#1280760
00
#1280784
11
#1280856
10
#1281048
00
#1281072
01
#1281168
10
#1281360
00
#1281384
11
#1281768
01
#1281816
10
#1281960
00
#1282056
10
#1282080
b00000000 B
#1282248
00
#1282368
10
#1282560
00
#1282656
10
#1282848
00
#1282968
10
#1283160
00
#1283256
10
#1283448
00
#1283568
10
#1283760
00
#1283856
10
#1284048
00
#1284168
10
#1284360
00
#1284384
11
#1284912
01
#1284960
10
#1285152
00
#1285248
10
#1285272
bxxxxxxxx B
#1285464
11
#1285656
01
bxxxxxxxx B
#1285752
00
#1285824
11
#1285848
10
#1285872
b11010000 B
#1286064
00
#1286160
10
#1286352
00
#1286376
01
#1286448
10
#1286640
00
#1286688
11
#1286760
10
#1286952
00
#1286976
01
#1287048
10
#1287240
00
#1287360
10
#1287552
00
#1287648
10
#1287840
00
#1287960
10
#1288152
00
#1288176
11
#1288464
01
#1288632
10
#1288752
00
#1288800
11
#1288848
10
#1288872
b10100010 B
#1289040
00
#1289088
01
#1289160
10
#1289352
00
#1289376
11
#1289448
10
