Sniffer_I2C/arranque_y_frenado/can6.vcd
$date
  febrero 7, 2012
$end
$version
  ChronoVu LA-8 Version 3,08 
$end
$comment
  File: /home/mat/Escritorio/Arranque quad/can6.kdt
  from sample 0 to sample 8388607
$end
$timescale 10 ns $end
$scope module la8 $end
$var wire 1 0 SCL_(clock) $end
$var wire 1 1 SDA_(data) $end
$var wire 8 B I2C Bus $end
$upscope $end
$enddefinitions $end
$dumpvars
10
11
bxxxxxxxx B
$end
#0
10
11
bxxxxxxxx B
#36
b11111111 B
#573228
00
01
#573264
10
11
#2565720
00
01
#2565756
10
11
#2671956
00
01
#2671992
10
11
#5556528
00
01
#5556564
10
11
#5695452
00
01
#5695488
10
11
#6419988
00
01
#6420024
10
11
#8601804
00
01
#8601840
10
11
#13702248
00
01
#13702284
10
11
#14718240
00
01
#14718276
10
11
#14718312
b11111111 B
#16552764
00
01
#16552800
10
11
#17615088
00
01
#17615124
10
11
#19592604
00
01
#19592640
10
11
#20417940
00
01
#20417976
10
11
#20578644
00
01
#20578680
10
11
#21536064
00
01
#21536100
10
11
#24556824
00
01
#24556860
10
11
#25511544
00
#25511580
10
#27607536
00
01
#27607572
10
11
#27607608
b11111111 B
#27671544
00
#27671580
10
#30550680
00
01
#30550716
10
11
#33564600
00
01
#33564636
10
11
#33613632
00
01
#33613668
10
11
#39519000
00
01
#39519036
10
11
#39559860
00
01
#39559896
10
11
#39568032
00
01
#39568068
10
11
#39721932
00
#39721968
10
#40567680
00
01
#40567716
10
11
#40567752
b11111111 B
#46549296
00
01
#46549332
10
11
#50377680
00
01
#50377716
10
11
#50553360
00
01
#50553396
10
11
#50569704
00
01
#50569740
10
11
#51516252
00
#51516288
10
#52586748
00
01
#52586784
10
11
#55559808
00
01
#55559844
10
11
#55567980
00
01
#55568016
10
11
#56608488
00
#56608524
10
#56608560
b11111111 B
#57501900
00
01
#57501936
10
11
#57510072
00
01
#57510108
10
11
#57518244
00
#57518280
10
#58516524
00
01
#58516560
10
11
#58549212
00
01
#58549248
10
11
#59518908
00
01
#59518944
10
11
#61568604
00
#61568640
10
#69507324
00
01
#69507360
10
11
#71567892
00
01
#71567928
10
11
#71567964
b11111111 B
#74526012
00
#74526048
10
#74678544
00
01
#74678580
10
11
#75469824
00
01
#75469860
10
11
#75646872
00
#75646908
10
#82505520
00
01
#82505556
10
11
#83565108
00
#83565144
10
#84571560
00
01
#84571596
10
11
#85509900
00
01
#85509936
10
11
#86517720
00
01
#86517756
10
11
#86517792
b11111111 B
#87524172
00
01
#87524208
10
11
#87556860
00
#87556896
10
#88511580
00
01
#88511616
10
11
#92478888
00
#92478924
10
#92527920
00
01
#92527956
10
11
#93617460
00
#93617496
10
#93650148
00
01
#93650184
10
11
#94509504
00
01
#94509540
10
11
#95521428
00
01
#95521464
10
11
#95521500
b11111111 B
#95675328
00
01
#95675364
10
11
#96552432
00
#96552468
10
#99507780
00
01
#99507816
10
11
#99571788
00
#99571824
10
#99612648
00
01
#99612684
10
11
#101503008
00
01
#101503044
10
11
#101552040
00
#101552076
10
#102520368
00
01
#102520404
10
11
#104489712
00
01
#104489748
10
11
#104489784
b11111111 B
#105546564
00
01
#105546600
10
11
#108666720
00
#108666756
10
#109513836
00
#109513872
10
#109530180
00
#109530216
10
#110506680
00
01
#110506716
10
11
#110514852
00
#110514888
10
#111664296
00
01
#111664332
10
11
#112673484
00
01
#112673520
10
11
#113464764
00
01
#113464800
10
11
#113464836
b11111111 B
#113626836
00
#113626872
10
#114514812
00
01
#114514848
10
11
#115616592
00
#115616628
10
#115624764
00
01
#115624800
10
11
#115681968
00
01
#115682004
10
11
#117472932
00
01
#117472968
10
11
#118366344
00
01
#118366380
10
11
#120512736
00
#120512772
10
#121551876
00
#121551912
10
#121551948
b11111111 B
#123450372
00
#123450408
10
#123650568
00
#123650604
10
#126466992
00
01
#126467028
10
11
#126627696
00
01
#126627732
10
11
#127458468
00
01
#127458504
10
11
#128311020
00
01
#128311056
10
11
#128319192
00
#128319228
10
#128488068
00
#128488104
10
#129456396
00
01
#129456432
10
11
#129456468
b11111111 B
#129512232
00
01
#129512268
10
11
#129617100
00
#129617136
10
#130318488
00
01
#130318524
10
11
#130479192
00
01
#130479228
10
11
#131617764
00
#131617800
10
#132321888
00
#132321924
10
#135617760
00
#135617796
10
#137427732
00
01
#137427768
10
11
#137615688
00
01
#137615724
10
11
#137615760
bxxxxxxxx B
#138620772
00
01
#138620808
10
11
#138628944
00
01
#138628980
10
11
#139459716
00
01
#139459752
10
11
#139467888
00
01
#139467924
10
11
#140447088
00
01
#140447124
10
11
#142513128
00
01
#142513164
10
11
#143504604
00
01
#143504640
10
11
#143990460
01
bxxxxxxxx B
#143990532
00
#143990604
11
#143990640
10
#143990676
b11010010 B
#143990856
00
#143990964
10
#143991144
00
#143991180
01
#143991252
10
#143991432
00
#143991468
11
#143991540
10
#143991756
00
01
#143991864
10
#143992044
00
#143992152
10
#143992332
00
#143992368
11
#143992440
10
#143992656
00
01
#143992764
10
#143992944
00
#143992980
11
#143993268
01
#143993412
10
#143993556
00
#143993592
11
#143993664
10
#143993700
b10100010 B
#143993844
00
#143993880
01
#143993952
10
#143994132
00
#143994168
11
#143994240
10
#143994456
00
01
#143994564
10
#143994744
00
#143994852
10
#143995032
00
#143995140
10
#143995356
00
#143995392
11
#143995464
10
#143995644
00
#143995680
01
#143995752
10
#143995932
00
#143995968
11
#143996364
01
#143996400
10
#143996544
00
#143996652
10
#143996688
b00000000 B
#143996832
00
#143996940
10
#143997156
00
#143997264
10
#143997444
00
#143997552
10
#143997732
00
#143997840
10
#143998056
00
#143998164
10
#143998344
00
#143998452
10
#143998632
00
#143998740
10
#143998956
00
#143998992
11
#143999496
01
#143999568
10
#143999748
00
#143999856
10
#143999892
bxxxxxxxx B
#144000036
11
#144000252
01
bxxxxxxxx B
#144000360
00
#144000432
10
11
#144000468
b11010100 B
#144000648
00
#144000756
10
#144000936
00
#144000972
01
#144001044
10
#144001260
00
11
#144001332
10
#144001548
00
#144001584
01
#144001656
10
#144001836
00
#144001872
11
#144001944
10
#144002160
00
01
#144002232
10
#144002448
00
#144002556
10
#144002736
00
#144002772
11
#144003060
01
#144003204
10
#144003348
00
#144003384
11
#144003456
10
#144003492
b10100010 B
#144003636
00
#144003672
01
#144003744
10
#144003960
00
11
#144004032
10
#144004248
00
#144004284
01
#144004356
10
#144004536
00
#144004644
10
#144004860
00
#144004932
10
#144005148
00
#144005184
11
#144005256
10
#144005436
00
#144005472
01
#144005544
10
#144005760
00
11
#144006156
01
#144006192
10
#144006336
00
#144006444
10
#144006480
b00000000 B
#144006660
00
#144006732
10
#144006948
00
#144007056
10
#144007236
00
#144007344
10
#144007560
00
#144007632
10
#144007848
00
#144007956
10
#144008136
00
#144008244
10
#144008460
00
#144008532
10
#144008748
00
#144008784
11
#144009288
01
#144009360
10
#144009540
00
#144009648
10
#144009684
bxxxxxxxx B
#144009864
11
#144010044
01
bxxxxxxxx B
#144010152
00
#144010224
11
#144010260
10
#144010296
b11010110 B
#144010440
00
#144010548
10
#144010728
00
#144010764
01
#144010836
10
#144011052
00
#144011088
11
#144011160
10
#144011340
00
#144011376
01
#144011448
10
#144011628
00
#144011664
11
#144011736
10
#144011952
00
#144012060
10
#144012240
00
#144012276
01
#144012348
10
#144012528
00
#144012564
11
#144012852
01
#144012996
10
#144013140
00
#144013212
11
#144013248
10
#144013284
b10100010 B
#144013428
00
#144013464
01
#144013536
10
#144013752
00
#144013788
11
#144013860
10
#144014040
00
#144014076
01
#144014148
10
#144014328
00
#144014436
10
#144014652
00
#144014760
10
#144014940
00
#144014976
11
#144015048
10
#144015228
00
#144015264
01
#144015336
10
#144015552
00
#144015588
11
#144015948
01
#144015984
10
#144016128
00
#144016236
10
#144016272
b00000000 B
#144016452
00
#144016560
10
#144016740
00
#144016848
10
#144017028
00
#144017136
10
#144017352
00
#144017460
10
#144017640
00
#144017748
10
#144017928
00
#144018036
10
#144018252
00
#144018360
10
#144018540
00
#144018576
11
#144019116
01
#144019152
10
#144019332
00
#144019440
10
#144019476
bxxxxxxxx B
#144019656
11
#144019836
01
bxxxxxxxx B
#144019944
00
#144020016
11
#144020052
10
#144020088
b11010000 B
#144020232
00
#144020340
10
#144020556
00
01
#144020628
10
#144020844
00
#144020880
11
#144020952
10
#144021132
00
#144021168
01
#144021240
10
#144021456
00
#144021528
10
#144021744
00
#144021852
10
#144022032
00
#144022140
10
#144022356
00
11
#144022680
01
#144022824
10
#144022932
00
#144023004
11
#144023040
10
#144023076
b10100010 B
#144023256
00
01
#144023328
10
#144023544
00
#144023580
11
#144023652
10
#144023832
00
#144023868
01
#144023940
10
#144024156
00
#144024228
10
#144024444
00
#144024552
10
#144024732
00
#144024768
11
#144024840
10
#144025056
00
01
#144025128
10
#144025344
00
#144025380
11
#144025740
01
#144025812
10
#144025956
00
#144026028
10
#144026064
b00000000 B
#144026244
00
#144026352
10
#144026532
00
#144026640
10
#144026856
00
#144026928
10
#144027144
00
#144027252
10
#144027432
00
#144027540
10
#144027756
00
#144027828
10
#144028044
00
#144028152
10
#144028332
00
#144028368
11
#144028908
01
#144028944
10
#144029124
00
#144029232
10
#144029268
bxxxxxxxx B
#144029448
11
#144181332
01
bxxxxxxxx B
#144181440
00
#144181476
11
#144181512
10
#144181548
b11010010 B
#144181728
00
#144181836
10
#144182016
00
#144182052
01
#144182124
10
#144182340
00
11
#144182412
10
#144182628
00
#144182664
01
#144182736
10
#144182916
00
#144183024
10
#144183240
00
11
#144183312
10
#144183528
00
#144183564
01
#144183636
10
#144183816
00
#144183852
11
#144184140
01
#144184284
10
#144184428
00
#144184464
11
#144184536
10
#144184572
b10100010 B
#144184716
00
#144184752
01
#144184824
10
#144185040
00
11
#144185112
10
#144185328
00
#144185364
01
#144185436
10
#144185616
00
#144185724
10
#144185940
00
#144186012
10
#144186228
00
#144186264
11
#144186336
10
#144186516
00
#144186552
01
#144186624
10
#144186840
00
11
#144187236
01
#144187272
10
#144187416
00
#144187524
10
#144187560
b00000000 B
#144187740
00
#144187812
10
#144188028
00
#144188136
10
#144188316
00
#144188424
10
#144188640
00
#144188712
10
#144188928
00
#144189036
10
#144189216
00
#144189324
10
#144189540
00
#144189612
10
#144189828
00
#144189864
11
#144190368
01
#144190440
10
#144190620
00
#144190728
10
#144190764
bxxxxxxxx B
#144190944
11
#144191124
01
bxxxxxxxx B
#144191232
00
#144191304
11
#144191340
10
#144191376
b11010100 B
#144191520
00
#144191628
10
#144191808
00
#144191844
01
#144191916
10
#144192132
00
#144192168
11
#144192240
10
#144192420
00
#144192456
01
#144192528
10
#144192708
00
#144192744
11
#144192816
10
#144193032
00
#144193068
01
#144193140
10
#144193320
00
#144193428
10
#144193608
00
#144193644
11
#144193932
01
#144194112
10
#144194220
00
#144194292
11
#144194328
10
#144194364
b10100010 B
#144194508
00
#144194544
01
#144194616
10
#144194832
00
#144194868
11
#144194940
10
#144195120
00
#144195156
01
#144195228
10
#144195408
00
#144195516
10
#144195732
00
#144195840
10
#144196020
00
#144196056
11
#144196128
10
#144196308
00
#144196344
01
#144196416
10
#144196632
00
#144196668
11
#144197028
01
#144197064
10
#144197208
00
#144197316
10
#144197352
b00000000 B
#144197532
00
#144197640
10
#144197820
00
#144197928
10
#144198108
00
#144198216
10
#144198432
00
#144198540
10
#144198720
00
#144198828
10
#144199008
00
#144199116
10
#144199332
00
#144199440
10
#144199620
00
#144199656
11
#144200196
01
#144200232
10
#144200412
00
#144200520
10
#144200556
bxxxxxxxx B
#144200736
11
#144200916
01
bxxxxxxxx B
#144201024
00
#144201096
11
#144201132
10
#144201168
b11010110 B
#144201312
00
#144201420
10
#144201636
00
01
#144201708
10
#144201924
00
#144201960
11
#144202032
10
#144202212
00
#144202248
01
#144202320
10
#144202536
00
11
#144202608
10
#144202824
00
#144202932
10
#144203112
00
#144203148
01
#144203220
10
#144203436
00
11
#144203760
01
#144203904
10
#144204012
00
#144204084
11
#144204120
10
#144204156
b10100010 B
#144204336
00
01
#144204408
10
#144204624
00
#144204660
11
#144204732
10
#144204912
00
#144204948
01
#144205020
10
#144205236
00
#144205308
10
#144205524
00
#144205632
10
#144205812
00
#144205848
11
#144205920
10
#144206136
00
01
#144206208
10
#144206424
00
#144206460
11
#144206820
01
#144206892
10
#144207036
00
#144207108
10
#144207144
b00000000 B
#144207324
00
#144207432
10
#144207612
00
#144207720
10
#144207936
00
#144208008
10
#144208224
00
#144208332
10
#144208512
00
#144208620
10
#144208836
00
#144208908
10
#144209124
00
#144209232
10
#144209412
00
#144209448
11
#144209988
01
#144210024
10
#144210204
00
#144210312
10
#144210348
bxxxxxxxx B
#144210528
11
#144210708
01
bxxxxxxxx B
#144210816
00
#144210888
11
#144210924
10
#144210960
b11010000 B
#144211104
00
#144211212
10
#144211464
00
01
#144211536
10
#144211716
00
#144211752
11
#144211824
10
#144212004
00
#144212040
01
#144212112
10
#144212328
00
#144212436
10
#144212616
00
#144212724
10
#144212904
00
#144213012
10
#144213228
00
#144213264
11
#144213552
01
#144213696
10
#144213804
00
#144213876
11
#144213912
10
#144213948
b10100010 B
#144214128
00
#144214164
01
#144214236
10
#144214416
00
#144214452
11
#144214524
10
#144214704
00
#144214740
01
#144214812
10
#144215028
00
#144215136
10
#144215316
00
#144215424
10
#144215604
00
#144215640
11
#144215712
10
#144215928
00
#144215964
01
#144216036
10
#144216216
00
#144216252
11
#144216648
01
#144216684
10
#144216828
00
#144216936
10
#144216972
b00000000 B
#144217116
00
#144217224
10
#144217404
00
#144217512
10
#144217728
00
#144217836
10
#144218016
00
#144218124
10
#144218304
00
#144218412
10
#144218628
00
#144218736
10
#144218916
00
#144219024
10
#144219204
00
#144219240
11
#144219600
10
#144219636
00
#144219780
01
#144219816
10
#144219852
bxxxxxxxx B
#144220032
00
#144220140
10
#144220320
11
#144384516
01
bxxxxxxxx B
#144384588
00
#144384660
11
#144384696
10
#144384732
b11010010 B
#144384912
00
#144385020
10
#144385200
00
#144385236
01
#144385308
10
#144385488
00
#144385524
11
#144385596
10
#144385812
00
#144385848
01
#144385920
10
#144386100
00
#144386208
10
#144386388
00
#144386424
11
#144386496
10
#144386712
00
01
#144386820
10
#144387000
00
#144387036
11
#144387108
10
#144387144
00
#144387324
01
#144387468
10
#144387504
b01010001 B
#144387612
00
#144387648
11
#144387720
10
#144387900
00
#144387936
01
#144388008
10
#144388188
00
#144388224
11
#144388296
10
#144388512
00
01
#144388620
10
#144388800
00
#144388908
10
#144389088
00
#144389196
10
#144389412
00
#144389448
11
#144389520
10
#144389700
00
#144389736
01
#144389808
10
#144389988
00
#144390024
11
#144390420
01
#144390456
10
#144390492
b00000000 B
#144390600
00
#144390708
10
#144390888
00
#144390996
10
#144391212
00
#144391320
10
#144391500
00
#144391608
10
#144391788
00
#144391896
10
#144392112
00
#144392220
10
#144392400
00
#144392508
10
#144392688
00
#144392796
10
#144393012
00
#144393048
11
#144393552
01
#144393624
10
#144393660
bxxxxxxxx B
#144393804
00
#144393912
10
#144394092
11
#144394308
01
bxxxxxxxx B
#144394416
00
#144394488
10
11
#144394524
b11010100 B
#144394704
00
#144394812
10
#144394992
00
#144395028
01
#144395100
10
#144395316
00
11
#144395388
10
#144395604
00
#144395640
01
#144395712
10
#144395892
00
#144395928
11
#144396000
10
#144396216
00
01
#144396288
10
#144396504
00
#144396612
10
#144396792
00
#144396828
11
#144397116
01
#144397260
10
#144397404
00
#144397440
11
#144397512
10
#144397548
b10100010 B
#144397692
00
#144397728
01
#144397800
10
#144398016
00
11
#144398088
10
#144398304
00
#144398340
01
#144398412
10
#144398592
00
#144398700
10
#144398916
00
#144398988
10
#144399204
00
#144399240
11
#144399312
10
#144399492
00
#144399528
01
#144399600
10
#144399816
00
11
#144400212
01
#144400248
10
#144400392
00
#144400500
10
#144400536
b00000000 B
#144400716
00
#144400788
10
#144401004
00
#144401112
10
#144401292
00
#144401400
10
#144401616
00
#144401688
10
#144401904
00
#144402012
10
#144402192
00
#144402300
10
#144402516
00
#144402588
10
#144402804
00
#144402840
11
#144403344
01
#144403416
10
#144403596
00
#144403704
10
#144403740
bxxxxxxxx B
#144403920
11
#144404100
01
bxxxxxxxx B
#144404208
00
#144404280
11
#144404316
10
#144404352
b11010110 B
#144404496
00
#144404604
10
#144404784
00
#144404820
01
#144404892
10
#144405108
00
#144405144
11
#144405216
10
#144405396
00
#144405432
01
#144405504
10
#144405684
00
#144405720
11
#144405792
10
#144406008
00
#144406116
10
#144406296
00
#144406332
01
#144406404
10
#144406584
00
#144406620
11
#144406908
01
#144407052
10
#144407196
00
#144407268
11
#144407304
10
#144407340
b10100010 B
#144407484
00
#144407520
01
#144407592
10
#144407808
00
#144407844
11
#144407916
10
#144408096
00
#144408132
01
#144408204
10
#144408384
00
#144408492
10
#144408708
00
#144408816
10
#144408996
00
#144409032
11
#144409104
10
#144409284
00
#144409320
01
#144409392
10
#144409608
00
#144409644
11
#144410004
01
#144410040
10
#144410184
00
#144410292
10
#144410328
b00000000 B
#144410508
00
#144410616
10
#144410796
00
#144410904
10
#144411084
00
#144411192
10
#144411408
00
#144411516
10
#144411696
00
#144411804
10
#144411984
00
#144412092
10
#144412308
00
#144412416
10
#144412596
00
#144412632
11
#144413172
01
#144413208
10
#144413388
00
#144413496
10
#144413532
bxxxxxxxx B
#144413712
11
#144413892
01
bxxxxxxxx B
#144414000
00
#144414072
11
#144414108
10
#144414144
b11010000 B
#144414288
00
#144414396
10
#144414612
00
01
#144414720
10
#144414900
00
#144414936
11
#144415008
10
#144415188
00
#144415224
01
#144415296
10
#144415512
00
#144415620
10
#144415800
00
#144415908
10
#144416088
00
#144416196
10
#144416412
00
#144416448
11
#144416736
01
#144416880
10
#144416988
00
#144417060
11
#144417096
10
#144417132
b10100010 B
#144417312
00
01
#144417420
10
#144417600
00
#144417636
11
#144417708
10
#144417888
00
#144417924
01
#144417996
10
#144418212
00
#144418320
10
#144418500
00
#144418608
10
#144418788
00
#144418824
11
#144418896
10
#144419112
00
01
#144419220
10
#144419400
00
#144419436
11
#144419796
01
#144419868
10
#144420012
00
#144420084
10
#144420120
b00000000 B
#144420300
00
#144420408
10
#144420588
00
#144420696
10
#144420912
00
#144420984
10
#144421200
00
#144421308
10
#144421488
00
#144421596
10
#144421812
00
#144421884
10
#144422100
00
#144422208
10
#144422388
00
#144422424
11
#144422964
01
#144423000
10
#144423216
00
#144423288
10
#144423324
bxxxxxxxx B
#144423504
11
#144592488
01
bxxxxxxxx B
#144592596
00
#144592632
11
#144592668
10
#144592704
b11010010 B
#144592884
00
#144592992
10
#144593172
00
#144593208
01
#144593280
10
#144593496
00
11
#144593568
10
#144593784
00
#144593820
01
#144593892
10
#144594072
00
#144594180
10
#144594396
00
11
#144594468
10
#144594684
00
#144594720
01
#144594792
10
#144594972
00
#144595008
11
#144595296
01
#144595440
10
#144595584
00
#144595620
11
#144595692
10
#144595728
b10100010 B
#144595872
00
#144595908
01
#144595980
10
#144596196
00
11
#144596268
10
#144596484
00
#144596520
01
#144596592
10
#144596772
00
#144596880
10
#144597096
00
#144597168
10
#144597384
00
#144597420
11
#144597492
10
#144597672
00
#144597708
01
#144597780
10
#144597996
00
11
#144598392
01
#144598428
10
#144598572
00
#144598680
10
#144598716
b00000000 B
#144598896
00
#144598968
10
#144599184
00
#144599292
10
#144599472
00
#144599580
10
#144599796
00
#144599868
10
#144600084
00
#144600192
10
#144600372
00
#144600480
10
#144600696
00
#144600768
10
#144600984
00
#144601020
11
#144601524
01
#144601596
10
#144601776
00
#144601884
10
#144601920
bxxxxxxxx B
#144602100
11
#144602280
01
bxxxxxxxx B
#144602388
00
#144602460
11
#144602496
10
#144602532
b11010100 B
#144602676
00
#144602784
10
#144602964
00
#144603000
01
#144603072
10
#144603288
00
#144603324
11
#144603396
10
#144603576
00
#144603612
01
#144603684
10
#144603864
00
#144603900
11
#144603972
10
#144604188
00
#144604224
01
#144604296
10
#144604476
00
#144604584
10
#144604764
00
#144604800
11
#144605088
01
#144605232
10
#144605376
00
#144605448
11
#144605484
10
#144605520
b10100010 B
#144605664
00
#144605700
01
#144605772
10
#144605988
00
#144606024
11
#144606096
10
#144606276
00
#144606312
01
#144606384
10
#144606564
00
#144606672
10
#144606888
00
#144606996
10
#144607176
00
#144607212
11
#144607284
10
#144607464
00
#144607500
01
#144607572
10
#144607788
00
#144607824
11
#144608184
01
#144608220
10
#144608364
00
#144608472
10
#144608508
b00000000 B
#144608688
00
#144608796
10
#144608976
00
#144609084
10
#144609264
00
#144609372
10
#144609588
00
#144609696
10
#144609876
00
#144609984
10
#144610164
00
#144610272
10
#144610488
00
#144610596
10
#144610776
00
#144610812
11
#144611352
01
#144611388
10
#144611568
00
#144611676
10
#144611712
bxxxxxxxx B
#144611892
11
#144612072
01
bxxxxxxxx B
#144612180
00
#144612252
11
#144612288
10
#144612324
b11010110 B
#144612468
00
#144612576
10
#144612792
00
01
#144612864
10
#144613080
00
#144613116
11
#144613188
10
#144613368
00
#144613404
01
#144613476
10
#144613692
00
11
#144613764
10
#144613980
00
#144614088
10
#144614268
00
#144614304
01
#144614376
10
#144614592
00
11
#144614916
01
#144615060
10
#144615168
00
#144615240
11
#144615276
10
#144615312
b10010001 B
#144615492
00
01
#144615564
10
#144615780
00
#144615816
11
#144615888
10
#144615924
00
01
#144615960
10
11
#144616068
00
#144616104
01
#144616176
10
#144616392
00
#144616464
10
#144616680
00
#144616788
10
#144616968
00
#144617004
11
#144617076
10
#144617292
00
01
#144617364
10
#144617580
00
#144617616
11
#144617976
01
#144618048
10
#144618084
b00000000 B
#144618192
00
#144618264
10
#144618480
00
#144618588
10
#144618768
00
#144618876
10
#144619092
00
#144619164
10
#144619380
00
#144619488
10
#144619668
00
#144619776
10
#144619992
00
#144620064
10
#144620280
00
#144620388
10
#144620568
00
#144620604
11
#144621144
01
#144621180
10
#144621216
bxxxxxxxx B
#144621360
00
#144621468
10
#144621684
11
#144621864
01
bxxxxxxxx B
#144621972
00
#144622044
11
#144622080
10
#144622116
b11010000 B
#144622260
00
#144622368
10
#144622584
00
#144622620
01
#144622692
10
#144622872
00
#144622908
11
#144622980
10
#144623160
00
#144623196
01
#144623268
10
#144623484
00
#144623592
10
#144623772
00
#144623880
10
#144624060
00
#144624168
10
#144624384
00
#144624420
11
#144624708
01
#144624852
10
#144624960
00
#144625032
11
#144626184
10
#144626220
b10100010 B
#144626364
00
#144626400
01
#144626472
10
#144626688
00
#144626724
11
#144626796
10
#144626976
00
#144627012
01
#144627084
10
#144627264
00
#144627372
10
#144627588
00
#144627696
10
#144627876
00
#144627912
11
#144627984
10
#144628164
00
#144628200
01
#144628272
10
#144628488
00
#144628524
11
#144628884
01
#144628920
10
#144629064
00
#144629172
10
#144629208
b00000000 B
#144629388
00
#144629496
10
#144629676
00
#144629784
10
#144629964
00
#144630072
10
#144630288
00
#144630396
10
#144630576
00
#144630684
10
#144630864
00
#144630972
10
#144631188
00
#144631296
10
#144631476
00
#144631512
11
#144632052
01
#144632088
10
#144632268
00
#144632376
10
#144632412
bxxxxxxxx B
#144632592
11
#144787644
01
bxxxxxxxx B
#144787752
00
#144787824
11
#144787860
10
#144787896
b11010010 B
#144788076
00
#144788148
10
#144788364
00
#144788400
01
#144788472
10
#144788652
00
#144788688
11
#144788760
10
#144788976
00
01
#144789048
10
#144789264
00
#144789372
10
#144789552
00
#144789588
11
#144789660
10
#144789876
00
01
#144789948
10
#144790164
00
#144790200
11
#144790488
01
#144790632
10
#144790776
00
#144790812
11
#144790848
10
#144790884
b10100010 B
#144791064
00
#144791100
01
#144791172
10
#144791352
00
#144791388
11
#144791460
10
#144791676
00
01
#144791748
10
#144791964
00
#144792072
10
#144792252
00
#144792360
10
#144792576
00
11
#144792648
10
#144792864
00
#144792900
01
#144792972
10
#144793152
00
#144793188
11
#144793584
01
#144793620
10
#144793764
00
#144793872
10
#144793908
b00000000 B
#144794052
00
#144794160
10
#144794376
00
#144794448
10
#144794664
00
#144794772
10
#144794952
00
#144795060
10
#144795276
00
#144795348
10
#144795564
00
#144795672
10
#144795852
00
#144795960
10
#144796176
00
11
#144796716
01
#144796752
10
#144796968
00
#144797076
10
#144797112
bxxxxxxxx B
#144797256
11
#144797472
01
bxxxxxxxx B
#144797544
00
#144797616
11
#144797652
10
#144797688
b11010100 B
#144797868
00
#144797976
10
#144798156
00
#144798192
01
#144798264
10
#144798444
00
#144798480
11
#144798552
10
#144798768
00
01
#144798876
10
#144799056
00
#144799092
11
#144799164
10
#144799344
00
#144799380
01
#144799452
10
#144799668
00
#144799776
10
#144799956
00
#144799992
11
#144800280
01
#144800424
10
#144800568
00
#144800604
11
#144800676
10
#144800712
b10100010 B
#144800856
00
#144800892
01
#144800964
10
#144801144
00
#144801180
11
#144801252
10
#144801468
00
01
#144801576
10
#144801756
00
#144801864
10
#144802044
00
#144802152
10
#144802368
00
#144802404
11
#144802476
10
#144802656
00
#144802692
01
#144802764
10
#144802944
00
#144802980
11
#144803376
01
#144803412
10
#144803556
00
#144803664
10
#144803700
b00000000 B
#144803844
00
#144803952
10
#144804168
00
#144804276
10
#144804456
00
#144804564
10
#144804744
00
#144804852
10
#144805068
00
#144805176
10
#144805356
00
#144805464
10
#144805644
00
#144805752
10
#144805968
00
#144806004
11
#144806508
01
#144806544
10
#144806760
00
#144806868
10
#144806904
bxxxxxxxx B
#144807048
11
#144807264
01
bxxxxxxxx B
#144807372
00
#144807408
11
#144807444
10
#144807480
b11010110 B
#144807660
00
#144807768
10
#144807948
00
#144807984
01
#144808056
10
#144808272
00
11
#144808344
10
#144808560
00
#144808596
01
#144808668
10
#144808848
00
#144808884
11
#144808956
10
#144809172
00
#144809244
10
#144809460
00
#144809496
01
#144809568
10
#144809748
00
#144809784
11
#144810072
01
#144810216
10
#144810360
00
#144810396
11
#144810468
10
#144810504
b10100010 B
#144810648
00
#144810684
01
#144810756
10
#144810972
00
11
#144811044
10
#144811260
00
#144811296
01
#144811368
10
#144811548
00
#144811656
10
#144811872
00
#144811944
10
#144812160
00
#144812196
11
#144812268
10
#144812448
00
#144812484
01
#144812556
10
#144812772
00
11
#144813168
01
#144813204
10
#144813348
00
#144813456
10
#144813492
b00000000 B
#144813672
00
#144813744
10
#144813960
00
#144814068
10
#144814248
00
#144814356
10
#144814572
00
#144814644
10
#144814860
00
#144814968
10
#144815148
00
#144815256
10
#144815472
00
#144815544
10
#144815760
00
#144815796
11
#144816300
01
#144816372
10
#144816552
00
#144816660
10
#144816696
bxxxxxxxx B
#144816876
11
#144817056
01
bxxxxxxxx B
#144817164
00
#144817236
11
#144817272
10
#144817308
b11010000 B
#144817452
00
#144817560
10
#144817740
00
#144817776
01
#144817848
10
#144818064
00
#144818100
11
#144818172
10
#144818352
00
#144818388
01
#144818460
10
#144818640
00
#144818748
10
#144818964
00
#144819072
10
#144819252
00
#144819360
10
#144819540
00
#144819576
11
#144819864
01
#144820044
10
#144820152
00
#144820224
11
#144820260
10
#144820296
b10100010 B
#144820440
00
#144820476
01
#144820548
10
#144820764
00
#144820800
11
#144820872
10
#144821052
00
#144821088
01
#144821160
10
#144821340
00
#144821448
10
#144821664
00
#144821772
10
#144821952
00
#144821988
11
#144822060
10
#144822240
00
#144822276
01
#144822348
10
#144822564
00
#144822600
11
#144822960
01
#144822996
10
#144823140
00
#144823248
10
#144823284
b00000000 B
#144823464
00
#144823572
10
#144823752
00
#144823860
10
#144824040
00
#144824148
10
#144824364
00
#144824472
10
#144824652
00
#144824760
10
#144824940
00
#144825048
10
#144825264
00
#144825372
10
#144825552
00
#144825588
11
#144826128
01
#144826164
10
#144826344
00
#144826452
10
#144826488
bxxxxxxxx B
#144826668
11
#144990324
01
bxxxxxxxx B
#144990432
00
#144990504
11
#144990540
10
#144990576
b11010010 B
#144990756
00
#144990828
10
#144991044
00
#144991080
01
#144991152
10
#144991332
00
#144991368
11
#144991440
10
#144991656
00
01
#144991728
10
#144991944
00
#144992052
10
#144992232
00
#144992268
11
#144992340
10
#144992520
00
#144992556
01
#144992628
10
#144992844
00
#144992880
11
#144993168
01
#144993312
10
#144993420
00
#144993492
11
#144993528
10
#144993564
b10100010 B
#144993744
00
#144993780
01
#144993852
10
#144994032
00
#144994068
11
#144994140
10
#144994320
00
#144994356
01
#144994428
10
#144994644
00
#144994752
10
#144994932
00
#144995040
10
#144995220
00
#144995256
11
#144995328
10
#144995544
00
#144995580
01
#144995652
10
#144995832
00
#144995868
11
#144996264
01
#144996300
10
#144996444
00
#144996552
10
#144996588
b00000000 B
#144996732
00
#144996840
10
#144997020
00
#144997128
10
#144997344
00
#144997452
10
#144997632
00
#144997740
10
#144997920
00
#144998028
10
#144998244
00
#144998352
10
#144998532
00
#144998640
10
#144998820
00
#144998856
11
#144999396
01
#144999432
10
#144999648
00
#144999756
10
#144999792
bxxxxxxxx B
#144999936
11
#145000152
01
bxxxxxxxx B
#145000224
00
#145000296
11
#145000332
10
#145000368
b11010100 B
#145000548
00
#145000656
10
#145000836
00
#145000872
01
#145000944
10
#145001124
00
#145001160
11
#145001232
10
#145001448
00
01
#145001556
10
#145001736
00
#145001772
11
#145001844
10
#145002024
00
#145002060
01
#145002132
10
#145002348
00
#145002456
10
#145002636
00
#145002672
11
#145002960
01
#145003104
10
#145003248
00
#145003284
11
#145003356
10
#145003392
b10100010 B
#145003536
00
#145003572
01
#145003644
10
#145003824
00
#145003860
11
#145003932
10
#145004148
00
01
#145004256
10
#145004436
00
#145004544
10
#145004724
00
#145004832
10
#145005048
00
#145005084
11
#145005156
10
#145005336
00
#145005372
01
#145005444
10
#145005624
00
#145005660
11
#145006056
01
#145006092
10
#145006236
00
#145006344
10
#145006380
b00000000 B
#145006524
00
