sniffer/arranque_y_frenado/3.vcd
$date
  febrero 2, 2012
$end
$version
  ChronoVu LA-8 Version 3,08 
$end
$comment
  File: /home/mat/Escritorio/Arranque quad/3.kdt
  from sample 0 to sample 8388607
$end
$timescale 10 ns $end
$scope module la8 $end
$var wire 1 0 SCL_(clock) $end
$var wire 1 1 SDA_(data) $end
$var wire 8 B I2C Bus $end
$upscope $end
$enddefinitions $end
$dumpvars
10
11
bxxxxxxxx B
$end
#0
10
11
bxxxxxxxx B
#24
bxxxxxxxx B
#61608
01
bxxxxxxxx B
#61704
00
#61776
11
#61800
10
#61824
b11010010 B
#62016
00
#62112
10
#62304
00
#62328
01
#62424
10
#62616
00
#62640
11
#62712
10
#62904
00
#62928
01
#63024
10
#63216
00
#63312
10
#63504
00
#63552
11
#63600
10
#63816
00
#63840
01
#63912
10
#64104
00
#64152
11
#64440
01
#64584
10
#64704
00
#64776
11
#64800
10
#64824
b10100010 B
#65016
00
#65040
01
#65112
10
#65304
00
#65352
11
#65400
10
#65616
00
#65640
01
#65712
10
#65904
00
#66024
10
#66216
00
#66312
10
#66504
00
#66552
11
#66600
10
#66816
00
#66840
01
#66912
10
#67104
00
#67152
11
#67512
01
#67560
10
#67704
00
#67824
10
#67848
b00000000 B
#68016
00
#68112
10
#68304
00
#68424
10
#68616
00
#68712
10
#68904
00
#69000
10
#69216
00
#69312
10
#69504
00
#69600
10
#69816
00
#69912
10
#70104
00
#70152
11
#70680
01
#70728
10
#70896
00
#71016
10
#71040
bxxxxxxxx B
#71208
11
#71400
01
bxxxxxxxx B
#71496
00
#71568
11
#71616
10
#71640
b11010100 B
#71808
00
#71904
10
#72096
00
#72144
01
#72216
10
#72408
00
#72432
11
#72504
10
#72696
00
#72744
01
#72816
10
#73008
00
#73032
11
#73104
10
#73296
00
#73344
01
#73416
10
#73608
00
#73704
10
#73896
00
#73944
11
#74232
01
#74376
10
#74496
00
#74568
11
#74592
10
#74616
b10100010 B
#74808
00
#74832
01
#74904
10
#75096
00
#75144
11
#75216
10
#75408
00
#75432
01
#75504
10
#75696
00
#75816
10
#76008
00
#76104
10
#76296
00
#76344
11
#76416
10
#76608
00
#76632
01
#76704
10
#76896
00
#76944
11
#77304
01
#77376
10
#77496
00
#77616
10
#77640
b00000000 B
#77808
00
#77904
10
#78096
00
#78216
10
#78408
00
#78504
10
#78696
00
#78816
10
#79008
00
#79104
10
#79296
00
#79416
10
#79608
00
#79704
10
#79896
00
#79944
11
#80472
01
#80520
10
#80712
00
#80808
10
#80832
bxxxxxxxx B
#81000
11
#81216
01
bxxxxxxxx B
#81312
00
#81384
11
#81408
10
#81432
b11010110 B
#81600
00
#81720
10
#81912
00
#81936
01
#82008
10
#82200
00
#82248
11
#82320
10
#82512
00
#82536
01
#82608
10
#82800
00
#82848
11
#82920
10
#83112
00
#83208
10
#83400
00
#83424
01
#83520
10
#83712
00
#83736
11
#84024
01
#84168
10
#84312
00
#84360
11
#84408
10
#84432
b10100010 B
#84600
00
#84624
01
#84720
10
#84912
00
#84936
11
#85008
10
#85200
00
#85224
01
#85320
10
#85512
00
#85608
10
#85800
00
#85920
10
#86112
00
#86136
11
#86208
10
#86400
00
#86424
01
#86520
10
#86712
00
#86736
11
#87120
01
#87168
10
#87312
00
#87408
10
#87432
b00000000 B
#87600
00
#87720
10
#87912
00
#88008
10
#88200
00
#88320
10
#88512
00
#88608
10
#88800
00
#88920
10
#89112
00
#89208
10
#89400
00
#89520
10
#89712
00
#89736
11
#90264
01
#90312
10
#90504
00
#90600
10
#90624
bxxxxxxxx B
#90816
11
#91008
01
bxxxxxxxx B
#91104
00
#91176
11
#91200
10
#91224
b11010000 B
#91416
00
#91512
10
#91704
00
#91728
01
#91800
10
#92016
00
#92040
11
#92112
10
#92304
00
#92328
01
#92400
10
#92616
00
#92712
10
#92904
00
#93000
10
#93216
00
#93312
10
#93504
00
#93528
11
#93840
01
#93984
10
#94104
00
#94152
11
#94200
10
#94224
b10100010 B
#94416
00
#94440
01
#94512
10
#94704
00
#94728
11
#94800
10
#95016
00
#95040
01
#95112
10
#95304
00
#95400
10
#95616
00
#95712
10
#95904
00
#95928
11
#96000
10
#96216
00
#96240
01
#96312
10
#96504
00
#96528
11
#96912
01
#96960
10
#97104
00
#97200
10
#97224
b00000000 B
#97416
00
#97512
10
#97704
00
#97800
10
#98016
00
#98112
10
#98304
00
#98400
10
#98616
00
#98712
10
#98904
00
#99000
10
#99216
00
#99312
10
#99504
00
#99528
11
#100056
01
#100128
10
#100296
00
#100416
10
#100440
bxxxxxxxx B
#100608
11
#127008
00
#127032
10
#194568
00
#194592
10
#266784
01
bxxxxxxxx B
#266880
00
#266952
11
#267000
10
#267024
b11010010 B
#267192
00
#267288
10
#267480
00
#267504
01
#267600
10
#267792
00
#267816
11
#267888
10
#268080
00
#268104
01
#268200
10
#268392
00
#268488
10
#268680
00
#268728
11
#268800
10
#268992
00
#269016
01
#269088
10
#269280
00
#269328
11
#269616
01
#269760
10
#269880
00
#269952
11
#270000
10
#270024
b10100010 B
#270192
00
#270216
01
#270288
10
#270480
00
#270528
11
#270576
10
#270792
00
#270816
01
#270888
10
#271080
00
#271200
10
#271392
00
#271488
10
#271680
00
#271728
11
#271776
10
#271992
00
#272016
01
#272088
10
#272280
00
#272328
11
#272712
01
#272760
10
#272880
00
#273000
10
#273024
b00000000 B
#273192
00
#273288
10
#273480
00
#273600
10
#273792
00
#273888
10
#274080
00
#274200
10
#274392
00
#274488
10
#274680
00
#274800
10
#274992
00
#275088
10
#275280
00
#275328
11
#275856
01
#275904
10
#276096
00
#276192
10
#276216
bxxxxxxxx B
#276384
11
#276576
01
bxxxxxxxx B
#276696
00
#276768
11
#276792
10
#276816
b11010100 B
#276984
00
#277080
10
#277296
00
#277320
01
#277392
10
#277584
00
#277608
11
#277680
10
#277896
00
#277920
01
#277992
10
#278184
00
#278208
11
#278280
10
#278496
00
#278520
01
#278592
10
#278784
00
#278880
10
#279096
00
#279120
11
#279408
01
#279552
10
#279696
00
#279744
11
#279792
10
#279816
b10100010 B
#279984
00
#280008
01
#280080
10
#280296
00
#280320
11
#280392
10
#280584
00
#280608
01
#280680
10
#280896
00
#280992
10
#281184
00
#281280
10
#281496
00
#281520
11
#281592
10
#281784
00
#281808
01
#281880
10
#282096
00
#282120
11
#282504
01
#282552
10
#282696
00
#282792
10
#282816
b00000000 B
#282984
00
#283080
10
#283296
00
#283392
10
#283584
00
#283680
10
#283896
00
#283992
10
#284184
00
#284280
10
#284496
00
#284592
10
#284784
00
#284880
10
#285096
00
#285120
11
#285648
01
#285696
10
#285888
00
#285984
10
#286008
bxxxxxxxx B
#286176
11
#286392
01
bxxxxxxxx B
#286488
00
#286560
11
#286584
10
#286608
b11010110 B
#286776
00
#286896
10
#287088
00
#287112
01
#287184
10
#287376
00
#287424
11
#287496
10
#287688
00
#287712
01
#287784
10
#287976
00
#288024
11
#288096
10
#288288
00
#288384
10
#288576
00
#288600
01
#288696
10
#288888
00
#288912
11
#289200
01
#289344
10
#289488
00
#289536
11
#289584
10
#289608
b10100010 B
#289776
00
#289800
01
#289896
10
#290088
00
#290112
11
#290184
10
#290376
00
#290400
01
#290496
10
#290688
00
#290784
10
#290976
00
#291096
10
#291288
00
#291312
11
#291384
10
#291576
00
#291600
01
#291696
10
#291888
00
#291912
11
#292296
01
#292344
10
#292488
00
#292584
10
#292608
b00000000 B
#292776
00
#292896
10
#293088
00
#293184
10
#293376
00
#293496
10
#293688
00
#293784
10
#293976
00
#294096
10
#294288
00
#294384
10
#294576
00
#294696
10
#294888
00
#294912
11
#295440
01
#295488
10
#295680
00
#295776
10
#295800
bxxxxxxxx B
#295992
11
#296184
01
bxxxxxxxx B
#296280
00
#296352
11
#296376
10
#296400
b11010000 B
#296592
00
#296688
10
#296880
00
#296904
01
#296976
10
#297192
00
#297216
11
#297288
10
#297480
00
#297504
01
#297576
10
#297792
00
#297888
10
#298080
00
#298176
10
#298392
00
#298488
10
#298680
00
#298704
11
#299016
01
#299160
10
#299280
00
#299328
11
#299400
10
#299424
b10100010 B
#299592
00
#299616
01
#299688
10
#299880
00
#299904
11
#299976
10
#300192
00
#300216
01
#300288
10
#300480
00
#300576
10
#300792
00
#300888
10
#301080
00
#301104
11
#301176
10
#301392
00
#301416
01
#301488
10
#301680
00
#301704
11
#302088
01
#302136
10
#302280
00
#302376
10
#302400
b00000000 B
#302592
00
#302688
10
#302880
00
#302976
10
#303192
00
#303288
10
#303480
00
#303576
10
#303792
00
#303888
10
#304080
00
#304176
10
#304392
00
#304488
10
#304680
00
#304704
11
#305256
01
#305304
10
#305472
00
#305592
10
#305616
bxxxxxxxx B
#305784
11
#459168
01
bxxxxxxxx B
#459264
00
#459336
11
#459360
10
#459384
b11010010 B
#459576
00
#459672
10
#459864
00
#459888
01
#459960
10
#460176
00
#460200
11
#460272
10
#460464
00
#460488
01
#460560
10
#460776
00
#460872
10
#461064
00
#461088
11
#461160
10
#461376
00
#461400
01
#461472
10
#461664
00
#461688
11
#462000
01
#462144
10
#462264
00
#462312
11
#462360
10
#462384
b10100010 B
#462576
00
#462600
01
#462672
10
#462864
00
#462888
11
#462960
10
#463176
00
#463200
01
#463272
10
#463464
00
#463560
10
#463776
00
#463872
10
#464064
00
#464088
11
#464160
10
#464376
00
#464400
01
#464472
10
#464664
00
#464688
11
#465072
01
#465120
10
#465264
00
#465360
10
#465384
b00000000 B
#465576
00
#465672
10
#465864
00
#465960
10
#466176
00
#466272
10
#466464
00
#466560
10
#466776
00
#466872
10
#467064
00
#467160
10
#467376
00
#467472
10
#467664
00
#467688
11
#468216
01
#468264
10
#468456
00
#468576
10
#468600
bxxxxxxxx B
#468768
11
#468960
01
bxxxxxxxx B
#469056
00
#469128
11
#469176
10
#469200
b11010100 B
#469368
00
#469464
10
#469656
00
#469680
01
#469776
10
#469968
00
#469992
11
#470064
10
#470256
00
#470280
01
#470376
10
#470568
00
#470592
11
#470664
10
#470856
00
#470880
01
#470976
10
#471168
00
#471264
10
#471456
00
#471504
11
#471792
01
#471936
10
#472056
00
#472128
11
#472176
10
#472200
b10100010 B
#472368
00
#472392
01
#472464
10
#472656
00
#472704
11
#472776
10
#472968
00
#472992
01
#473064
10
#473256
00
#473376
10
#473568
00
#473664
10
#473856
00
#473904
11
#473976
10
#474168
00
#474192
01
#474264
10
#474456
00
#474504
11
#474864
01
#474912
10
#475056
00
#475176
10
#475200
b00000000 B
#475368
00
#475464
10
#475656
00
#475776
10
#475968
00
#476064
10
#476256
00
#476376
10
#476568
00
#476664
10
#476856
00
#476976
10
#477168
00
#477264
10
#477456
00
#477504
11
#478032
01
#478080
10
#478272
00
#478368
10
#478392
bxxxxxxxx B
#478560
11
#478752
01
bxxxxxxxx B
#478872
00
#478944
11
#478968
10
#478992
b11010110 B
#479160
00
#479256
10
#479472
00
#479496
01
#479568
10
#479760
00
#479784
11
#479856
10
#480072
00
#480096
01
#480168
10
#480360
00
#480384
11
#480456
10
#480672
00
#480768
10
#480960
00
#480984
01
#481056
10
#481272
00
#481296
11
#481584
01
#481728
10
#481872
00
#481920
11
#481968
10
#481992
b10100010 B
#482160
00
#482184
01
#482256
10
#482472
00
#482496
11
#482568
10
#482760
00
#482784
01
#482856
10
#483072
00
#483168
10
#483360
00
#483456
10
#483672
00
#483696
11
#483768
10
#483960
00
#483984
01
#484056
10
#484272
00
#484296
11
#484680
01
#484728
10
#484872
00
#484968
10
#484992
b00000000 B
#485160
00
#485256
10
#485472
00
#485568
10
#485760
00
#485856
10
#486072
00
#486168
10
#486360
00
#486456
10
#486672
00
#486768
10
#486960
00
#487056
10
#487272
00
#487296
11
#487824
01
#487872
10
#488064
00
#488160
10
#488184
bxxxxxxxx B
#488376
11
#488568
01
bxxxxxxxx B
#488664
00
#488736
11
#488760
10
#488784
b11010000 B
#488952
00
#489072
10
#489264
00
#489288
01
#489360
10
#489552
00
#489600
11
#489672
10
#489864
00
#489888
01
#489960
10
#490152
00
#490272
10
#490464
00
#490560
10
#490752
00
#490872
10
#491064
00
#491088
11
#491376
01
#491544
10
#491664
00
#491712
11
#491760
10
#491784
b10100010 B
#491952
00
#492000
01
#492072
10
#492264
00
#492288
11
#492360
10
#492552
00
#492600
01
#492672
10
#492864
00
#492960
10
#493152
00
#493272
10
#493464
00
#493488
11
#493560
10
#493752
00
#493800
01
#493872
10
#494064
00
#494088
11
#494472
01
#494520
10
#494664
00
#494760
10
#494784
b00000000 B
#494952
00
#495072
10
#495264
00
#495360
10
#495552
00
#495672
10
#495864
00
#495960
10
#496152
00
#496272
10
#496464
00
#496560
10
#496752
00
#496872
10
#497064
00
#497088
11
#497616
01
#497664
10
#497856
00
#497976
10
#498000
bxxxxxxxx B
#498168
11
#659136
01
bxxxxxxxx B
#659232
00
#659304
11
#659352
10
#659376
b11010010 B
#659544
00
#659640
10
#659832
00
#659880
01
#659952
10
#660144
00
#660168
11
#660240
10
#660432
00
#660480
01
#660552
10
#660744
00
#660840
10
#661032
00
#661080
11
#661152
10
#661344
00
#661368
01
#661440
10
#661632
00
#661680
11
#661968
01
#662112
10
#662232
00
#662304
11
#662352
10
#662376
b10100010 B
#662544
00
#662568
01
#662640
10
#662832
00
#662880
11
#662952
10
#663144
00
#663168
01
#663240
10
#663432
00
#663552
10
#663744
00
#663840
10
#664032
00
#664080
11
#664152
10
#664344
00
#664368
01
#664440
10
#664632
00
#664680
11
#665064
01
#665112
10
#665232
00
#665352
10
#665376
b00000000 B
#665544
00
#665640
10
#665832
00
#665952
10
#666144
00
#666240
10
#666432
00
#666552
10
#666744
00
#666840
10
#667032
00
#667152
10
#667344
00
#667440
10
#667632
00
#667680
11
#668208
01
#668256
10
#668448
00
#668544
10
#668568
bxxxxxxxx B
#668736
11
#668952
01
bxxxxxxxx B
#669048
00
#669120
11
#669144
10
#669168
b11010100 B
#669336
00
#669456
10
#669648
00
#669672
01
#669744
10
#669936
00
#669984
11
#670056
10
#670248
00
#670272
01
#670344
10
#670536
00
#670584
11
#670656
10
#670848
00
#670872
01
#670944
10
#671136
00
#671256
10
#671448
00
#671472
11
#671760
01
#671904
10
#672048
00
#672096
11
#672144
10
#672168
b10100010 B
#672336
00
#672360
01
#672456
10
#672648
00
#672672
11
#672744
10
#672936
00
#672960
01
#673056
10
#673248
00
#673344
10
#673536
00
#673656
10
#673848
00
#673872
11
#673944
10
#674136
00
#674160
01
#674256
10
#674448
00
#674472
11
#674856
01
#674904
10
#675048
00
#675144
10
#675168
b00000000 B
#675336
00
#675456
10
#675648
00
#675744
10
#675936
00
#676056
10
#676248
00
#676344
10
#676536
00
#676656
10
#676848
00
#676944
10
#677136
00
#677256
10
#677448
00
#677472
11
#678000
01
#678048
10
#678240
00
#678336
10
#678360
bxxxxxxxx B
#678552
11
#678744
01
bxxxxxxxx B
#678840
00
#678912
11
#678936
10
#678960
b11010110 B
#679152
00
#679248
10
#679440
00
#679464
01
#679536
10
#679752
00
#679776
11
#679848
10
#680040
00
#680064
01
#680136
10
#680352
00
#680376
11
#680448
10
#680640
00
#680736
10
#680952
00
#680976
01
#681048
10
#681240
00
#681264
11
#681552
01
#681720
10
#681840
00
#681888
11
#681936
10
#681960
b10100010 B
#682152
00
#682176
01
#682248
10
#682440
00
#682464
11
#682536
10
#682752
00
#682776
01
#682848
10
#683040
00
#683136
10
#683352
00
#683448
10
#683640
00
#683664
11
#683736
10
#683952
00
#683976
01
#684048
10
#684240
00
#684264
11
#684648
01
#684696
10
#684840
00
#684936
10
#684960
b00000000 B
#685152
00
#685248
10
#685440
00
#685536
10
#685752
00
#685848
10
#686040
00
#686136
10
#686352
00
#686448
10
#686640
00
#686736
10
#686952
00
#687048
10
#687240
00
#687264
11
#687792
01
#687840
10
#688032
00
#688152
10
#688176
bxxxxxxxx B
#688344
11
#688536
01
bxxxxxxxx B
#688632
00
#688704
11
#688752
10
#688776
b11010000 B
#688944
00
#689040
10
#689232
00
#689256
01
#689352
10
#689544
00
#689568
11
#689640
10
#689832
00
#689856
01
#689952
10
#690144
00
#690240
10
#690432
00
#690552
10
#690744
00
#690840
10
#691032
00
#691080
11
#691368
01
#691512
10
#691632
00
#691704
11
#691752
10
#691776
b10100010 B
#691944
00
#691968
01
#692040
10
#692232
00
#692280
11
#692352
10
#692544
00
#692568
01
#692640
10
#692832
00
#692952
10
#693144
00
#693240
10
#693432
00
#693480
11
#693552
10
#693744
00
#693768
01
#693840
10
#694032
00
#694080
11
#694464
01
#694512
10
#694632
00
#694752
10
#694776
b00000000 B
#694944
00
#695040
10
#695232
00
#695352
10
#695544
00
#695640
10
#695832
00
#695952
10
#696144
00
#696240
10
#696432
00
#696552
10
#696744
00
#696840
10
#697032
00
#697080
11
#697608
01
#697656
10
#697848
00
#697944
10
#697968
bxxxxxxxx B
#698136
11
#861624
01
bxxxxxxxx B
#861720
00
#861792
11
#861816
10
#861840
b11010010 B
#862032
00
#862128
10
#862320
00
#862344
01
#862416
10
#862632
00
#862656
11
#862728
10
#862920
00
#862944
01
#863016
10
#863232
00
#863328
10
#863520
00
#863544
11
#863616
10
#863832
00
#863856
01
#863928
10
#864120
00
#864144
11
#864456
01
#864600
10
#864720
00
#864768
11
#864816
10
#864840
b10100010 B
#865032
00
#865056
01
#865128
10
#865320
00
#865344
11
#865416
10
#865632
00
#865656
01
#865728
10
#865920
00
#866016
10
#866232
00
#866328
10
#866520
00
#866544
11
#866616
10
#866832
00
#866856
01
#866928
10
#867120
00
#867144
11
#867528
01
#867576
10
#867720
00
#867816
10
#867840
b00000000 B
#868032
00
#868128
10
#868320
00
#868416
10
#868632
00
#868728
10
#868920
00
#869016
10
#869232
00
#869328
10
#869520
00
#869616
10
#869832
00
#869928
10
#870120
00
#870144
11
#870672
01
#870720
10
#870912
00
#871032
10
#871056
bxxxxxxxx B
#871224
11
#871416
01
bxxxxxxxx B
#871512
00
#871608
11
#871632
10
#871656
b11010100 B
#871824
00
#871920
10
#872112
00
#872136
01
#872232
10
#872424
00
#872448
11
#872520
10
#872712
00
#872736
01
#872832
10
#873024
00
#873048
11
#873120
10
#873312
00
#873336
01
#873432
10
#873624
00
#873720
10
#873912
00
#873960
11
#874248
01
#874392
10
#874512
00
#874584
11
#874632
10
#874656
b10100010 B
#874824
00
#874848
01
#874920
10
#875112
00
#875160
11
#875232
10
#875424
00
#875448
01
#875520
10
#875712
00
#875832
10
#876024
00
#876120
10
#876312
00
#876360
11
#876432
10
#876624
00
#876648
01
#876720
10
#876912
00
#876960
11
#877320
01
#877368
10
#877512
00
#877632
10
#877656
b00000000 B
#877824
00
#877920
10
#878112
00
#878232
10
#878424
00
#878520
10
#878712
00
#878832
10
#879024
00
#879120
10
#879312
00
#879432
10
#879624
00
#879720
10
#879912
00
#879960
11
#880464
01
#880512
10
#880728
00
#880776
11
#880944
01
#881016
10
#881040
bxxxxxxxx B
#881232
11
#881424
01
bxxxxxxxx B
#881520
00
#881592
11
#881616
10
#881640
b11010110 B
#881808
00
#881928
10
#882120
00
#882144
01
#882216
10
#882408
00
#882456
11
#882528
10
#882720
00
#882744
01
#882816
10
#883008
00
#883056
11
#883128
10
#883320
00
#883416
10
#883608
00
#883656
01
#883728
10
#883920
00
#883944
11
#884232
01
#884400
10
#884520
00
#884568
11
#884616
10
#884640
b10100010 B
#884808
00
#884856
01
#884928
10
#885120
00
#885144
11
#885216
10
#885408
00
#885456
01
#885528
10
#885720
00
#885816
10
#886008
00
#886128
10
#886320
00
#886344
11
#886416
10
#886608
00
#886656
01
#886728
10
#886920
00
#886944
11
#887328
01
#887376
10
#887520
00
#887616
10
#887640
b00000000 B
#887808
00
#887928
10
#888120
00
#888216
10
#888408
00
#888528
10
#888720
00
#888816
10
#889008
00
#889128
10
#889320
00
#889416
10
#889608
00
#889728
10
#889920
00
#889944
11
#890472
01
#890520
10
#890712
00
#890832
10
#890856
bxxxxxxxx B
#891024
11
#891216
01
bxxxxxxxx B
#891312
00
#891384
11
#891432
10
#891456
b11010000 B
#891624
00
#891720
10
#891912
00
#891936
01
#892032
10
#892224
00
#892248
11
#892320
10
#892512
00
#892536
01
#892632
10
#892824
00
#892920
10
#893112
00
#893232
10
#893424
00
#893520
10
#893712
00
#893760
11
#894048
01
#894192
10
#894312
00
#894384
11
#894408
10
#894432
b10100010 B
#894624
00
#894648
01
#894720
10
#894912
00
#894960
11
#895008
10
#895224
00
#895248
01
#895320
10
#895512
00
#895632
10
#895824
00
#895920
10
#896112
00
#896160
11
#896208
10
#896424
00
#896448
01
#896520
10
#896712
00
#896760
11
#897120
01
#897168
10
#897312
00
#897432
10
#897456
b00000000 B
#897624
00
#897720
10
#897912
00
#898032
10
#898224
00
#898320
10
#898512
00
#898632
10
#898824
00
#898920
10
#899112
00
#899232
10
#899424
00
#899520
10
#899712
00
#899760
11
#900288
01
#900336
10
#900528
00
#900624
10
#900648
bxxxxxxxx B
#900816
11
#1048296
00
#1048320
10
#1058808
01
bxxxxxxxx B
#1058904
00
#1058976
11
#1059000
10
#1059024
b11010010 B
#1059192
00
#1059312
10
#1059504
00
#1059528
01
#1059600
10
#1059792
00
#1059840
11
#1059912
10
#1060104
00
#1060128
01
#1060200
10
#1060392
00
#1060512
10
#1060704
00
#1060728
11
#1060800
10
#1060992
00
#1061016
01
#1061112
10
#1061304
00
#1061328
11
#1061616
01
#1061760
10
#1061904
00
#1061952
11
#1062000
10
#1062024
b10100010 B
#1062192
00
#1062216
01
#1062312
10
#1062504
00
#1062528
11
#1062600
10
#1062792
00
#1062816
01
#1062912
10
#1063104
00
#1063200
10
#1063392
00
#1063512
10
#1063704
00
#1063728
11
#1063800
10
#1063992
00
#1064016
01
#1064112
10
#1064304
00
#1064328
11
#1064712
01
#1064760
10
#1064904
00
#1065000
10
#1065024
b00000000 B
#1065192
00
#1065312
10
#1065504
00
#1065600
10
#1065792
00
#1065912
10
#1066104
00
#1066200
10
#1066392
00
#1066512
10
#1066704
00
#1066800
10
#1066992
00
#1067112
10
#1067304
00
#1067328
11
#1067856
01
#1067904
10
#1068096
00
#1068192
10
#1068216
bxxxxxxxx B
#1068408
11
#1068600
01
bxxxxxxxx B
#1068696
00
#1068768
11
#1068792
10
#1068816
b11010100 B
#1069008
00
#1069104
10
#1069296
00
#1069320
01
#1069392
10
#1069608
00
#1069632
11
#1069704
10
#1069896
00
#1069920
01
#1069992
10
#1070208
00
#1070232
11
#1070304
10
#1070496
00
#1070520
01
#1070592
10
#1070808
00
#1070904
10
#1071096
00
#1071120
11
#1071432
01
#1071576
10
#1071696
00
#1071744
11
#1071792
10
#1071816
b10100010 B
#1072008
00
#1072032
01
#1072104
10
#1072296
00
#1072320
11
#1072392
10
#1072608
00
#1072632
01
#1072704
10
#1072896
00
#1072992
10
#1073208
00
#1073304
10
#1073496
00
#1073520
11
#1073592
10
#1073808
00
#1073832
01
#1073904
10
#1074096
00
#1074120
11
#1074504
01
#1074552
10
#1074696
00
#1074792
10
#1074816
b00000000 B
#1075008
00
#1075104
10
#1075296
00
#1075392
10
#1075608
00
#1075704
10
#1075896
00
#1075992
10
#1076208
00
#1076304
10
#1076496
00
#1076592
10
#1076808
00
#1076904
10
#1077096
00
#1077120
11
#1077648
01
#1077696
10
#1077888
00
#1078008
10
#1078032
bxxxxxxxx B
#1078200
11
#1078392
01
bxxxxxxxx B
#1078488
00
#1078560
11
#1078608
10
#1078632
b11010110 B
#1078800
00
#1078896
10
#1079088
00
#1079136
01
#1079208
10
#1079400
00
#1079424
11
#1079496
10
#1079688
00
#1079736
01
#1079808
10
#1080000
00
#1080024
11
#1080096
10
#1080288
00
#1080408
10
#1080600
00
#1080624
01
#1080696
10
#1080888
00
#1080936
11
#1081224
01
#1081368
10
#1081392
00
#1081416
10
#1081440
b01010001 B
#1081488
00
#1081560
11
#1081608
10
#1081800
00
#1081824
01
#1081896
10
#1082088
00
#1082136
11
#1082208
10
#1082400
00
#1082424
01
#1082496
10
#1082688
00
#1082808
10
#1083000
00
#1083096
10
#1083288
00
#1083336
11
#1083408
10
#1083600
00
#1083624
01
#1083696
10
#1083888
00
#1083936
11
#1084320
01
#1084368
10
#1084392
b00000000 B
#1084488
00
#1084608
10
#1084800
00
#1084896
10
#1085088
00
#1085208
10
#1085400
00
#1085496
10
#1085688
00
#1085808
10
#1086000
00
#1086096
10
#1086288
00
#1086408
10
#1086600
00
#1086696
10
#1086888
00
#1086936
11
#1087464
01
#1087512
10
#1087536
bxxxxxxxx B
#1087704
00
#1087800
10
#1087992
11
#1088208
01
bxxxxxxxx B
#1088304
00
#1088376
11
#1088400
10
#1088424
b11010000 B
#1088592
00
#1088688
10
#1088904
00
#1088928
01
#1089000
10
#1089192
00
#1089240
11
#1089288
10
#1089504
00
#1089528
01
#1089600
10
#1089792
00
#1089912
10
#1090104
00
#1090200
10
#1090392
00
#1090512
10
#1090704
00
#1090728
11
#1091016
01
#1091160
10
#1091304
00
#1091352
11
#1091400
10
#1091424
b10100010 B
#1091592
00
#1091616
01
#1091712
10
#1091904
00
#1091928
11
#1092000
10
#1092192
00
#1092216
01
#1092312
10
#1092504
00
#1092600
10
#1092792
00
#1092912
10
#1093104
00
#1093128
11
#1093200
10
#1093392
00
#1093416
01
#1093488
10
#1093704
00
#1093728
11
#1094112
01
#1094160
10
#1094304
00
#1094400
10
#1094424
b00000000 B
#1094592
00
#1094688
10
#1094904
00
#1095000
10
#1095192
00
#1095288
10
#1095504
00
#1095600
10
#1095792
00
#1095888
10
#1096104
00
#1096200
10
#1096392
00
#1096488
10
#1096704
00
#1096728
11
#1097256
01
#1097304
10
#1097496
00
#1097592
10
#1097616
bxxxxxxxx B
#1097808
11
#1113120
00
#1113144
10
#1197240
00
#1197264
10
#1261872
01
bxxxxxxxx B
#1261968
00
#1262040
11
#1262088
10
#1262112
b11010010 B
#1262280
00
#1262376
10
#1262568
00
#1262616
01
#1262688
10
#1262880
00
#1262904
11
#1262976
10
#1263168
00
#1263216
01
#1263288
10
#1263480
00
#1263576
10
#1263768
00
#1263816
11
#1263888
10
#1264080
00
#1264104
01
#1264176
10
#1264368
00
#1264416
11
#1264704
01
#1264848
10
#1264968
00
#1265040
11
#1265088
10
#1265112
b10100010 B
#1265280
00
#1265304
01
#1265376
10
#1265568
00
#1265616
11
#1265688
10
#1265880
00
#1265904
01
#1265976
10
#1266168
00
#1266288
10
#1266480
00
#1266576
10
#1266768
00
#1266816
11
#1266888
10
#1267080
00
#1267104
01
#1267176
10
#1267368
00
#1267416
11
#1267800
01
#1267848
10
#1267968
00
#1268088
10
#1268112
b00000000 B
#1268280
00
#1268376
10
#1268568
00
#1268688
10
#1268880
00
#1268976
10
#1269168
00
#1269288
10
#1269480
00
#1269576
10
#1269768
00
#1269888
10
#1270080
00
#1270176
10
#1270368
00
#1270416
11
#1270944
01
#1270992
10
#1271184
00
#1271280
10
#1271304
bxxxxxxxx B
#1271472
11
#1271688
01
bxxxxxxxx B
#1271784
00
#1271856
11
#1271880
10
#1271904
b11010100 B
#1272072
00
#1272168
10
#1272384
00
#1272408
01
#1272480
10
#1272672
00
#1272720
11
#1272768
10
#1272984
00
#1273008
01
#1273080
10
#1273272
00
#1273320
11
#1273368
10
#1273584
00
#1273608
01
#1273680
10
#1273872
00
#1273992
10
#1274184
00
#1274208
11
#1274496
01
#1274640
10
#1274784
00
#1274832
11
#1274880
10
#1274904
b10100010 B
#1275072
00
#1275096
01
#1275192
10
#1275384
00
#1275408
11
#1275480
10
#1275672
00
#1275696
01
#1275792
10
#1275984
00
#1276080
10
#1276272
00
#1276368
10
#1276584
00
#1276608
11
#1276680
10
#1276872
00
#1276896
01
#1276992
10
#1277184
00
#1277208
11
#1277592
01
#1277640
10
#1277784
00
#1277880
10
#1277904
b00000000 B
#1278072
00
#1278168
10
#1278384
00
#1278480
10
#1278672
00
#1278768
10
#1278984
00
#1279080
10
#1279272
00
#1279368
10
#1279584
00
#1279680
10
#1279872
00
#1279968
10
#1280184
00
#1280208
11
#1280736
01
#1280784
10
#1280976
00
#1281024
11
#1281144
01
#1281288
10
#1281312
bxxxxxxxx B
#1281480
11
#1281672
01
bxxxxxxxx B
#1281768
00
#1281840
11
#1281888
10
#1281912
b11010110 B
#1282080
00
#1282176
10
#1282368
00
#1282392
01
#1282488
10
#1282680
00
#1282704
11
#1282776
10
#1282968
00
#1282992
01
#1283088
10
#1283280
00
#1283304
11
#1283376
10
#1283568
00
#1283688
10
#1283880
00
#1283904
01
#1283976
10
#1284168
00
#1284216
11
#1284504
01
#1284648
10
#1284768
00
#1284840
11
#1284888
10
#1284912
b10100010 B
#1285080
00
#1285104
01
#1285176
10
#1285368
00
#1285416
11
#1285488
10
#1285680
00
#1285704
01
#1285776
10
#1285968
00
#1286088
10
#1286280
00
#1286376
10
#1286568
00
#1286616
11
#1286688
10
#1286880
00
#1286904
01
#1286976
10
#1287168
00
#1287216
11
#1287576
01
#1287624
10
#1287768
00
#1287888
10
#1287912
b00000000 B
#1288080
00
#1288176
10
#1288368
00
#1288488
10
#1288680
00
#1288776
10
#1288968
00
#1289088
10
#1289280
00
#1289376
10
#1289568
00
#1289688
10
#1289880
00
#1289976
10
#1290168
00
#1290216
11
#1290720
01
#1290792
10
#1290984
00
#1291080
10
#1291104
bxxxxxxxx B
#1291272
11
#1291464
01
bxxxxxxxx B
#1291584
00
#1291656
11
#1291680
10
#1291704
b11010000 B
#1291872
00
#1291968
10
#1292184
00
#1292208
01
#1292280
10
#1292472
00
#1292496
11
#1292568
10
#1292784
00
#1292808
01
#1292880
10
#1293072
00
#1293168
10
#1293384
00
#1293480
10
#1293672
00
#1293768
10
#1293984
00
#1294008
11
#1294296
01
#1294440
10
#1294584
00
#1294632
11
#1294680
10
#1294704
b10100010 B
