sniffer/arranque_y_frenado/5.vcd
$date
  febrero 2, 2012
$end
$version
  ChronoVu LA-8 Version 3,08 
$end
$comment
  File: /home/mat/Escritorio/Arranque quad/5.kdt
  from sample 0 to sample 8388607
$end
$timescale 10 ns $end
$scope module la8 $end
$var wire 1 0 SCL_(clock) $end
$var wire 1 1 SDA_(data) $end
$var wire 8 B I2C Bus $end
$upscope $end
$enddefinitions $end
$dumpvars
10
11
bxxxxxxxx B
$end
#0
10
11
bxxxxxxxx B
#24
b10000000 B
#72
00
#96
01
#168
10
#384
00
#408
11
#792
01
#840
10
#984
00
#1080
10
#1272
00
#1368
10
#1584
00
#1680
10
#1872
00
#1968
10
#2184
00
#2280
10
#2472
00
#2568
10
#2784
00
#2880
10
#2904
bxxxxxxxx B
#3072
00
#3168
10
#3384
00
#3408
11
#3936
01
#3984
10
#4176
00
#4272
10
#4464
11
#4680
01
bxxxxxxxx B
#4776
00
#4848
11
#4872
10
#4896
b11010100 B
#5064
00
#5184
10
#5376
00
#5400
01
#5472
10
#5664
00
#5712
11
#5784
10
#5976
00
#6000
01
#6072
10
#6264
00
#6312
11
#6384
10
#6576
00
#6600
01
#6672
10
#6864
00
#6984
10
#7176
00
#7200
11
#7488
01
#7632
10
#7776
00
#7824
11
#7872
10
#7896
b10100010 B
#8064
00
#8088
01
#8184
10
#8376
00
#8400
11
#8472
10
#8664
00
#8688
01
#8784
10
#8976
00
#9072
10
#9264
00
#9384
10
#9576
00
#9600
11
#9672
10
#9864
00
#9888
01
#9984
10
#10176
00
#10200
11
#10584
01
#10632
10
#10776
00
#10872
10
#10896
b00000000 B
#11064
00
#11184
10
#11376
00
#11472
10
#11664
00
#11784
10
#11976
00
#12072
10
#12264
00
#12384
10
#12576
00
#12672
10
#12864
00
#12984
10
#13176
00
#13200
11
#13728
01
#13776
10
#13968
00
#14064
10
#14088
bxxxxxxxx B
#14280
11
#14472
01
bxxxxxxxx B
#14568
00
#14640
11
#14664
10
#14688
b11010110 B
#14880
00
#14976
10
#15168
00
#15192
01
#15264
10
#15480
00
#15504
11
#15576
10
#15768
00
#15792
01
#15864
10
#16080
00
#16104
11
#16176
10
#16368
00
#16464
10
#16680
00
#16704
01
#16776
10
#16968
00
#16992
11
#17304
01
#17448
10
#17568
00
#17616
11
#17664
10
#17688
b10100010 B
#17880
00
#17904
01
#17976
10
#18168
00
#18192
11
#18264
10
#18480
00
#18504
01
#18576
10
#18768
00
#18864
10
#19080
00
#19176
10
#19368
00
#19392
11
#19464
10
#19680
00
#19704
01
#19776
10
#19968
00
#19992
11
#20376
01
#20424
10
#20568
00
#20664
10
#20688
b00000000 B
#20880
00
#20976
10
#21168
00
#21264
10
#21480
00
#21576
10
#21768
00
#21864
10
#22080
00
#22176
10
#22368
00
#22464
10
#22680
00
#22776
10
#22968
00
#22992
11
#23520
01
#23568
10
#23760
00
#23880
10
#23904
bxxxxxxxx B
#24072
11
#24264
01
bxxxxxxxx B
#24360
00
#24456
11
#24480
10
#24504
b11010000 B
#24672
00
#24768
10
#24960
00
#25008
01
#25080
10
#25272
00
#25296
11
#25368
10
#25560
00
#25608
01
#25680
10
#25872
00
#25968
10
#26160
00
#26280
10
#26472
00
#26568
10
#26760
00
#26808
11
#27096
01
#27240
10
#27360
00
#27432
11
#27480
10
#27504
b10100010 B
#27672
00
#27696
01
#27768
10
#27960
00
#28008
11
#28080
10
#28272
00
#28296
01
#28368
10
#28560
00
#28680
10
#28872
00
#28968
10
#29160
00
#29208
11
#29280
10
#29472
00
#29496
01
#29568
10
#29760
00
#29808
11
#30168
01
#30240
10
#30360
00
#30480
10
#30504
b00000000 B
#30672
00
#30768
10
#30960
00
#31080
10
#31272
00
#31368
10
#31560
00
#31680
10
#31872
00
#31968
10
#32160
00
#32280
10
#32472
00
#32568
10
#32760
00
#32808
11
#33336
01
#33384
10
#33576
00
#33672
10
#33696
bxxxxxxxx B
#33864
11
#199056
01
bxxxxxxxx B
#199152
00
#199224
11
#199248
10
#199272
b11010010 B
#199440
00
#199560
10
#199752
00
#199776
01
#199848
10
#200040
00
#200088
11
#200160
10
#200352
00
#200376
01
#200448
10
#200640
00
#200760
10
#200952
00
#200976
11
#201048
10
#201240
00
#201288
01
#201360
10
#201552
00
#201576
11
#201864
01
#202032
10
#202152
00
#202200
11
#202248
10
#202272
b10100010 B
#202440
00
#202488
01
#202560
10
#202752
00
#202776
11
#202848
10
#203040
00
#203088
01
#203160
10
#203352
00
#203448
10
#203640
00
#203760
10
#203952
00
#203976
11
#204048
10
#204240
00
#204288
01
#204360
10
#204552
00
#204576
11
#204960
01
#205008
10
#205152
00
#205248
10
#205272
b00000000 B
#205440
00
#205560
10
#205752
00
#205848
10
#206040
00
#206160
10
#206352
00
#206448
10
#206640
00
#206760
10
#206952
00
#207048
10
#207240
00
#207360
10
#207552
00
#207576
11
#208104
01
#208152
10
#208344
00
#208464
10
#208488
bxxxxxxxx B
#208656
11
#208848
01
bxxxxxxxx B
#208944
00
#209016
11
#209064
10
#209088
b11010100 B
#209256
00
#209352
10
#209544
00
#209568
01
#209664
10
#209856
00
#209880
11
#209952
10
#210144
00
#210168
01
#210264
10
#210456
00
#210480
11
#210552
10
#210744
00
#210768
01
#210864
10
#211056
00
#211152
10
#211344
00
#211392
11
#211680
01
#211824
10
#211944
00
#212016
11
#212064
10
#212088
b10100010 B
#212256
00
#212280
01
#212352
10
#212544
00
#212592
11
#212664
10
#212856
00
#212880
01
#212952
10
#213144
00
#213264
10
#213456
00
#213552
10
#213744
00
#213792
11
#213864
10
#214056
00
#214080
01
#214152
10
#214344
00
#214392
11
#214752
01
#214800
10
#214944
00
#215064
10
#215088
b00000000 B
#215256
00
#215352
10
#215544
00
#215664
10
#215856
00
#215952
10
#216144
00
#216264
10
#216456
00
#216552
10
#216744
00
#216864
10
#217056
00
#217152
10
#217344
00
#217392
11
#217920
01
#217968
10
#218160
00
#218256
10
#218280
bxxxxxxxx B
#218448
11
#218640
01
bxxxxxxxx B
#218760
00
#218808
11
#218856
10
#218880
b11010110 B
#219048
00
#219144
10
#219360
00
#219384
01
#219456
10
#219648
00
#219672
11
#219744
10
#219960
00
#219984
01
#220056
10
#220248
00
#220272
11
#220344
10
#220560
00
#220656
10
#220848
00
#220872
01
#220944
10
#221160
00
#221184
11
#221472
01
#221616
10
#221760
00
#221808
11
#221856
10
#221880
b10100010 B
#222048
00
#222072
01
#222144
10
#222360
00
#222384
11
#222456
10
#222648
00
#222672
01
#222744
10
#222960
00
#223056
10
#223248
00
#223344
10
#223560
00
#223584
11
#223656
10
#223848
00
#223872
01
#223944
10
#224160
00
#224184
11
#224568
01
#224616
10
#224760
00
#224856
10
#224880
b00000000 B
#225048
00
#225144
10
#225360
00
#225456
10
#225648
00
#225744
10
#225960
00
#226056
10
#226248
00
#226344
10
#226560
00
#226656
10
#226848
00
#226944
10
#227160
00
#227184
11
#227712
01
#227760
10
#227952
00
#228048
10
#228072
bxxxxxxxx B
#228240
11
#228456
01
bxxxxxxxx B
#228552
00
#228624
11
#228648
10
#228672
b11010000 B
#228840
00
#228960
10
#229152
00
#229176
01
#229248
10
#229440
00
#229488
11
#229560
10
#229752
00
#229776
01
#229848
10
#230040
00
#230160
10
#230352
00
#230448
10
#230640
00
#230760
10
#230952
00
#230976
11
#231264
01
#231432
10
#231552
00
#231600
11
#231648
10
#231672
b10100010 B
#231840
00
#231864
01
#231960
10
#232152
00
#232176
11
#232248
10
#232440
00
#232464
01
#232560
10
#232752
00
#232848
10
#233040
00
#233160
10
#233352
00
#233376
11
#233448
10
#233640
00
#233664
01
#233760
10
#233952
00
#233976
11
#234360
01
#234408
10
#234552
00
#234648
10
#234672
b00000000 B
#234840
00
#234960
10
#235152
00
#235248
10
#235440
00
#235560
10
#235752
00
#235848
10
#236040
00
#236160
10
#236352
00
#236448
10
#236640
00
#236760
10
#236952
00
#236976
11
#237504
01
#237552
10
#237744
00
#237864
10
#237888
bxxxxxxxx B
#238056
11
#395424
01
bxxxxxxxx B
#395520
00
#395592
11
#395640
10
#395664
b11010010 B
#395832
00
#395928
10
#396120
00
#396168
01
#396240
10
#396432
00
#396456
11
#396528
10
#396720
00
#396768
01
#396840
10
#397032
00
#397128
10
#397320
00
#397368
11
#397440
10
#397632
00
#397656
01
#397728
10
#397920
00
#397968
11
#398256
01
#398400
10
#398520
00
#398592
11
#398640
10
#398664
b10100010 B
#398832
00
#398856
01
#398928
10
#399120
00
#399168
11
#399240
10
#399432
00
#399456
01
#399528
10
#399720
00
#399840
10
#400032
00
#400128
10
#400320
00
#400368
11
#400440
10
#400632
00
#400656
01
#400728
10
#400920
00
#400968
11
#401352
01
#401400
10
#401520
00
#401640
10
#401664
b00000000 B
#401832
00
#401928
10
#402120
00
#402240
10
#402432
00
#402528
10
#402720
00
#402840
10
#403032
00
#403128
10
#403320
00
#403440
10
#403632
00
#403728
10
#403920
00
#403968
11
#404496
01
#404544
10
#404736
00
#404832
10
#404856
bxxxxxxxx B
#405024
11
#405240
01
bxxxxxxxx B
#405336
00
#405408
11
#405432
10
#405456
b11010100 B
#405624
00
#405720
10
#405936
00
#405960
01
#406032
10
#406224
00
#406272
11
#406320
10
#406536
00
#406560
01
#406632
10
#406824
00
#406872
11
#406920
10
#407136
00
#407160
01
#407232
10
#407424
00
#407544
10
#407736
00
#407760
11
#408048
01
#408192
10
#408336
00
#408384
11
#408432
10
#408456
b10100010 B
#408624
00
#408648
01
#408744
10
#408936
00
#408960
11
#409032
10
#409224
00
#409248
01
#409344
10
#409536
00
#409632
10
#409824
00
#409944
10
#410136
00
#410160
11
#410232
10
#410424
00
#410448
01
#410544
10
#410736
00
#410760
11
#411144
01
#411192
10
#411336
00
#411432
10
#411456
b00000000 B
#411624
00
#411744
10
#411936
00
#412032
10
#412224
00
#412344
10
#412536
00
#412632
10
#412824
00
#412944
10
#413136
00
#413232
10
#413424
00
#413544
10
#413736
00
#413760
11
#414288
01
#414336
10
#414528
00
#414624
10
#414648
bxxxxxxxx B
#414840
11
#415032
01
bxxxxxxxx B
#415128
00
#415200
11
#415224
10
#415248
b11010110 B
#415440
00
#415536
10
#415728
00
#415752
01
#415824
10
#416040
00
#416064
11
#416136
10
#416328
00
#416352
01
#416424
10
#416640
00
#416664
11
#416736
10
#416928
00
#417024
10
#417240
00
#417264
01
#417336
10
#417528
00
#417552
11
#417864
01
#418008
10
#418128
00
#418176
11
#418224
10
#418248
b10100010 B
#418440
00
#418464
01
#418536
10
#418728
00
#418752
11
#418824
10
#419040
00
#419064
01
#419136
10
#419328
00
#419424
10
#419616
00
#419736
10
#419928
00
#419952
11
#420024
10
#420240
00
#420264
01
#420336
10
#420528
00
#420552
11
#420936
01
#420984
10
#421128
00
#421224
10
#421248
b00000000 B
#421416
00
#421536
10
#421728
00
#421824
10
#422016
00
#422136
10
#422328
00
#422424
10
#422616
00
#422736
10
#422928
00
#423024
10
#423216
00
#423336
10
#423528
00
#423552
11
#424080
01
#424128
10
#424320
00
#424440
10
#424464
bxxxxxxxx B
#424632
11
#424824
01
bxxxxxxxx B
#424920
00
#424992
11
#425040
10
#425064
b11010000 B
#425232
00
#425328
10
#425520
00
#425544
01
#425640
10
#425832
00
#425856
11
#425928
10
#426120
00
#426144
01
#426240
10
#426432
00
#426528
10
#426720
00
#426840
10
#427032
00
#427128
10
#427320
00
#427368
11
#427656
01
#427800
10
#427920
00
#427992
11
#428040
10
#428064
b10100010 B
#428232
00
#428256
01
#428328
10
#428520
00
#428568
11
#428640
10
#428832
00
#428856
01
#428928
10
#429120
00
#429240
10
#429432
00
#429528
10
#429720
00
#429768
11
#429840
10
#430032
00
#430056
01
#430128
10
#430320
00
#430368
11
#430728
01
#430776
10
#430920
00
#431040
10
#431064
b00000000 B
#431232
00
#431328
10
#431520
00
#431640
10
#431832
00
#431928
10
#432120
00
#432240
10
#432432
00
#432528
10
#432720
00
#432840
10
#433032
00
#433128
10
#433320
00
#433368
11
#433896
01
#433944
10
#434136
00
#434232
10
#434256
bxxxxxxxx B
#434424
11
#598704
01
bxxxxxxxx B
#598800
00
#598872
11
#598920
10
#598944
b11010010 B
#599112
00
#599208
10
#599400
00
#599448
01
#599520
10
#599712
00
#599736
11
#599808
10
#600000
00
#600048
01
#600120
10
#600312
00
#600408
10
#600600
00
#600648
11
#600720
10
#600912
00
#600936
01
#601008
10
#601200
00
#601248
11
#601536
01
#601680
10
#601800
00
#601872
11
#601920
10
#601944
b10100010 B
#602112
00
#602136
01
#602208
10
#602400
00
#602448
11
#602520
10
#602712
00
#602736
01
#602808
10
#603000
00
#603120
10
#603312
00
#603408
10
#603600
00
#603648
11
#603720
10
#603912
00
#603936
01
#604008
10
#604200
00
#604248
11
#604632
01
#604680
10
#604800
00
#604920
10
#604944
b00000000 B
#605112
00
#605208
10
#605400
00
#605520
10
#605712
00
#605808
10
#606000
00
#606120
10
#606312
00
#606408
10
#606600
00
#606720
10
#606912
00
#607008
10
#607200
00
#607248
11
#607776
01
#607824
10
#608016
00
#608112
10
#608136
bxxxxxxxx B
#608304
11
#608520
01
bxxxxxxxx B
#608616
00
#608688
11
#608712
10
#608736
b11010100 B
#608904
00
#609000
10
#609216
00
#609240
01
#609312
10
#609504
00
#609552
11
#609600
10
#609816
00
#609840
01
#609912
10
#610104
00
#610152
11
#610200
10
#610416
00
#610440
01
#610512
10
#610704
00
#610824
10
#611016
00
#611040
11
#611328
01
#611472
10
#611616
00
#611664
11
#611712
10
#611736
b10100010 B
#611904
00
#611928
01
#612024
10
#612216
00
#612240
11
#612312
10
#612504
00
#612528
01
#612600
10
#612816
00
#612912
10
#613104
00
#613224
10
#613416
00
#613440
11
#613512
10
#613704
00
#613728
01
#613824
10
#614016
00
#614040
11
#614424
01
#614472
10
#614616
00
#614712
10
#614736
b00000000 B
#614904
00
#615000
10
#615216
00
#615312
10
#615504
00
#615600
10
#615816
00
#615912
10
#616104
00
#616200
10
#616416
00
#616512
10
#616704
00
#616800
10
#617016
00
#617040
11
#617568
01
#617616
10
#617808
00
#617904
10
#617928
bxxxxxxxx B
#618120
11
#618312
01
bxxxxxxxx B
#618408
00
#618480
11
#618504
10
#618528
b11010110 B
#618696
00
#618816
10
#619008
00
#619032
01
#619104
10
#619296
00
#619344
11
#619416
10
#619608
00
#619632
01
#619704
10
#619896
00
#619944
11
#620016
10
#620208
00
#620304
10
#620496
00
#620544
01
#620616
10
#620808
00
#620832
11
#621120
01
#621288
10
#621408
00
#621456
11
#621504
10
#621528
b10100010 B
#621696
00
#621744
01
#621816
10
#622008
00
#622032
11
#622104
10
#622296
00
#622344
01
#622416
10
#622608
00
#622704
10
#622896
00
#623016
10
#623208
00
#623232
11
#623304
10
#623496
00
#623544
01
#623616
10
#623808
00
#623832
11
#624216
01
#624264
10
#624408
00
#624504
10
#624528
b00000000 B
#624696
00
#624816
10
#625008
00
#625104
10
#625296
00
#625416
10
#625608
00
#625704
10
#625896
00
#626016
10
#626208
00
#626304
10
#626496
00
#626616
10
#626808
00
#626832
11
#627360
01
#627408
10
#627600
00
#627720
10
#627744
bxxxxxxxx B
#627912
11
#628104
01
bxxxxxxxx B
#628200
00
#628272
11
#628320
10
#628344
b11010000 B
#628512
00
#628608
10
#628800
00
#628824
01
#628920
10
#629112
00
#629136
11
#629208
10
#629400
00
#629424
01
#629520
10
#629712
00
#629808
10
#630000
00
#630120
10
#630312
00
#630408
10
#630600
00
#630648
11
#630936
01
#631080
10
#631200
00
#631272
11
#631296
10
#631320
b10100010 B
#631512
00
#631536
01
#631608
10
#631800
00
#631848
11
#631896
10
#632112
00
#632136
01
#632208
10
#632400
00
#632520
10
#632712
00
#632808
10
#633000
00
#633048
11
#633096
10
#633312
00
#633336
01
#633408
10
#633600
00
#633648
11
#634008
01
#634080
10
#634200
00
#634320
10
#634344
b00000000 B
#634512
00
#634608
10
#634800
00
#634920
10
#635112
00
#635208
10
#635400
00
#635520
10
#635712
00
#635808
10
#636000
00
#636120
10
#636312
00
#636408
10
#636600
00
#636648
11
#637176
01
#637224
10
#637416
00
#637512
10
#637536
bxxxxxxxx B
#637704
11
#798288
01
bxxxxxxxx B
#798384
00
#798456
11
#798480
10
#798504
b11010010 B
#798696
00
#798792
10
#798984
00
#799008
01
#799104
10
#799296
00
#799320
11
#799392
10
#799584
00
#799608
01
#799704
10
#799896
00
#799992
10
#800184
00
#800232
11
#800280
10
#800496
00
#800520
01
#800592
10
#800784
00
#800832
11
#801120
01
#801264
10
#801384
00
#801456
11
#801480
10
#801504
b10100010 B
#801696
00
#801720
01
#801792
10
#801984
00
#802032
11
#802080
10
#802296
00
#802320
01
#802392
10
#802584
00
#802704
10
#802896
00
#802992
10
#803184
00
#803208
11
#803280
10
#803496
00
#803520
01
#803592
10
#803784
00
#803832
11
#804192
01
#804240
10
#804384
00
#804480
10
#804504
b00000000 B
#804696
00
#804792
10
#804984
00
#805080
10
#805296
00
#805392
10
#805584
00
#805680
10
#805896
00
#805992
10
#806184
00
#806280
10
#806496
00
#806592
10
#806784
00
#806808
11
#807336
01
#807384
10
#807576
00
#807696
10
#807720
bxxxxxxxx B
#807888
11
#808080
01
bxxxxxxxx B
#808176
00
#808272
11
#808296
10
#808320
b11010100 B
#808488
00
#808584
10
#808776
00
#808824
01
#808896
10
#809088
00
#809112
11
#809184
10
#809376
00
#809424
01
#809496
10
#809688
00
#809712
11
#809784
10
#809976
00
#810024
01
#810096
10
#810288
00
#810384
10
#810576
00
#810624
11
#810912
01
#811056
10
#811176
00
#811248
11
#811296
10
#811320
b10100010 B
#811488
00
#811512
01
#811584
10
#811776
00
#811824
11
#811896
10
#812088
00
#812112
01
#812184
10
#812376
00
#812496
10
#812688
00
#812784
10
#812976
00
#813024
11
#813096
10
#813288
00
#813312
01
#813384
10
#813576
00
#813624
11
#814008
01
#814056
10
#814176
00
#814296
10
#814320
b00000000 B
#814488
00
#814584
10
#814776
00
#814896
10
#815088
00
#815184
10
#815376
00
#815496
10
#815688
00
#815784
10
#815976
00
#816096
10
#816288
00
#816384
10
#816576
00
#816624
11
#817152
01
#817200
10
#817392
00
#817488
10
#817512
bxxxxxxxx B
#817680
11
#817896
01
bxxxxxxxx B
#817992
00
#818064
11
#818088
10
#818112
b11010110 B
#818280
00
#818376
10
#818592
00
#818616
01
#818688
10
#818880
00
#818928
11
#819000
10
#819192
00
#819216
01
#819288
10
#819480
00
#819528
11
#819600
10
#819792
00
#819888
10
#820080
00
#820104
01
#820200
10
#820392
00
#820416
11
#820704
01
#820848
10
#820992
00
#821040
11
#821088
10
#821112
b10100010 B
#821280
00
#821304
01
#821400
10
#821592
00
#821616
11
#821688
10
#821880
00
#821904
01
#822000
10
#822192
00
#822288
10
#822480
00
#822600
10
#822792
00
#822816
11
#822888
10
#823080
00
#823104
01
#823200
10
#823392
00
#823416
11
#823800
01
#823848
10
#823992
00
#824088
10
#824112
b00000000 B
#824280
00
#824400
10
#824592
00
#824688
10
#824880
00
#825000
10
#825192
00
#825288
10
#825480
00
#825600
10
#825792
00
#825888
10
#826080
00
#826200
10
#826392
00
#826416
11
#826944
01
#826992
10
#827184
00
#827280
10
#827304
bxxxxxxxx B
#827496
11
#827688
01
bxxxxxxxx B
#827784
00
#827856
11
#827880
10
#827904
b11010000 B
#828096
00
#828192
10
#828384
00
#828408
01
#828480
10
#828696
00
#828720
11
#828792
10
#828984
00
#829008
01
#829080
10
#829296
00
#829392
10
#829584
00
#829680
10
#829896
00
#829992
10
#830184
00
#830208
11
#830520
01
#830664
10
#830784
00
#830832
11
#830880
10
#830904
b10100010 B
#831096
00
#831120
01
#831192
10
#831384
00
#831408
11
#831480
10
#831696
00
#831720
01
#831792
10
#831984
00
#832080
10
#832296
00
#832392
10
#832584
00
#832608
11
#832680
10
#832896
00
#832920
01
#832992
10
#833184
00
#833208
11
#833592
01
#833640
10
#833784
00
#833880
10
#833904
b00000000 B
#834096
00
#834192
10
#834384
00
#834480
10
#834696
00
#834792
10
#834984
00
#835080
10
#835296
00
#835392
10
#835584
00
#835680
10
#835872
00
#835992
10
#836184
00
#836208
11
#836736
01
#836808
10
#836976
00
#837096
10
#837120
bxxxxxxxx B
#837288
11
#1008456
01
bxxxxxxxx B
#1008576
00
#1008648
11
#1008672
10
#1008696
b11010010 B
#1008864
00
#1008960
10
#1009176
00
#1009200
01
#1009272
10
#1009464
00
#1009488
11
#1009560
10
#1009776
00
#1009800
01
#1009872
10
#1010064
00
#1010160
10
#1010376
00
#1010400
11
#1010472
10
#1010664
00
#1010688
01
#1010760
10
#1010976
00
#1011000
11
#1011288
01
#1011432
10
#1011576
00
#1011624
11
#1011672
10
#1011696
b10100010 B
#1011864
00
#1011888
01
#1011960
10
#1012176
00
#1012200
11
#1012272
10
#1012464
00
#1012488
01
#1012560
10
#1012776
00
#1012872
10
#1013064
00
#1013160
10
#1013376
00
#1013400
11
#1013472
10
#1013664
00
#1013688
01
#1013760
10
#1013976
00
#1014000
11
#1014384
01
#1014432
10
#1014576
00
#1014672
10
#1014696
b00000000 B
#1014864
00
#1014960
10
#1015176
00
#1015272
10
#1015464
00
#1015560
10
#1015776
00
#1015872
10
#1016064
00
#1016160
10
#1016376
00
#1016472
10
#1016664
00
#1016760
10
#1016976
00
#1017000
11
#1017528
01
#1017576
10
#1017768
00
#1017816
11
#1018032
01
#1018080
10
#1018104
bxxxxxxxx B
#1018272
11
#1018464
01
bxxxxxxxx B
#1018560
00
#1018632
11
#1018656
10
#1018680
b11010100 B
#1018872
00
#1018968
10
#1019160
00
#1019184
01
#1019280
10
#1019472
00
#1019496
11
#1019568
10
#1019760
00
#1019784
01
#1019880
10
#1020072
00
#1020096
11
#1020168
10
#1020360
00
#1020384
01
#1020480
10
#1020672
00
#1020768
10
#1020960
00
#1021008
11
#1021296
01
#1021440
10
#1021560
00
#1021632
11
#1021656
10
#1021680
b10100010 B
#1021872
00
#1021896
01
#1021968
10
#1022160
00
#1022208
11
#1022256
10
#1022472
00
#1022496
01
#1022568
10
#1022760
00
#1022880
10
#1023072
00
#1023168
10
#1023360
00
#1023408
11
#1023456
10
#1023672
00
#1023696
01
#1023768
10
#1023960
00
#1024008
11
#1024368
01
#1024416
10
#1024560
00
#1024680
10
#1024704
b00000000 B
#1024872
00
#1024968
10
#1025160
00
#1025280
10
#1025472
00
#1025568
10
#1025760
00
#1025880
10
#1026072
00
#1026168
10
#1026360
00
#1026480
10
#1026672
00
#1026768
10
#1026960
00
#1027008
11
#1027536
01
#1027584
10
#1027752
00
#1027872
10
#1027896
bxxxxxxxx B
#1028064
11
#1028256
01
bxxxxxxxx B
#1028352
00
#1028424
11
#1028472
10
#1028496
b11010110 B
#1028664
00
#1028760
10
#1028952
00
#1029000
01
#1029072
10
#1029264
00
#1029288
11
#1029360
10
#1029552
00
#1029600
01
#1029672
10
#1029864
00
#1029888
11
#1029960
10
#1030152
00
#1030272
10
#1030464
00
#1030488
01
#1030560
10
#1030752
00
#1030800
11
#1031088
01
#1031232
10
#1031352
00
#1031424
11
#1031472
10
#1031496
b10100010 B
#1031664
00
#1031688
01
#1031760
10
#1031952
00
#1032000
11
#1032072
10
#1032264
00
#1032288
01
#1032360
10
#1032552
00
#1032672
10
#1032864
00
#1032960
10
#1033152
00
#1033200
11
#1033272
10
#1033464
00
#1033488
01
#1033560
10
#1033752
00
#1033800
11
#1034160
01
#1034208
10
#1034352
00
#1034472
10
#1034496
b00000000 B
#1034664
00
#1034760
10
#1034952
00
#1035072
10
#1035264
00
#1035360
10
#1035552
00
#1035672
10
#1035864
00
#1035960
10
#1036152
00
#1036272
10
#1036464
00
#1036560
10
#1036752
00
#1036800
11
#1037328
01
#1037376
10
#1037568
00
#1037664
10
#1037688
bxxxxxxxx B
#1037856
11
#1038072
01
bxxxxxxxx B
#1038168
00
#1038240
11
#1038264
10
#1038288
b11010000 B
#1038456
00
#1038576
10
#1038768
00
#1038792
01
#1038864
10
#1039056
00
#1039104
11
#1039176
10
#1039368
00
#1039392
01
#1039464
10
#1039656
00
#1039776
10
#1039968
00
#1040064
10
#1040256
00
#1040376
10
#1040568
00
#1040592
11
#1040880
01
#1041048
10
#1041168
00
#1041216
11
#1041672
10
#1041696
b10100010 B
#1041864
00
#1041888
01
#1041960
10
#1042152
00
#1042200
11
#1042272
10
#1042464
00
#1042488
01
#1042560
10
#1042752
00
#1042872
10
#1043064
00
#1043160
10
#1043352
00
#1043400
11
#1043472
10
#1043664
00
#1043688
01
#1043760
10
#1043952
00
#1044000
11
#1044384
01
#1044432
10
#1044552
00
#1044672
10
#1044696
b00000000 B
#1044864
00
#1044960
10
#1045152
00
#1045272
10
#1045464
00
#1045560
10
#1045752
00
#1045872
10
#1046064
00
#1046160
10
#1046352
00
#1046472
10
#1046664
00
#1046760
10
#1046952
00
#1047000
11
#1047528
01
#1047576
10
#1047768
00
#1047864
10
#1047888
bxxxxxxxx B
#1048056
11
#1207536
01
bxxxxxxxx B
#1207656
00
#1207704
11
#1207752
10
#1207776
b11010010 B
#1207944
00
#1208040
10
#1208256
00
#1208280
01
#1208352
10
#1208544
00
#1208568
11
#1208640
10
#1208856
00
#1208880
01
#1208952
10
#1209144
00
#1209240
10
#1209456
00
#1209480
11
#1209552
10
#1209744
00
#1209768
01
#1209840
10
#1210056
00
#1210080
11
#1210368
01
#1210512
10
#1210656
00
#1210704
11
#1210752
10
#1210776
b10100010 B
#1210944
00
#1210968
01
#1211040
10
#1211256
00
#1211280
11
#1211352
10
#1211544
00
#1211568
01
#1211640
10
#1211856
00
#1211952
10
#1212144
00
#1212240
10
#1212456
00
#1212480
11
#1212552
10
#1212744
00
#1212768
01
#1212840
10
#1213056
00
#1213080
11
#1213464
01
#1213512
10
#1213632
00
#1213752
10
#1213776
b00000000 B
#1213944
00
#1214040
10
#1214232
00
#1214352
10
#1214544
00
#1214640
10
#1214832
00
#1214952
10
#1215144
00
#1215240
10
#1215432
00
#1215552
10
#1215744
00
#1215840
10
#1216032
00
#1216080
11
#1216608
01
#1216656
10
#1216848
00
#1216944
10
#1216968
bxxxxxxxx B
#1217136
11
#1217352
01
bxxxxxxxx B
#1217448
00
#1217520
11
#1217544
10
#1217568
b11010100 B
#1217736
00
#1217856
10
#1218048
00
#1218072
01
#1218144
10
#1218336
00
#1218384
11
#1218456
10
#1218648
00
#1218672
01
#1218744
10
#1218936
00
#1218984
11
#1219056
10
#1219248
00
#1219272
01
#1219344
10
#1219536
00
#1219656
10
#1219848
00
#1219872
11
#1220160
01
#1220304
10
#1220448
00
#1220496
11
#1220544
10
#1220568
b10100010 B
#1220736
00
#1220760
01
#1220856
10
#1221048
00
#1221072
11
#1221144
10
#1221336
00
#1221360
01
#1221456
10
#1221648
00
#1221744
10
#1221936
00
#1222056
10
#1222248
00
#1222272
11
#1222344
10
#1222536
00
#1222560
01
#1222656
10
#1222848
00
#1222872
11
#1223256
01
#1223304
10
#1223448
00
#1223544
10
#1223568
b00000000 B
#1223736
00
#1223856
10
#1224048
00
#1224144
10
#1224336
00
#1224456
10
#1224648
00
#1224744
10
#1224936
00
#1225056
10
#1225248
00
#1225344
10
#1225536
00
#1225656
10
#1225848
00
#1225872
11
#1226400
01
#1226448
10
#1226640
00
#1226736
10
#1226760
bxxxxxxxx B
#1226952
11
#1227144
01
bxxxxxxxx B
#1227240
00
#1227312
11
#1227336
10
#1227360
b11010110 B
#1227552
00
#1227648
10
#1227840
00
#1227864
01
#1227936
10
#1228152
00
#1228176
11
#1228248
10
#1228440
00
#1228464
01
#1228536
10
#1228752
00
#1228776
11
#1228848
10
#1229040
00
#1229136
10
#1229352
00
#1229376
01
#1229448
10
#1229640
00
#1229664
11
#1229976
01
#1230120
10
#1230240
00
#1230288
11
#1230336
10
#1230360
b10100010 B
#1230552
00
#1230576
01
#1230648
10
#1230840
00
#1230864
11
#1230936
10
#1231152
00
#1231176
01
#1231248
10
#1231440
00
#1231536
10
#1231752
00
#1231848
10
#1232040
00
#1232064
11
#1232136
10
#1232352
00
#1232376
01
#1232448
10
#1232640
00
#1232664
11
#1233048
01
#1233096
10
#1233240
00
#1233336
10
#1233360
b00000000 B
#1233552
00
#1233648
10
#1233840
00
#1233936
10
#1234152
00
#1234248
10
#1234440
00
#1234536
10
#1234752
00
#1234848
10
#1235040
00
#1235136
10
#1235352
00
#1235448
10
#1235640
00
#1235664
11
#1236192
01
#1236240
10
#1236432
00
#1236552
10
#1236576
bxxxxxxxx B
#1236744
11
#1236936
01
bxxxxxxxx B
#1237032
00
#1237104
11
#1237152
10
#1237176
b11010000 B
#1237344
00
#1237440
10
#1237632
00
#1237680
01
#1237752
10
#1237944
00
#1237968
11
#1238040
10
#1238232
00
#1238280
01
#1238352
10
#1238544
00
#1238640
10
#1238832
00
#1238952
10
#1239144
00
#1239240
10
#1239432
00
#1239480
11
#1239768
01
#1239912
10
#1240032
00
#1240104
11
#1240152
10
#1240176
b10100010 B
#1240344
00
#1240368
01
#1240440
10
#1240632
00
#1240680
11
#1240752
10
#1240944
00
#1240968
01
#1241040
10
#1241232
00
#1241352
10
#1241544
00
#1241640
10
#1241832
00
#1241880
11
#1241952
10
#1242144
00
#1242168
01
#1242240
10
#1242432
00
#1242480
11
#1242864
01
#1242912
10
#1243032
00
#1243152
10
#1243176
b00000000 B
#1243344
00
#1243440
10
#1243632
00
#1243752
10
#1243944
00
#1244040
10
#1244232
00
#1244352
10
#1244544
00
#1244640
10
#1244832
00
#1244952
10
#1245144
00
#1245240
10
#1245432
00
#1245480
11
#1246008
01
#1246056
10
#1246248
00
#1246344
10
#1246368
bxxxxxxxx B
#1246536
11
#1404312
01
bxxxxxxxx B
#1404432
00
#1404480
11
#1404528
10
#1404552
b11010010 B
#1404720
00
#1404816
10
#1405032
00
#1405056
01
