sniffer/arranque_y_frenado/can2.vcd
$date
  febrero 7, 2012
$end
$version
  ChronoVu LA-8 Version 3,08 
$end
$comment
  File: /home/mat/Escritorio/Arranque quad/can2.kdt
  from sample 0 to sample 8388607
$end
$timescale 10 ns $end
$scope module la8 $end
$var wire 1 0 SCL_(clock) $end
$var wire 1 1 SDA_(data) $end
$var wire 8 B I2C Bus $end
$upscope $end
$enddefinitions $end
$dumpvars
10
11
bxxxxxxxx B
$end
#0
10
11
bxxxxxxxx B
#36
bxxxxxxxx B
#5837256
01
bxxxxxxxx B
#5837292
11
#11057796
00
01
#11057832
10
11
#11057868
b11111111 B
#15838092
00
01
#15838128
10
11
#16891740
00
01
#16891776
10
11
#18880452
00
01
#18880488
10
11
#22853808
00
01
#22853844
10
11
#23041908
00
01
#23041944
10
11
#25952076
00
01
#25952112
10
11
#27827676
00
#27827712
10
#27878112
00
01
#27878148
10
11
#28058040
00
01
#28058076
10
11
#28058112
b11111111 B
#28901772
00
01
#28901808
10
11
#32842368
00
01
#32842404
10
11
#40854420
00
01
#40854456
10
11
#44696916
00
01
#44696952
10
11
#44865936
00
#44865972
10
#46841040
00
01
#46841076
10
11
#47845656
00
01
#47845692
10
11
#47915172
00
01
#47915208
10
11
#51861240
00
01
#51861276
10
11
#51861312
b11111111 B
#54892692
00
01
#54892728
10
11
#56889576
00
01
#56889612
10
11
#58856472
00
#58856508
10
#62955216
00
01
#62955252
10
11
#64732644
00
01
#64732680
10
11
#64844424
00
#64844460
10
#66057552
00
01
#66057588
10
11
#66853584
00
01
#66853620
10
11
#67002156
00
01
#67002192
10
11
#67002228
b11111111 B
#67845888
00
01
#67845924
10
11
#68700528
00
01
#68700564
10
11
#68850468
00
01
#68850504
10
11
#70839180
00
#70839216
10
#71886024
00
01
#71886060
10
11
#72886536
00
01
#72886572
10
11
#73896552
00
01
#73896588
10
11
#74713032
00
#74713068
10
#77901264
00
01
#77901300
10
11
#77901336
b11111111 B
#79859952
00
01
#79859988
10
11
#80705052
00
#80705088
10
#82930932
00
01
#82930968
10
11
#83860524
00
01
#83860560
10
11
#86015520
00
#86015556
10
#86851080
00
01
#86851116
10
11
#88050600
00
01
#88050636
10
11
#88899768
00
01
#88899804
10
11
#88920216
00
#88920252
10
#88920288
b11111111 B
#91908072
00
01
#91908108
10
11
#92059380
00
01
#92059416
10
11
#93061224
00
01
#93061260
10
11
#93864060
00
#93864096
10
#95892300
00
01
#95892336
10
11
#96707412
00
01
#96707448
10
11
#98893728
00
01
#98893764
10
11
#99051840
00
01
#99051876
10
11
#100752948
00
#100752984
10
#100753020
b11111111 B
#102755304
00
01
#102755340
10
11
#104855760
00
01
#104855796
10
11
#105853536
00
01
#105853572
10
11
#106062084
00
01
#106062120
10
11
#106860852
00
#106860888
10
#109912752
00
01
#109912788
10
11
#111874176
00
01
#111874212
10
11
#118857132
00
01
#118857168
10
11
#121914504
00
01
#121914540
10
11
#121914576
b11111111 B
#124058592
00
#124058628
10
#124855992
00
01
#124856028
10
11
#124895520
00
01
#124895556
10
11
#125853768
00
01
#125853804
10
11
#125904204
00
#125904240
10
#128946564
00
01
#128946600
10
11
#130875336
00
#130875372
10
#131848560
00
01
#131848596
10
11
#134060832
00
01
#134060868
10
11
#134060904
b11111111 B
#136846944
00
01
#136846980
10
11
#136856484
00
01
#136856520
10
11
#136896012
00
01
#136896048
10
11
#140893884
00
01
#140893920
10
11
#141054732
00
01
#141054768
10
11
#144751392
00
01
#144751428
10
11
#145829592
00
01
#145829628
10
11
#146864160
00
01
#146864196
10
11
#148726116
00
01
#148726152
10
11
#148726188
b11111111 B
#151907508
00
01
#151907544
10
11
#154914408
00
01
#154914444
10
11
#161894628
00
01
#161894664
10
11
#163000080
00
#163000116
10
#163903788
00
#163903824
10
#165892500
00
01
#165892536
10
11
#165902040
00
01
#165902076
10
11
#166898448
00
01
#166898484
10
11
#167864868
00
#167864904
10
#167864940
b11111111 B
#171911808
00
01
#171911844
10
11
#172898676
00
01
#172898712
10
11
#174862836
00
01
#174862872
10
11
#175890600
00
01
#175890636
10
11
#175999644
00
01
#175999680
10
11
#176009184
00
01
#176009220
10
11
#176028264
00
01
#176028300
10
11
#178913880
00
01
#178913916
10
11
#180901224
00
01
#180901260
10
11
#180901296
b11111111 B
#181040256
00
01
#181040292
10
11
#182043468
00
01
#182043504
10
11
#185862780
00
01
#185862816
10
11
#185892768
00
01
#185892804
10
11
#187866504
00
01
#187866540
10
11
#189042840
00
#189042876
10
#189857952
00
01
#189857988
10
11
#189947916
00
01
#189947952
10
11
#190887084
00
01
#190887120
10
11
#190887156
b11111111 B
#192908520
00
01
#192908556
10
11
#192948048
00
#192948084
10
#193864032
00
#193864068
10
#195905916
00
01
#195905952
10
11
#196917300
00
01
#196917336
10
11
#198961884
00
01
#198961920
10
11
#199847880
00
01
#199847916
10
11
#200048256
00
01
#200048292
10
11
#201865212
00
01
#201865248
10
11
#201865284
b11111111 B
#202999284
00
01
#202999320
10
11
#205888968
00
01
#205889004
10
11
#205939404
00
01
#205939440
10
11
#206888076
00
01
#206888112
10
11
#209835000
00
#209835036
10
#209885436
00
01
#209885472
10
11
#213910560
00
01
#213910596
10
11
#217006056
00
01
#217006092
10
11
#217954728
00
01
#217954764
10
11
#217954800
bxxxxxxxx B
#219856176
00
#219856212
10
#219906612
00
01
#219906648
10
11
#219916152
00
01
#219916188
10
11
#221943024
00
01
#221943060
10
11
#223003476
01
bxxxxxxxx B
#223003512
11
#224740008
00
01
#224740044
10
11
#224740080
b11111111 B
#225893160
00
01
#225893196
10
11
#225904068
00
01
#225904104
10
11
#227960928
00
01
#227960964
10
11
#228001824
00
#228001860
10
#231855192
00
#231855228
10
#235057032
00
01
#235057068
10
11
#236932596
00
#236932632
10
#236992572
00
01
#236992608
10
11
#240063552
00
01
#240063588
10
11
#240063624
b11111111 B
#241004052
00
01
#241004088
10
11
#241909128
00
#241909164
10
#252001260
00
01
#252001296
10
11
#252750924
00
01
#252750960
10
11
#256904208
00
01
#256904244
10
11
#258907932
00
01
#258907968
10
11
#260911620
00
01
#260911656
10
11
#261895752
00
#261895788
10
#264909492
00
01
#264909528
10
11
#264909564
b11111111 B
#264958560
00
01
#264958596
10
11
#266943168
00
01
#266943204
10
11
#273094704
00
01
#273094740
10
11
#276761340
00
01
#276761376
10
11
#276911280
00
01
#276911316
10
11
#281901456
00
01
#281901492
10
11
#282000960
00
01
#282000996
10
11
#283058712
00
01
#283058748
10
11
#284011488
00
01
#284011524
10
11
#284011560
b11111111 B
#284061924
00
01
#284061960
10
11
#285906132
00
#285906168
10
#285936120
00
01
#285936156
10
11
#286763508
00
01
#286763544
10
11
#287858052
00
01
#287858088
10
11
#287907120
00
01
#287907156
10
11
#288881712
00
#288881748
10
#289905372
00
01
#289905408
10
11
#289925820
00
#289925856
10
#289925892
bxxxxxxxx B
#296056836
00
01
#296056872
10
11
#296906040
01
bxxxxxxxx B
#296906076
11
#298046916
00
01
#298046952
10
11
#298046988
bxxxxxxxx B
#299919744
00
01
#299919780
10
11
#300898404
00
01
#300898440
10
11
#301857984
00
01
#301858020
10
11
#301989816
b00000000 B
