sniffer/arranque_y_frenado/frenado.vcd
$date
  febrero 12, 2012
$end
$version
  ChronoVu LA-8 Version 3,08 
$end
$comment
  File: /home/mat/Documentos/Facultad/uquad/Sniffer_I2C/Arranque/frenado.kdt
  from sample 0 to sample 8388607
$end
$timescale 10 ns $end
$scope module la8 $end
$var wire 1 0 SCL_(clock) $end
$var wire 1 1 SDA_(data) $end
$var wire 8 B I2C Bus $end
$upscope $end
$enddefinitions $end
$dumpvars
10
11
bxxxxxxxx B
$end
#0
10
11
bxxxxxxxx B
#24
bxxxxxxxx B
#3864
00
01
#3888
10
11
#62520
00
01
#62544
10
11
#77376
01
bxxxxxxxx B
#77472
00
#77544
11
#77568
10
#77592
b11010010 B
#77784
00
#77880
10
#78072
00
#78096
01
#78168
10
#78384
00
#78408
11
#78480
10
#78672
00
#78696
01
#78768
10
#78984
00
#79080
10
#79272
00
#79296
11
#79368
10
#79584
00
#79608
01
#79680
10
#79872
00
#79896
11
#80208
01
#80352
10
#80472
00
#80544
11
#80568
10
#80592
b10100010 B
#80784
00
#80808
01
#80880
10
#81072
00
#81096
11
#81168
10
#81384
00
#81408
01
#81480
10
#81672
00
#81768
10
#81984
00
#82080
10
#82272
00
#82296
11
#82368
10
#82584
00
#82608
01
#82680
10
#82872
00
#82896
11
#83280
01
#83328
10
#83472
00
#83568
10
#83592
b00110010 B
#83784
00
#83880
10
#84072
00
#84096
11
#84168
10
#84384
00
#84480
10
#84672
00
#84696
01
#84768
10
#84984
00
#85080
10
#85272
00
#85296
11
#85368
10
#85584
00
#85608
01
#85680
10
#85872
00
#85896
11
#86424
01
#86472
10
#86688
00
#86784
10
#86808
bxxxxxxxx B
#86976
11
#87168
01
bxxxxxxxx B
#87264
00
#87360
11
#87384
10
#87408
b11010100 B
#87576
00
#87672
10
#87864
00
#87912
01
#87984
10
#88176
00
#88200
11
#88272
10
#88464
00
#88512
01
#88584
10
#88776
00
#88800
11
#88872
10
#89064
00
#89112
01
#89184
10
#89376
00
#89472
10
#89664
00
#89712
11
#90000
01
#90144
10
#90264
00
#90336
11
#90384
10
#90408
b10100010 B
#90576
00
#90600
01
#90672
10
#90864
00
#90912
11
#90984
10
#91176
00
#91200
01
#91272
10
#91464
00
#91584
10
#91776
00
#91872
10
#92064
00
#92112
11
#92184
10
#92376
00
#92400
01
#92472
10
#92664
00
#92712
11
#93096
01
#93144
10
#93264
00
#93384
10
#93408
b00110010 B
#93576
00
#93672
10
#93864
00
#93912
11
#93984
10
#94176
00
#94272
10
#94464
00
#94512
01
#94584
10
#94776
00
#94872
10
#95064
00
#95112
11
#95184
10
#95376
00
#95400
01
#95472
10
#95664
00
#95712
11
#96240
01
#96288
10
#96480
00
#96576
10
#96600
bxxxxxxxx B
#96768
11
#96984
01
bxxxxxxxx B
#97080
00
#97152
11
#97176
10
#97200
b11010110 B
#97368
00
#97488
10
#97680
00
#97704
01
#97776
10
#97968
00
#98016
11
#98088
10
#98280
00
#98304
01
#98376
10
#98568
00
#98616
11
#98688
10
#98880
00
#98976
10
#99168
00
#99192
01
#99288
10
#99480
00
#99504
11
#99792
01
#99936
10
#100080
00
#100128
11
#100176
10
#100200
b10100010 B
#100368
00
#100392
01
#100488
10
#100680
00
#100704
11
#100776
10
#100968
00
#100992
01
#101088
10
#101280
00
#101376
10
#101568
00
#101688
10
#101880
00
#101904
11
#101976
10
#102168
00
#102192
01
#102288
10
#102480
00
#102504
11
#102888
01
#102936
10
#103080
00
#103176
10
#103200
b00110010 B
#103368
00
#103488
10
#103680
00
#103704
11
#103776
10
#103968
00
#104088
10
#104280
00
#104304
01
#104376
10
#104568
00
#104688
10
#104880
00
#104904
11
#104976
10
#105168
00
#105192
01
#105288
10
#105480
00
#105504
11
#106032
01
#106080
10
#106272
00
#106368
10
#106392
bxxxxxxxx B
#106584
11
#106776
01
bxxxxxxxx B
#106872
00
#106944
11
#106968
10
#106992
b11010000 B
#107184
00
#107280
10
#107472
00
#107496
01
#107568
10
#107784
00
#107808
11
#107880
10
#108072
00
#108096
01
#108168
10
#108384
00
#108480
10
#108672
00
#108768
10
#108984
00
#109080
10
#109272
00
#109296
11
#109608
01
#109752
10
#109872
00
#109920
11
#109968
10
#109992
b10100010 B
#110184
00
#110208
01
#110280
10
#110472
00
#110496
11
#110568
10
#110784
00
#110808
01
#110880
10
#111072
00
#111168
10
#111384
00
#111480
10
#111672
00
#111696
11
#111768
10
#111984
00
#112008
01
#112080
10
#112272
00
#112296
11
#112680
01
#112728
10
#112872
00
#112968
10
#112992
b01011110 B
#113184
00
#113208
11
#113280
10
#113472
00
#113496
01
#113568
10
#113784
00
#113808
11
#113880
10
#114072
00
#114168
10
#114384
00
#114480
10
#114672
00
#114768
10
#114984
00
#115008
01
#115080
10
#115272
00
#115296
11
#115824
01
#115872
10
#116064
00
#116184
10
#116208
bxxxxxxxx B
#116376
11
#147096
00
01
#147120
10
11
#163464
00
01
#163488
10
11
#249408
00
01
#249432
10
11
#265776
00
01
#265800
10
11
#275664
01
bxxxxxxxx B
#275760
00
#275832
11
#275856
10
#275880
b11010010 B
#276048
00
#276168
10
#276360
00
#276384
01
#276456
10
#276648
00
#276696
11
#276768
10
#276960
00
#276984
01
#277056
10
#277248
00
#277368
10
#277560
00
#277584
11
#277656
10
#277848
00
#277872
01
#277968
10
#278160
00
#278184
11
#278472
01
#278616
10
#278760
00
#278808
11
#278856
10
#278880
b10100010 B
#279048
00
#279072
01
#279168
10
#279360
00
#279384
11
#279456
10
#279648
00
#279672
01
#279768
10
#279960
00
#280056
10
#280248
00
#280368
10
#280560
00
#280584
11
#280656
10
#280848
00
#280872
01
#280968
10
#281160
00
#281184
11
#281568
01
#281616
10
#281760
00
#281856
10
#281880
b00110010 B
#282048
00
#282168
10
#282360
00
#282384
11
#282456
10
#282648
00
#282768
10
#282960
00
#282984
01
#283056
10
#283248
00
#283368
10
#283560
00
#283584
11
#283656
10
#283848
00
#283872
01
#283968
10
#284160
00
#284184
11
#284712
01
#284760
10
#284952
00
#285048
10
#285072
bxxxxxxxx B
#285264
11
#285456
01
bxxxxxxxx B
#285552
00
#285624
11
#285648
10
#285672
b11010100 B
#285864
00
#285960
10
#286152
00
#286176
01
#286248
10
#286464
00
#286488
11
#286560
10
#286752
00
#286776
01
#286848
10
#287064
00
#287088
11
#287160
10
#287352
00
#287376
01
#287448
10
#287664
00
#287760
10
#287952
00
#287976
11
#288288
01
#288432
10
#288552
00
#288600
11
#288648
10
#288672
b10100010 B
#288864
00
#288888
01
#288960
10
#289152
00
#289176
11
#289248
10
#289464
00
#289488
01
#289560
10
#289752
00
#289848
10
#290064
00
#290160
10
#290352
00
#290376
11
#290448
10
#290664
00
#290688
01
#290760
10
#290952
00
#290976
11
#291360
01
#291408
10
#291552
00
#291648
10
#291672
b00110010 B
#291864
00
#291960
10
#292152
00
#292176
11
#292248
10
#292464
00
#292560
10
#292752
00
#292776
01
#292848
10
#293064
00
#293160
10
#293352
00
#293376
11
#293448
10
#293664
00
#293688
01
#293760
10
#293952
00
#293976
11
#294504
01
#294552
10
#294744
00
#294864
10
#294888
bxxxxxxxx B
#295056
11
#295248
01
bxxxxxxxx B
#295344
00
#295560
11
#295656
10
#295680
b11010110 B
#295848
00
#295968
10
#296160
00
#296184
01
#296256
10
#296448
00
#296496
11
#296568
10
#296760
00
#296784
01
#296856
10
#297048
00
#297096
11
#297168
10
#297360
00
#297456
10
#297648
00
#297672
01
#297768
10
#297960
00
#297984
11
#298272
01
#298416
10
#298560
00
#298608
11
#298656
10
#298680
b10100010 B
#298848
00
#298872
01
#298968
10
#299160
00
#299184
11
#299256
10
#299448
00
#299472
01
#299568
10
#299760
00
#299856
10
#300048
00
#300168
10
#300360
00
#300384
11
#300456
10
#300648
00
#300672
01
#300768
10
#300960
00
#300984
11
#301368
01
#301416
10
#301560
00
#301656
10
#301680
b00110010 B
#301848
00
#301968
10
#302160
00
#302184
11
#302256
10
#302448
00
#302568
10
#302760
00
#302784
01
#302856
10
#303048
00
#303168
10
#303360
00
#303384
11
#303456
10
#303648
00
#303672
01
#303768
10
#303960
00
#303984
11
#304512
01
#304560
10
#304752
00
#304848
10
#304872
bxxxxxxxx B
#305064
11
#305256
01
bxxxxxxxx B
#305352
00
#305424
11
#305448
10
#305472
b11010000 B
#305664
00
#305760
10
#305952
00
#305976
01
#306048
10
#306264
00
#306288
11
#306360
10
#306552
00
#306576
01
#306648
10
#306864
00
#306960
10
#307152
00
#307248
10
#307464
00
#307560
10
#307752
00
#307776
11
#308088
01
#308232
10
#308352
00
#308400
11
#308448
10
#308472
b10100010 B
#308664
00
#308688
01
#308760
10
#308952
00
#308976
11
#309048
10
#309264
00
#309288
01
#309360
10
#309552
00
#309648
10
#309864
00
#309960
10
#310152
00
#310176
11
#310248
10
#310464
00
#310488
01
#310560
10
#310752
00
#310776
11
#311160
01
#311208
10
#311352
00
#311448
10
#311472
b01011110 B
#311664
00
#311688
11
#311760
10
#311952
00
#311976
01
#312048
10
#312264
00
#312288
11
#312360
10
#312552
00
#312648
10
#312864
00
#312960
10
#313152
00
#313248
10
#313464
00
#313488
01
#313560
10
#313752
00
#313776
11
#314328
01
#314352
10
#314544
00
#314664
10
#314688
bxxxxxxxx B
#314856
11
#317616
00
01
#317640
10
11
#376272
00
01
#376296
10
11
#419928
00
01
#419952
10
11
#436296
00
01
#436320
10
11
#454032
00
01
#454056
10
11
#479424
01
bxxxxxxxx B
#479544
00
#479592
11
#479640
10
#479664
b11010010 B
#479832
00
#479928
10
#480144
00
#480168
01
#480240
10
#480432
00
#480456
11
#480528
10
#480744
00
#480768
01
#480840
10
#481032
00
#481128
10
#481344
00
#481368
11
#481440
10
#481632
00
#481656
01
#481728
10
#481944
00
#481968
11
#482256
01
#482400
10
#482544
00
#482592
11
#482640
10
#482664
b10100010 B
#482832
00
#482856
01
#482928
10
#483144
00
#483168
11
#483240
10
#483432
00
#483456
01
#483528
10
#483744
00
#483840
10
#484032
00
#484128
10
#484344
00
#484368
11
#484440
10
#484632
00
#484656
01
#484728
10
#484944
00
#484968
11
#485352
01
#485400
10
#485544
00
#485640
10
#485664
b00110010 B
#485832
00
#485928
10
#486144
00
#486168
11
#486240
10
#486432
00
#486528
10
#486744
00
#486768
01
#486840
10
#487032
00
#487128
10
#487344
00
#487368
11
#487440
10
#487632
00
#487656
01
#487728
10
#487944
00
#487968
11
#488496
01
#488544
10
#488736
00
#488832
10
#488856
bxxxxxxxx B
#489048
11
#489240
01
bxxxxxxxx B
#489336
00
#489408
11
#489432
10
#489456
b11010100 B
#489624
00
#489744
10
#489936
00
#489960
01
#490032
10
#490224
00
#490272
11
#490344
10
#490536
00
#490560
01
#490632
10
#490824
00
#490872
11
#490944
10
#491136
00
#491160
01
#491232
10
#491424
00
#491544
10
#491736
00
#491760
11
#492048
01
#492192
10
#492336
00
#492384
11
#492432
10
#492456
b10100010 B
#492624
00
#492672
01
#492744
10
#492936
00
#492960
11
#493032
10
#493224
00
#493272
01
#493344
10
#493536
00
#493632
10
#493824
00
#493944
10
#494136
00
#494160
11
#494232
10
#494424
00
#494472
01
#494544
10
#494736
00
#494760
11
#495144
01
#495192
10
#495336
00
#495432
10
#495456
b00110010 B
#495624
00
#495744
10
#495936
00
#495960
11
#496032
10
#496224
00
#496344
10
#496536
00
#496560
01
#496632
10
#496824
00
#496944
10
#497136
00
#497160
11
#497232
10
#497424
00
#497448
01
#497544
10
#497736
00
#497760
11
#498288
01
#498336
10
#498528
00
#498624
10
#498648
bxxxxxxxx B
#498840
11
#499032
01
bxxxxxxxx B
#499128
00
#499200
11
#499224
10
#499248
b11010110 B
#499440
00
#499536
10
#499728
00
#499752
01
#499824
10
#500040
00
#500064
11
#500136
10
#500328
00
#500352
01
#500424
10
#500640
00
#500664
11
#500736
10
#500928
00
#501024
10
#501240
00
#501264
01
#501336
10
#501528
00
#501552
11
#501864
01
#502008
10
#502128
00
#502200
11
#502224
10
#502248
b10100010 B
#502440
00
#502464
01
#502536
10
#502728
00
#502752
11
#502824
10
#503040
00
#503064
01
#503136
10
#503328
00
#503424
10
#503640
00
#503736
10
#503928
00
#503952
11
#504024
10
#504240
00
#504264
01
#504336
10
#504528
00
#504552
11
#504936
01
#504984
10
#505128
00
#505224
10
#505248
b00110010 B
#505440
00
#505536
10
#505728
00
#505752
11
#505824
10
#506040
00
#506136
10
#506328
00
#506352
01
#506424
10
#506640
00
#506736
10
#506928
00
#506952
11
#507024
10
#507240
00
#507264
01
#507336
10
#507528
00
#507552
11
#508080
01
#508128
10
#508320
00
#508440
10
#508464
bxxxxxxxx B
#508632
11
#508824
01
bxxxxxxxx B
#508920
00
#508992
11
#509040
10
#509064
b11010000 B
#509232
00
#509328
10
#509520
00
#509568
01
#509640
10
#509832
00
#509856
11
#509928
10
#510120
00
#510168
01
#510240
10
#510432
00
#510528
10
#510720
00
#510840
10
#511032
00
#511128
10
#511320
00
#511368
11
#511656
01
#511800
10
#511920
00
#511992
11
#512040
10
#512064
b10100010 B
#512232
00
#512256
01
#512328
10
#512520
00
#512568
11
#512640
10
#512832
00
#512856
01
#512928
10
#513120
00
#513240
10
#513432
00
#513528
10
#513720
00
#513768
11
#513840
10
#514032
00
#514056
01
#514128
10
#514320
00
#514368
11
#514752
01
#514800
10
#514920
00
#515040
10
#515064
b01000101 B
#515232
00
#515256
11
#515328
10
#515520
00
#515568
01
#515640
10
#515832
00
#515928
10
#516120
00
#516240
10
#516432
00
#516456
11
#516528
10
#516720
00
#516768
01
#516840
10
#517032
00
#517056
11
#517128
10
#517320
00
#517896
01
#517944
10
#518136
00
#518232
10
#518256
bxxxxxxxx B
#518424
11
#522240
00
01
#522264
10
11
#556344
00
01
#556368
10
11
#601368
00
01
#601392
10
11
#609552
00
01
#609576
10
11
#658656
00
01
#658680
10
11
#676704
01
bxxxxxxxx B
#676824
00
#676896
11
#676920
10
#676944
b11010010 B
#677112
00
#677208
10
#677424
00
#677448
01
#677520
10
#677712
00
#677736
11
#677808
10
#678024
00
#678048
01
#678120
10
#678312
00
#678408
10
#678624
00
#678648
11
#678720
10
#678912
00
#678936
01
#679008
10
#679224
00
#679248
11
#679536
01
#679680
10
#679824
00
#679872
11
#679920
10
#679944
b10100010 B
#680112
00
#680136
01
#680208
10
#680424
00
#680448
11
#680520
10
#680712
00
#680736
01
#680808
10
#681024
00
#681120
10
#681312
00
#681408
10
#681624
00
#681648
11
#681720
10
#681912
00
#681936
01
#682008
10
#682224
00
#682248
11
#682632
01
#682680
10
#682824
00
#682920
10
#682944
b00110010 B
#683112
00
#683208
10
#683424
00
#683448
11
#683520
10
#683712
00
#683808
10
#684024
00
#684048
01
#684120
10
#684312
00
#684408
10
#684624
00
#684648
11
#684720
10
#684912
00
#684936
01
#685008
10
#685224
00
#685248
11
#685776
01
#685824
10
#686016
00
#686112
10
#686136
bxxxxxxxx B
#686328
11
#686520
01
bxxxxxxxx B
#686616
00
#686688
11
#686712
10
#686736
b11010100 B
#686904
00
#687024
10
#687216
00
#687240
01
#687312
10
#687504
00
#687552
11
#687624
10
#687816
00
#687840
01
#687912
10
#688104
00
#688152
11
#688224
10
#688416
00
#688440
01
#688512
10
#688704
00
#688824
10
#689016
00
#689040
11
#689328
01
#689472
10
#689616
00
#689664
11
#689712
10
#689736
b10100010 B
#689904
00
#689928
01
#690024
10
#690216
00
#690240
11
#690312
10
#690504
00
#690528
01
#690624
10
#690816
00
#690912
10
#691104
00
#691224
10
#691416
00
#691440
11
#691512
10
#691704
00
#691728
01
#691824
10
#692016
00
#692040
11
#692424
01
#692472
10
#692616
00
#692712
10
#692736
bxxxxxxxx B
#692760
11
#692784
01
bxxxxxxxx B
#692904
00
#693024
10
#693048
b01100100 B
#693216
00
#693240
11
#693312
10
#693504
00
#693624
10
#693816
00
#693840
01
#693912
10
#694104
00
#694224
10
#694416
00
#694440
11
#694512
10
#694704
00
#694728
01
#694824
10
#695016
00
#695040
11
#695568
01
#695616
10
#695808
00
#695904
10
#696120
11
#696312
01
bxxxxxxxx B
#696408
00
#696480
11
#696504
10
#696528
b11010110 B
#696720
00
#696816
10
#697008
00
#697032
01
#697104
10
#697320
00
#697344
11
#697416
10
#697608
00
#697632
01
#697704
10
#697920
00
#697944
11
#698016
10
#698208
00
#698304
10
#698520
00
#698544
01
#698616
10
#698808
00
#698832
11
#699144
01
#699288
10
#699408
00
#699456
11
#699504
10
#699528
b10100010 B
#699720
00
#699744
01
#699816
10
#700008
00
#700032
11
#700104
10
#700320
00
#700344
01
#700416
10
#700608
00
#700704
10
#700920
00
#701016
10
#701208
00
#701232
11
#701304
10
#701520
00
#701544
01
#701616
10
#701808
00
#701832
11
#702216
01
#702264
10
#702408
00
#702504
10
#702528
b00110010 B
#702720
00
#702816
10
#703008
00
#703032
11
#703104
10
#703320
00
#703416
10
#703608
00
#703632
01
#703704
10
#703920
00
#704016
10
#704208
00
#704232
11
#704304
10
#704520
00
#704544
01
#704616
10
#704808
00
#704832
11
#705360
01
#705408
10
#705600
00
#705720
10
#705744
bxxxxxxxx B
#705912
11
#706104
01
bxxxxxxxx B
#706200
00
#706296
11
#706320
10
#706344
b11010000 B
#706512
00
#706608
10
#706800
00
#706848
01
#706920
10
#707112
00
#707136
11
#707208
10
#707400
00
#707448
01
#707520
10
#707712
00
#707808
10
#708000
00
#708120
10
#708312
00
#708408
10
#708600
00
#708648
11
#708936
01
#709080
10
#709200
00
#709272
11
#709320
10
#709344
b10100010 B
#709512
00
#709536
01
#709608
10
#709800
00
#709848
11
#709920
10
#710112
00
#710136
01
#710208
10
#710400
00
#710520
10
#710712
00
#710808
10
#711000
00
#711048
11
#711120
10
#711312
00
#711336
01
#711408
10
#711600
00
#711648
11
#712032
01
#712080
10
#712200
00
#712320
10
#712344
b01000110 B
#712512
00
#712536
11
#712608
10
#712800
00
#712848
01
#712920
10
#713112
00
#713208
10
#713400
00
#713520
10
#713712
00
#713736
11
#713808
10
#714000
00
#714120
10
#714312
00
#714336
01
#714408
10
#714600
00
#714648
11
#715176
01
#715224
10
#715416
00
#715512
10
#715536
b01111111 B
#715704
11
#717312
00
01
#717336
10
11
#733680
00
01
#733704
10
11
#750048
00
01
#750072
10
11
#775968
00
01
#775992
10
11
#818256
00
01
#818280
10
11
#834624
00
01
#834648
10
11
#842808
00
#842832
10
#859176
00
01
#859200
10
11
#875592
01
bxxxxxxxx B
#875688
00
#875760
11
#875784
10
#875808
b11010010 B
#876000
00
#876096
10
#876288
00
#876312
01
#876384
10
#876600
00
#876624
11
#876696
10
#876888
00
#876912
01
#876984
10
#877200
00
#877296
10
#877488
00
#877512
11
#877584
10
#877800
00
#877824
01
#877896
10
#878088
00
#878112
11
#878424
01
#878568
10
#878688
00
#878760
11
#878784
10
#878808
b10100010 B
#879000
00
#879024
01
#879096
10
#879288
00
#879312
11
#879384
10
#879600
00
#879624
01
#879696
10
#879888
00
#879984
10
#880200
00
#880296
10
#880488
00
#880512
11
#880584
10
#880800
00
#880824
01
#880896
10
#881088
00
#881112
11
#881496
01
#881544
10
#881688
00
#881784
10
#881808
b00110011 B
#882000
00
#882096
10
#882288
00
#882312
11
#882384
10
#882600
00
#882696
10
#882888
00
#882912
01
#882984
10
#883200
00
#883296
10
#883488
00
#883512
11
#883584
10
#883728
00
01
#883752
10
11
#883800
00
#883824
01
#883896
10
#884088
00
#884112
11
#884664
01
#884712
10
#884736
bxxxxxxxx B
#884880
00
#884952
11
#885096
10
#885120
00
#886392
01
#886488
10
#886704
11
#886896
01
bxxxxxxxx B
#886992
00
#887064
11
#887088
10
#887112
b11010100 B
#887280
00
#887400
10
#887592
00
#887616
01
#887688
10
#887880
00
#887928
11
#888000
10
#888192
00
#888216
01
#888288
10
#888480
00
#888528
11
#888600
10
#888792
00
#888816
01
#888888
10
#889080
00
#889200
10
#889392
00
#889416
11
#889704
01
#889848
10
#889992
00
#890040
11
#890088
10
#890112
b10100001 B
#890280
00
#890328
01
#890400
10
#890592
00
#890616
11
#890688
10
#890880
00
#890928
01
#891000
10
#891192
00
#891288
10
#891480
00
#891600
10
#891792
00
#891816
11
#891888
10
#891912
00
01
#891936
10
11
#892080
00
#892128
01
#892200
10
#892392
00
#892416
11
#892800
01
#892848
10
#892872
b00011001 B
#892992
00
#893088
10
#893280
00
#893400
10
#893592
00
#893616
11
#893688
10
#893880
00
#894000
10
#894192
00
#894216
01
#894288
10
#894480
00
#894600
10
#894792
00
#894816
11
#894888
10
#895080
00
#895128
01
#895200
10
#895392
00
#895416
11
#895944
01
#895992
10
#896016
bxxxxxxxx B
#896184
00
#896304
10
#896496
11
#896688
01
bxxxxxxxx B
#896784
00
#896856
11
#896904
10
#896928
b11010110 B
#897096
00
#897192
10
#897384
00
#897408
01
#897504
10
#897696
00
#897720
11
#897792
10
#897984
00
#898008
01
#898104
10
#898296
00
#898320
11
#898392
10
#898584
00
#898704
10
#898896
00
#898920
01
#898992
10
#899184
00
#899232
11
#899520
01
#899664
10
#899784
00
#899856
11
#899904
10
#899928
b10100010 B
#900096
00
#900120
01
#900192
10
#900384
00
#900432
11
#900504
10
#900696
00
#900720
01
#900792
10
#900984
00
#901104
10
#901296
00
#901392
10
#901584
00
#901632
11
#901704
10
#901896
00
#901920
01
#901992
10
#902184
00
#902232
11
#902592
01
#902640
10
#902784
00
#902904
10
#902928
b00110010 B
#903096
00
#903192
10
#903384
00
#903432
11
#903504
10
#903696
00
#903792
10
#903984
00
#904008
01
#904104
10
#904296
00
#904392
10
#904584
00
#904632
11
#904704
10
#904896
00
#904920
01
#904992
10
#905184
00
#905232
11
#905760
01
#905808
10
#906000
00
#906096
10
#906120
bxxxxxxxx B
#906288
11
#906480
01
bxxxxxxxx B
#906600
00
#906648
11
#906696
10
#906720
b11010000 B
#906888
00
#906984
10
#907200
00
#907224
01
#907296
10
#907488
00
#907512
11
#907584
10
#907800
00
#907824
01
#907896
10
#908088
00
#908184
10
#908400
00
#908496
10
#908688
00
#908784
10
#909000
00
#909024
11
#909312
01
#909456
10
#909600
00
#909648
11
#909696
10
#909720
b10100010 B
#909888
00
#909912
01
#909984
10
#910200
00
#910224
11
#910296
10
#910488
00
#910512
01
#910584
10
#910800
00
#910896
10
#911088
00
#911184
10
#911400
00
#911424
11
#911496
10
#911688
00
#911712
01
#911784
10
#912000
00
#912024
11
#912408
01
#912456
10
#912600
00
#912696
10
#912720
b00110100 B
#912888
00
#912984
10
#913200
00
#913224
11
#913296
10
#913488
00
#913584
10
#913800
00
#913824
01
#913896
10
#914088
00
#914112
11
#914184
10
#914400
00
#914424
01
#914496
10
#914688
00
#914784
10
#915000
00
#915024
11
#915552
01
#915600
10
#915792
00
#915888
10
#915912
bxxxxxxxx B
#916104
11
#917832
00
01
#917856
10
11
#926016
00
01
#926040
10
11
#953304
00
01
#953328
10
11
#1061064
00
01
#1061088
10
11
#1085280
01
bxxxxxxxx B
#1085376
00
#1085448
11
#1085472
10
#1085496
b11010010 B
#1085664
00
#1085784
10
#1085976
00
#1086000
01
#1086072
10
#1086264
00
#1086312
11
#1086384
10
#1086576
00
#1086600
01
#1086672
10
#1086864
00
#1086984
10
#1087176
00
#1087200
11
#1087272
10
#1087464
00
#1087488
01
#1087584
10
#1087776
00
#1087800
11
#1088088
01
#1088232
10
#1088376
00
#1088424
11
#1088472
10
#1088496
b10100010 B
#1088664
00
#1088688
01
#1088784
10
#1088976
00
#1089000
11
#1089072
10
#1089264
00
#1089288
01
#1089384
10
#1089576
00
#1089672
10
#1089864
00
#1089984
10
#1090176
00
#1090200
11
#1090272
10
#1090464
00
#1090488
01
#1090584
10
#1090776
00
#1090800
11
#1091184
01
#1091232
10
#1091376
00
#1091472
10
#1091496
b00110010 B
#1091664
00
#1091784
10
#1091976
00
#1092000
11
#1092072
10
#1092264
00
#1092384
10
#1092576
00
#1092600
01
#1092672
10
#1092864
00
#1092984
10
#1093176
00
#1093200
11
#1093272
10
#1093464
00
#1093488
01
#1093584
10
#1093776
00
#1093800
11
#1094328
01
#1094376
10
#1094568
00
#1094664
10
#1094688
bxxxxxxxx B
#1094880
11
#1095072
01
bxxxxxxxx B
#1095168
00
#1095240
11
#1095264
10
#1095288
b11010100 B
#1095480
00
#1095576
10
#1095768
00
#1095792
01
#1095864
10
#1096080
00
#1096104
11
#1096176
10
#1096368
00
#1096392
01
#1096464
10
#1096680
00
#1096704
11
#1096776
10
#1096968
00
#1096992
01
#1097064
10
#1097280
00
#1097376
10
#1097568
00
#1097592
11
#1097904
01
#1098048
10
#1098168
00
#1098216
11
#1098264
10
#1098288
b10100010 B
#1098480
00
#1098504
01
#1098576
10
#1098768
00
#1098792
11
#1098864
10
#1099080
00
#1099104
01
#1099176
10
#1099368
00
#1099464
10
#1099680
00
#1099776
10
#1099968
00
#1099992
11
#1100064
10
#1100280
00
#1100304
01
#1100376
10
#1100568
00
#1100592
11
#1100976
01
#1101024
10
#1101168
00
#1101264
10
#1101288
b00110010 B
#1101480
00
#1101576
10
#1101768
00
#1101792
11
#1101864
10
#1102080
00
#1102176
10
#1102368
00
#1102392
01
#1102464
10
#1102680
00
#1102776
10
#1102968
00
#1102992
11
#1103064
10
#1103280
00
#1103304
01
#1103376
10
#1103568
00
#1103592
11
#1104120
01
#1104168
10
#1104360
00
#1104480
10
#1104504
bxxxxxxxx B
#1104672
11
#1104864
01
bxxxxxxxx B
#1104960
00
#1105032
11
#1105080
10
#1105104
b11010110 B
#1105272
00
#1105368
10
#1105560
00
#1105584
01
#1105680
10
#1105872
00
#1105896
11
#1105968
10
#1106160
00
#1106184
01
#1106280
10
#1106472
00
#1106496
11
#1106568
10
#1106760
00
#1106880
10
#1107072
00
#1107096
01
#1107168
10
#1107360
00
#1107408
11
#1107696
01
#1107840
10
#1107960
00
#1108032
11
#1108080
10
#1108104
b10100010 B
#1108272
00
#1108296
01
#1108368
10
#1108560
00
#1108608
11
#1108680
10
#1108872
00
#1108896
01
#1108968
10
#1109160
00
#1109280
10
#1109472
00
#1109568
10
#1109760
00
#1109808
11
#1109880
10
#1110072
00
#1110096
01
#1110168
10
#1110360
00
#1110408
11
#1110768
01
#1110816
10
#1110960
00
#1111080
10
#1111104
b00110010 B
#1111272
00
#1111368
10
#1111560
00
#1111608
11
#1111680
10
#1111872
00
#1111968
10
#1112160
00
#1112184
01
#1112280
10
#1112472
00
#1112568
10
#1112760
00
#1112808
11
#1112880
10
#1113072
00
#1113096
01
#1113168
10
#1113360
00
#1113408
11
#1113936
01
#1113984
10
#1114176
00
#1114272
10
#1114296
bxxxxxxxx B
#1114464
11
#1114656
01
bxxxxxxxx B
#1114776
00
#1114848
11
#1114872
10
#1114896
b11010000 B
#1115064
00
#1115160
10
#1115376
00
#1115400
01
#1115472
10
#1115664
00
#1115688
11
#1115760
10
#1115976
00
#1116000
01
#1116072
10
#1116264
00
#1116360
10
#1116576
00
#1116672
10
#1116864
00
#1116960
10
#1117176
00
#1117200
11
#1117488
01
#1117632
10
#1117776
00
#1117824
11
#1117872
10
#1117896
b10100010 B
#1118064
00
#1118088
01
#1118160
10
#1118376
00
#1118400
11
#1118472
10
#1118664
00
#1118688
01
#1118760
10
#1118976
00
#1119072
10
#1119264
00
#1119360
10
#1119576
00
#1119600
11
#1119672
10
#1119864
00
#1119888
01
#1119960
10
#1120176
00
#1120200
11
#1120584
01
#1120632
10
#1120776
00
#1120872
10
#1120896
b00110101 B
#1121064
00
#1121160
10
#1121376
00
#1121400
11
#1121472
10
#1121664
00
#1121760
10
#1121976
00
#1122000
01
#1122072
10
#1122264
00
#1122288
11
#1122360
10
#1122576
00
#1122600
01
#1122672
10
#1122864
00
#1122888
11
#1122960
10
#1123176
00
#1123728
01
#1123776
10
#1123968
00
#1124064
10
#1124088
bxxxxxxxx B
#1124280
11
#1153824
00
01
#1153848
10
11
#1187928
00
01
#1187952
10
11
#1196112
00
01
#1196136
10
11
#1272504
00
01
#1272528
10
11
#1281240
01
bxxxxxxxx B
#1281360
00
#1281432
11
#1281456
10
#1281480
b11010010 B
#1281648
00
#1281744
10
#1281960
00
#1281984
01
#1282056
10
#1282248
00
#1282272
11
#1282344
10
#1282560
00
#1282584
01
#1282656
10
#1282848
00
#1282944
10
#1283160
00
#1283184
11
#1283256
10
#1283448
00
#1283472
01
#1283544
10
#1283760
00
#1283784
11
#1284072
01
#1284216
10
#1284360
00
#1284408
11
#1284456
10
#1284480
b10100010 B
#1284648
00
#1284672
01
#1284744
10
#1284960
00
#1284984
11
#1285056
10
#1285248
00
#1285272
01
#1285344
10
#1285560
00
#1285656
10
#1285848
00
#1285944
10
#1286160
00
#1286184
11
#1286256
10
#1286448
00
#1286472
01
#1286544
10
#1286760
00
#1286784
11
#1287168
01
#1287216
10
#1287360
00
#1287456
10
#1287480
b00110010 B
#1287648
00
#1287744
10
#1287960
00
#1287984
11
#1288056
10
#1288248
00
#1288344
10
#1288560
00
#1288584
01
#1288656
10
#1288848
00
#1288944
10
#1289160
00
#1289184
11
#1289256
10
#1289448
00
#1289472
01
#1289544
10
#1289760
00
#1289784
11
#1290312
01
#1290360
10
#1290552
00
#1290648
10
#1290672
bxxxxxxxx B
#1290864
11
#1291056
01
bxxxxxxxx B
#1291152
00
#1291224
11
#1291248
10
#1291272
b11010100 B
#1291440
00
#1291560
10
#1291752
00
#1291776
01
#1291848
10
#1292040
00
#1292088
11
#1292160
10
#1292352
00
#1292376
01
#1292448
10
#1292640
00
#1292688
11
#1292760
10
#1292952
00
#1292976
01
#1293048
10
#1293240
00
#1293360
10
#1293552
00
#1293576
11
#1293864
01
#1294008
10
#1294152
00
#1294200
11
#1294248
10
#1294272
b10100010 B
#1294440
00
#1294464
01
#1294560
10
#1294752
00
#1294776
11
#1294848
10
#1295040
00
