sniffer/arranque_y_frenado/frenado2.vcd
$date
  febrero 12, 2012
$end
$version
  ChronoVu LA-8 Version 3,08 
$end
$comment
  File: /home/mat/Documentos/Facultad/uquad/Sniffer_I2C/Arranque/frenado2.kdt
  from sample 0 to sample 8388607
$end
$timescale 10 ns $end
$scope module la8 $end
$var wire 1 0 SCL_(clock) $end
$var wire 1 1 SDA_(data) $end
$var wire 8 B I2C Bus $end
$upscope $end
$enddefinitions $end
$dumpvars
10
11
bxxxxxxxx B
$end
#0
10
11
bxxxxxxxx B
#24
bxxxxxxxx B
#27288
00
01
#27312
10
11
#55824
01
bxxxxxxxx B
#55848
11
#69408
00
01
#69432
10
11
#69456
bxxxxxxxx B
#107448
00
01
#107472
10
11
#155640
01
bxxxxxxxx B
#155736
00
#155808
11
#155832
10
#155856
b11010011 B
#156048
00
#156144
10
#156336
00
#156360
01
#156432
10
#156648
00
#156672
11
#156744
10
#156936
00
#156960
01
#157032
10
#157248
00
#157344
10
#157536
00
#157560
11
#157632
10
#157728
00
01
#157752
10
11
#157848
00
#157872
01
#157944
10
#158136
00
#158160
11
#158472
01
#158616
10
#158640
b01010001 B
#158736
00
#158784
11
#158832
10
#159048
00
#159072
01
#159144
10
#159336
00
#159360
11
#159432
10
#159648
00
#159672
01
#159744
10
#159936
00
#160032
10
#160248
00
#160344
10
#160536
00
#160560
11
#160632
10
#160848
00
#160872
01
#160944
10
#161136
00
#161160
11
#161544
01
#161592
10
#161616
b00011001 B
#161736
00
#161832
10
#162048
00
#162144
10
#162336
00
#162360
11
#162432
10
#162648
00
#162744
10
#162936
00
#162960
01
#163032
10
#163248
00
#163344
10
#163536
00
#163560
11
#163632
10
#163848
00
#163872
01
#163944
10
#164136
00
#164160
11
#164688
01
#164736
10
#164760
bxxxxxxxx B
#164928
00
#165048
10
#165240
11
#165432
01
bxxxxxxxx B
#165528
00
#165600
11
#165648
10
#165672
b11010100 B
#165840
00
#165936
10
#166128
00
#166176
01
#166248
10
#166440
00
#166464
11
#166536
10
#166728
00
#166776
01
#166848
10
#167040
00
#167064
11
#167136
10
#167328
00
#167376
01
#167448
10
#167640
00
#167736
10
#167928
00
#167976
11
#168264
01
#168408
10
#168528
00
#168600
10
11
#168624
00
b11010001 B
#168648
10
#168840
00
#168864
01
#168936
10
#169128
00
#169176
11
#169248
10
#169440
00
#169464
01
#169536
10
#169728
00
#169848
10
#170040
00
#170136
10
#170328
00
#170376
11
#170448
10
#170640
00
#170664
01
#170736
10
#170928
00
#170976
11
#171336
01
#171384
10
#171408
b00011001 B
#171528
00
#171648
10
#171840
00
#171936
10
#172128
00
#172176
11
#172248
10
#172440
00
#172536
10
#172728
00
#172776
01
#172848
10
#173040
00
#173136
10
#173328
00
#173376
11
#173448
10
#173640
00
#173664
01
#173736
10
#173928
00
#173976
11
#174504
01
#174552
10
#174576
bxxxxxxxx B
#174744
00
#174840
10
#175032
11
#175248
01
bxxxxxxxx B
#175344
00
#175608
11
#175632
10
#175656
b11010110 B
#175848
00
#175944
10
#176136
00
#176160
01
#176232
10
#176448
00
#176472
11
#176544
10
#176736
00
#176760
01
#176832
10
#177048
00
#177072
11
#177144
10
#177336
00
#177432
10
#177648
00
#177672
01
#177744
10
#177936
00
#177960
11
#178272
01
#178416
10
#178536
00
#178584
11
#178632
10
#178656
b10100010 B
#178848
00
#178872
01
#178944
10
#179136
00
#179160
11
#179232
10
#179448
00
#179472
01
#179544
10
#179736
00
#179832
10
#180048
00
#180144
10
#180336
00
#180360
11
#180432
10
#180648
00
#180672
01
#180744
10
#180936
00
#180960
11
#181344
01
#181392
10
#181536
00
#181632
10
#181656
b01100111 B
#181848
00
#181872
11
#181944
10
#182136
00
#182232
10
#182448
00
#182472
01
#182544
10
#182736
00
#182832
10
#183048
00
#183072
11
#183144
10
#183336
00
#183432
10
#183648
00
#183744
10
#183936
00
#184488
01
#184536
10
#184728
00
#184848
10
#184872
bxxxxxxxx B
#185040
11
#185232
01
bxxxxxxxx B
#185328
00
#185400
11
#185448
10
#185472
b11010000 B
#185640
00
#185736
10
#185928
00
#185952
01
#186048
10
#186240
00
#186288
11
#186336
10
#186528
00
#186552
01
#186648
10
#186840
00
#186936
10
#187128
00
#187248
10
#187440
00
#187536
10
#187728
00
#187776
11
#188064
01
#188208
10
#188328
00
#188400
11
#188448
10
#188472
b10100010 B
#188640
00
#188664
01
#188736
10
#188928
00
#188976
11
#189048
10
#189240
00
#189264
01
#189336
10
#189528
00
#189648
10
#189840
00
#189936
10
#190128
00
#190176
11
#190248
10
#190440
00
#190464
01
#190536
10
#190728
00
#190776
11
#191160
01
#191184
10
#191328
00
#191448
10
#191472
b01001000 B
#191640
00
#191664
11
#191736
10
#191928
00
#191952
01
#192048
10
#192240
00
#192336
10
#192528
00
#192576
11
#192648
10
#192840
00
#192864
01
#192936
10
#193128
00
#193248
10
#193440
00
#193536
10
#193728
00
#193776
11
#194304
01
#194352
10
#194544
00
#194640
10
#194664
b01111111 B
#194832
11
#197136
00
01
#197160
10
11
#203928
00
01
#203952
10
11
#221592
00
01
#221616
10
11
#232464
00
01
#232488
10
11
#243336
00
01
#243360
10
11
#261000
00
01
#261024
10
11
#271872
00
01
#271896
10
11
#282744
00
01
#282768
10
11
#304488
00
01
#304512
10
11
#304536
bxxxxxxxx B
#322152
00
01
#322176
10
11
#333024
00
01
#333048
10
11
#343896
00
01
#343920
10
11
#354912
01
bxxxxxxxx B
#355008
00
#355080
11
#355128
10
#355152
b11010010 B
#355320
00
#355416
10
#355608
00
#355656
01
#355728
10
#355920
00
#355944
11
#356016
10
#356208
00
#356256
01
#356328
10
#356520
00
#356616
10
#356808
00
#356856
11
#356928
10
#357120
00
#357144
01
#357216
10
#357408
00
#357456
11
#357744
01
#357888
10
#358008
00
#358080
11
#358128
10
#358152
b10100010 B
#358320
00
#358344
01
#358416
10
#358608
00
#358656
11
#358728
10
#358920
00
#358944
01
#359016
10
#359208
00
#359328
10
#359520
00
#359616
10
#359808
00
#359856
11
#359928
10
#360120
00
#360144
01
#360216
10
#360408
00
#360456
11
#360840
01
#360864
10
#361008
00
#361128
10
#361152
b00110010 B
#361320
00
#361416
10
#361608
00
#361656
11
#361728
10
#361920
00
#362016
10
#362208
00
#362256
01
#362328
10
#362520
00
#362616
10
#362808
00
#362856
11
#362928
10
#363120
00
#363144
01
#363216
10
#363408
00
#363456
11
#363984
01
#364032
10
#364224
00
#364320
10
#364344
bxxxxxxxx B
#364512
11
#364728
01
bxxxxxxxx B
#364824
00
#364896
11
#364920
10
#364944
b11010100 B
#365112
00
#365232
10
#365424
00
#365448
01
#365520
10
#365712
00
#365736
11
#365832
10
#366024
00
#366048
01
#366120
10
#366312
00
#366336
11
#366408
10
#366624
00
#366648
01
#366720
10
#366912
00
#367008
10
#367224
00
#367248
11
#367536
01
#367680
10
#367824
00
#367872
11
#367920
10
#367944
b10100010 B
#368112
00
#368136
01
#368208
10
#368424
00
#368448
11
#368520
10
#368712
00
#368736
01
#368808
10
#369024
00
#369120
10
#369312
00
#369408
10
#369624
00
#369648
11
#369720
10
#369912
00
#369936
01
#370008
10
#370224
00
#370248
11
#370632
01
#370680
10
#370824
00
#370920
10
#370944
b00110010 B
#371112
00
#371208
10
#371424
00
#371448
11
#371520
10
#371712
00
#371808
10
#372024
00
#372048
01
#372120
10
#372312
00
#372408
10
#372624
00
#372648
11
#372720
10
#372912
00
#372936
01
#373008
10
#373224
00
#373248
11
#373776
01
#373824
10
#374016
00
#374112
10
#374136
bxxxxxxxx B
#374328
11
#374520
01
bxxxxxxxx B
#374616
00
#374688
11
#374712
10
#374736
b11010110 B
#374928
00
#375024
10
#375216
00
#375240
01
#375312
10
#375528
00
#375552
11
#375624
10
#375816
00
#375840
01
#375912
10
#376128
00
#376152
11
#376224
10
#376416
00
#376512
10
#376728
00
#376752
01
#376824
10
#377016
00
#377040
11
#377352
01
#377496
10
#377616
00
#377664
11
#377712
10
#377736
b10100010 B
#377904
00
#377952
01
#378024
10
#378216
00
#378240
11
#378312
10
#378504
00
#378552
01
#378624
10
#378816
00
#378912
10
#379104
00
#379248
10
#379416
00
#379440
11
#379512
10
#379704
00
#379752
01
#379824
10
#380016
00
#380040
11
#380424
01
#380472
10
#380616
00
#380712
10
#380736
b01101010 B
#380904
00
#380952
11
#381024
10
#381216
00
#381312
10
#381504
00
#381552
01
#381624
10
#381816
00
#381840
11
#381912
10
#382104
00
#382152
01
#382224
10
#382416
00
#382440
11
#382512
10
#382704
00
#382752
01
#382824
10
#383016
00
#383040
11
#383568
01
#383616
10
#383808
00
#383928
10
#383952
bxxxxxxxx B
#384120
11
#384312
01
bxxxxxxxx B
#384408
00
#384480
11
#384528
10
#384552
b11010000 B
#384720
00
#384816
10
#385008
00
#385032
01
#385128
10
#385320
00
#385344
11
#385416
10
#385608
00
#385632
01
#385728
10
#385920
00
#386016
10
#386208
00
#386328
10
#386520
00
#386616
10
#386808
00
#386856
11
#387144
01
#387288
10
#387408
00
#387480
11
#387528
10
#387552
b10100010 B
#387720
00
#387744
01
#387816
10
#388008
00
#388056
11
#388128
10
#388320
00
#388344
01
#388416
10
#388608
00
#388728
10
#388920
00
#389016
10
#389208
00
#389256
11
#389328
10
#389520
00
#389544
01
#389616
10
#389808
00
#389856
11
#390096
01
#390120
11
#390216
01
#390264
10
#390408
00
#390528
10
#390552
b01000011 B
#390720
00
#390744
11
#390816
10
#391008
00
#391032
01
#391128
10
#391320
00
#391416
10
#391608
00
#391728
10
#391920
00
#392016
10
#392208
00
#392256
11
#392328
10
#392520
00
#392616
10
#392808
00
#393384
01
#393432
10
#393624
00
#393720
10
#393744
bxxxxxxxx B
#393912
11
#396888
00
01
#396912
10
11
#418632
00
01
#418656
10
11
#468912
00
01
#468936
10
11
#479784
00
01
#479808
10
11
#540936
00
01
#540960
10
11
#559104
01
bxxxxxxxx B
#559200
00
#559272
11
#559296
10
#559320
b11010010 B
#559488
00
#559608
10
#559800
00
#559824
01
#559896
10
#560088
00
#560136
11
#560208
10
#560400
00
#560424
01
#560496
10
#560688
00
#560808
10
#561000
00
#561024
11
#561096
10
#561288
00
#561312
01
#561408
10
#561600
00
#561624
11
#561912
01
#562056
10
#562200
00
#562248
11
#562296
10
#562320
b10100010 B
#562488
00
#562512
01
#562608
10
#562800
00
#562824
11
#562896
10
#563088
00
#563112
01
#563208
10
#563400
00
#563496
10
#563688
00
#563808
10
#564000
00
#564024
11
#564096
10
#564288
00
#564312
01
#564408
10
#564600
00
#564624
11
#565008
01
#565056
10
#565200
00
#565296
10
#565320
b00110010 B
#565488
00
#565608
10
#565800
00
#565824
11
#565896
10
#566088
00
#566208
10
#566400
00
#566424
01
#566496
10
#566688
00
#566808
10
#567000
00
#567024
11
#567096
10
#567288
00
#567312
01
#567408
10
#567600
00
#567624
11
#568152
01
#568200
10
#568392
00
#568488
10
#568512
bxxxxxxxx B
#568704
11
#568896
01
bxxxxxxxx B
#568992
00
#569064
11
#569088
10
#569112
b11010100 B
#569304
00
#569400
10
#569592
00
#569616
01
#569688
10
#569904
00
#569928
11
#570000
10
#570192
00
#570216
01
#570288
10
#570504
00
#570528
11
#570600
10
#570792
00
#570816
01
#570888
10
#571104
00
#571200
10
#571392
00
#571416
11
#571728
01
#571872
10
#571992
00
#572040
11
#572088
10
#572112
b10100010 B
#572304
00
#572328
01
#572400
10
#572592
00
#572616
11
#572688
10
#572904
00
#572928
01
#573000
10
#573192
00
#573288
10
#573504
00
#573600
10
#573792
00
#573816
11
#573888
10
#574104
00
#574128
01
#574200
10
#574392
00
#574416
11
#574800
01
#574848
10
#574992
00
#575088
10
#575112
b00110010 B
#575304
00
#575400
10
#575592
00
#575616
11
#575688
10
#575904
00
#576000
10
#576192
00
#576216
01
#576288
10
#576504
00
#576600
10
#576792
00
#576816
11
#576888
10
#577104
00
#577128
01
#577200
10
#577392
00
#577416
11
#577944
01
#577992
10
#578184
00
#578304
10
#578328
bxxxxxxxx B
#578496
11
#578688
01
bxxxxxxxx B
#578784
00
#578856
11
#578904
10
#578928
b11010110 B
#579096
00
#579192
10
#579384
00
#579432
01
#579504
10
#579696
00
#579720
11
#579792
10
#579984
00
#580032
01
#580104
10
#580296
00
#580320
11
#580392
10
#580584
00
#580704
10
#580896
00
#580920
01
#580992
10
#581184
00
#581232
11
#581520
01
#581664
10
#581784
00
#581856
11
#581904
10
#581928
b10100010 B
#582096
00
#582120
01
#582192
10
#582384
00
#582432
11
#582504
10
#582696
00
#582720
01
#582792
10
#582984
00
#583104
10
#583296
00
#583392
10
#583584
00
#583632
11
#583704
10
#583896
00
#583920
01
#583992
10
#584184
00
#584232
11
#584424
01
#584448
11
#584616
01
#584664
10
#584784
00
#584904
10
#584928
b01100010 B
#585096
00
#585120
11
#585192
10
#585384
00
#585504
10
#585696
00
#585720
01
#585792
10
#585984
00
#586104
10
#586296
00
#586392
10
#586584
00
#586632
11
#586704
10
#586896
00
#586920
01
#586992
10
#587184
00
#587232
11
#587760
01
#587808
10
#588000
00
#588096
10
#588120
bxxxxxxxx B
#588288
11
#588504
01
bxxxxxxxx B
#588600
00
#588672
11
#588696
10
#588720
b11010000 B
#588888
00
#588984
10
#589200
00
#589224
01
#589296
10
#589488
00
#589512
11
#589584
10
#589800
00
#589824
01
#589896
10
#590088
00
#590184
10
#590400
00
#590496
10
#590688
00
#590784
10
#591000
00
#591024
11
#591312
01
#591456
10
#591600
00
#591648
11
#591696
10
#591720
b10100010 B
#591888
00
#591912
01
#591984
10
#592200
00
#592224
11
#592296
10
#592488
00
#592512
01
#592584
10
#592800
00
#592896
10
#593088
00
#593184
10
#593400
00
#593424
11
#593496
10
#593688
00
#593712
01
#593784
10
#594000
00
#594024
11
#594408
01
#594456
10
#594600
00
#594696
10
#594720
b01000111 B
#594888
00
#594912
11
#594984
10
#595200
00
#595224
01
#595320
10
#595488
00
#595584
10
#595800
00
#595896
10
#596088
00
#596112
11
#596184
10
#596400
00
#596496
10
#596688
00
#596784
10
#597000
00
#597552
01
#597600
10
#597792
00
#597888
10
#597912
bxxxxxxxx B
#598104
11
#623832
00
01
#623856
10
11
#656448
00
01
#656472
10
11
#728472
00
01
#728496
10
11
#755472
01
bxxxxxxxx B
#755568
00
#755640
11
#755688
10
#755712
b11010010 B
#755880
00
#755976
10
#756168
00
#756192
01
#756288
10
#756480
00
#756504
11
#756576
10
#756768
00
#756792
01
#756888
10
#757080
00
#757176
10
#757368
00
#757416
11
#757488
10
#757680
00
#757704
01
#757776
10
#757968
00
#758016
11
#758304
01
#758448
10
#758568
00
#758640
11
#758688
10
#758712
b10100010 B
#758880
00
#758904
01
#758976
10
#759168
00
#759216
11
#759288
10
#759480
00
#759504
01
#759576
10
#759768
00
#759888
10
#760080
00
#760176
10
#760368
00
#760416
11
#760488
10
#760680
00
#760704
01
#760776
10
#760968
00
#761016
11
#761088
01
#761112
11
#761376
01
#761424
10
#761568
00
#761688
10
#761712
b00110010 B
#761880
00
#761976
10
#762168
00
#762216
11
#762288
10
#762480
00
#762576
10
#762768
00
#762792
01
#762888
10
#763080
00
#763176
10
#763368
00
#763416
11
#763488
10
#763680
00
#763704
01
#763776
10
#763968
00
#764016
11
#764544
01
#764592
10
#764784
00
#764880
10
#764904
bxxxxxxxx B
#765072
11
#765264
01
bxxxxxxxx B
#765384
00
#765456
11
#765480
10
#765504
b11010100 B
#765672
00
#765768
10
#765984
00
#766008
01
#766080
10
#766272
00
#766296
11
#766368
10
#766584
00
#766608
01
#766680
10
#766872
00
#766896
11
#766968
10
#767184
00
#767208
01
#767280
10
#767472
00
#767568
10
#767784
00
#767808
11
#768096
01
#768240
10
#768384
00
#768432
11
#768480
10
#768504
b10100010 B
#768672
00
#768696
01
#768768
10
#768984
00
#769008
11
#769080
10
#769272
00
#769296
01
#769368
10
#769584
00
#769680
10
#769872
00
#769968
10
#770184
00
#770208
11
#770280
10
#770472
00
#770496
01
#770568
10
#770784
00
#770808
11
#771192
01
#771240
10
#771384
00
#771480
10
#771504
b00110010 B
#771672
00
#771768
10
#771984
00
#772008
11
#772080
10
#772272
00
#772368
10
#772584
00
#772608
01
#772680
10
#772872
00
#772968
10
#773184
00
#773208
11
#773280
10
#773472
00
#773496
01
#773568
10
#773784
00
#773808
11
#774336
01
#774384
10
#774576
00
#774672
10
#774696
bxxxxxxxx B
#774888
11
#775080
01
bxxxxxxxx B
#775176
00
#775248
11
#775272
10
#775296
b11010110 B
#775464
00
#775584
10
#775776
00
#775800
01
#775872
10
#776064
00
#776112
11
#776184
10
#776376
00
#776400
01
#776472
10
#776664
00
#776712
11
#776784
10
#776976
00
#777072
10
#777264
00
#777288
01
#777384
10
#777576
00
#777600
11
#777888
01
#778032
10
#778176
00
#778224
11
#778272
10
#778296
b10100010 B
#778464
00
#778488
01
#778584
10
#778776
00
#778800
11
#778872
10
#779064
00
#779088
01
#779184
10
#779376
00
#779472
10
#779664
00
#779784
10
#779976
00
#780000
11
#780072
10
#780264
00
#780288
01
#780384
10
#780576
00
#780600
11
#780984
01
#781032
10
#781176
00
#781272
10
#781296
b01100011 B
#781464
00
#781512
11
#781584
10
#781776
00
#781872
10
#782064
00
#782088
01
#782184
10
#782376
00
#782472
10
#782664
00
#782784
10
#782976
00
#783000
11
#783072
10
#783264
00
#783384
10
#783576
00
#784128
01
#784176
10
#784368
00
#784464
10
#784488
bxxxxxxxx B
#784680
11
#784872
01
bxxxxxxxx B
#784968
00
#785040
11
#785064
10
#785088
b11010000 B
#785280
00
#785376
10
#785568
00
#785592
01
#785664
10
#785880
00
#785904
11
#785976
10
#786168
00
#786192
01
#786264
10
#786480
00
#786576
10
#786768
00
#786864
10
#787080
00
#787176
10
#787368
00
#787392
11
#787704
01
#787848
10
#787968
00
#788016
11
#788064
10
#788088
b10100001 B
#788280
00
#788304
01
#788376
10
#788568
00
#788592
11
#788664
10
#788880
00
#788904
01
#788976
10
#789168
00
#789264
10
#789480
00
#789576
10
#789624
00
#789648
10
#789768
00
#789792
11
#789864
10
#790080
00
#790104
01
#790176
10
#790368
00
#790392
11
#790776
01
#790824
10
#790848
b00100101 B
#790968
00
#791064
10
#791280
00
#791304
11
#791376
10
#791568
00
#791592
01
#791664
10
#791880
00
#791976
10
#792168
00
#792192
11
#792264
10
#792480
00
#792504
01
#792576
10
#792768
00
#792792
11
#792864
10
#793080
00
#793176
10
#793368
00
#793944
01
#793992
10
#794016
bxxxxxxxx B
#794160
00
#794280
10
#794472
11
#796416
00
01
#796440
10
11
#818160
00
01
#818184
10
11
#857568
00
01
#857592
10
11
#875232
00
01
#875256
10
11
#928224
00
01
#928248
10
11
#958944
01
bxxxxxxxx B
#959064
00
#959112
11
#959160
10
#959184
b11010010 B
#959352
00
#959448
10
#959664
00
#959688
01
#959760
10
#959952
00
#959976
11
#960048
10
#960264
00
#960288
01
#960360
10
#960552
00
#960648
10
#960864
00
#960888
11
#960960
10
#961152
00
#961176
01
#961248
10
#961464
00
#961488
11
#961776
01
#961920
10
#962064
00
#962112
11
#962160
10
#962184
b10100010 B
#962352
00
#962376
01
#962448
10
#962664
00
#962688
11
#962760
10
#962952
00
#962976
01
#963048
10
#963264
00
#963360
10
#963552
00
#963648
10
#963864
00
#963888
11
#963960
10
#964152
00
#964176
01
#964248
10
#964464
00
#964488
11
#964872
01
#964920
10
#965064
00
#965160
10
#965184
b00110010 B
#965352
00
#965448
10
#965664
00
#965688
11
#965760
10
#965952
00
#966048
10
#966264
00
#966288
01
#966360
10
#966552
00
#966648
10
#966840
00
#966888
11
#966960
10
#967152
00
#967176
01
#967248
10
#967440
00
#967488
11
#968016
01
#968064
10
#968256
00
#968352
10
#968376
bxxxxxxxx B
#968544
11
#968760
01
bxxxxxxxx B
#968856
00
#968928
11
#968952
10
#968976
b11010100 B
#969144
00
#969264
10
#969456
00
#969480
01
#969552
10
#969744
00
#969792
11
#969864
10
#970056
00
#970080
01
#970152
10
#970344
00
#970392
11
#970464
10
#970656
00
#970680
01
#970752
10
#970944
00
#971064
10
#971256
00
#971280
11
#971568
01
#971712
10
#971856
00
#971904
11
#971952
10
#971976
b10100010 B
#972144
00
#972168
01
#972264
10
#972456
00
#972480
11
#972552
10
#972744
00
#972768
01
#972864
10
#973056
00
#973152
10
#973344
00
#973464
10
#973656
00
#973680
11
#973752
10
#973944
00
#973968
01
#974064
10
#974256
00
#974280
11
#974664
01
#974712
10
#974856
00
#974952
10
#974976
b00110010 B
#975144
00
#975264
10
#975456
00
#975480
11
#975552
10
#975744
00
#975864
10
#976056
00
#976080
01
#976152
10
#976344
00
#976464
10
#976656
00
#976680
11
#976752
10
#976944
00
#976968
01
#977064
10
#977256
00
#977280
11
#977808
01
#977856
10
#978048
00
#978144
10
#978168
bxxxxxxxx B
#978360
11
#978552
01
bxxxxxxxx B
#978648
00
#978720
11
#978744
10
#978768
b11010110 B
#978960
00
#979056
10
#979248
00
#979272
01
#979344
10
#979560
00
#979584
11
#979656
10
#979848
00
#979872
01
#979944
10
#980160
00
#980184
11
#980256
10
#980448
00
#980544
10
#980760
00
#980784
01
#980856
10
#981048
00
#981072
11
#981384
01
#981528
10
#981648
00
#981696
11
#981744
10
#981768
b10100010 B
#981960
00
#981984
01
#982056
10
#982248
00
#982272
11
#982344
10
#982560
00
#982584
01
#982656
10
#982848
00
#982944
10
#983160
00
#983256
10
#983448
00
#983472
11
#983544
10
#983760
00
#983784
01
#983856
10
#984048
00
#984072
11
#984456
01
#984504
10
#984648
00
#984744
10
#984768
b01100100 B
#984960
00
#984984
11
#985056
10
#985248
00
#985344
10
#985560
00
#985584
01
#985656
10
#985848
00
#985944
10
#986160
00
#986184
11
#986256
10
#986448
00
#986472
01
#986544
10
#986760
00
#986856
10
#987048
00
#987072
11
#987600
01
#987648
10
#987840
00
#987960
10
#987984
bxxxxxxxx B
#988152
11
#988344
01
bxxxxxxxx B
#988440
00
#988512
11
#988560
10
#988584
b11010000 B
#988752
00
#988848
10
#989040
00
#989088
01
#989160
10
#989352
00
#989376
11
#989448
10
#989640
00
#989688
01
#989760
10
#989952
00
#990048
10
#990240
00
#990360
10
#990552
00
#990648
10
#990840
00
#990888
11
#991176
01
#991320
10
#991440
00
#991512
11
#991560
10
#991584
b10100010 B
#991752
00
#991776
01
#991848
10
#992040
00
#992088
11
#992160
10
#992352
00
#992376
01
#992448
10
#992640
00
#992760
10
#992952
00
#993048
10
#993240
00
#993288
11
#993360
10
#993552
00
#993576
01
#993648
10
#993840
00
#993888
11
#994272
01
#994320
10
#994440
00
#994560
10
#994584
b01001101 B
#994752
00
#994776
11
#994848
10
#995040
00
#995064
01
#995160
10
#995352
00
#995448
10
#995640
00
#995688
11
#995760
10
#995952
00
#996048
10
#996240
00
#996264
01
#996360
10
#996552
00
#996576
11
#996648
10
#996840
00
#997416
01
#997464
10
#997656
00
#997752
10
#997776
bxxxxxxxx B
#997944
11
#1084488
00
01
#1084512
10
11
#1095360
00
01
#1095384
10
11
#1119816
00
01
#1119840
10
11
#1162440
01
bxxxxxxxx B
#1162536
00
#1162608
11
#1162632
10
#1162656
b11010010 B
#1162824
00
#1162944
10
#1163136
00
#1163160
01
#1163232
10
#1163424
00
#1163472
11
#1163544
10
#1163736
00
#1163760
01
#1163832
10
#1164024
00
#1164144
10
#1164336
00
#1164360
11
#1164432
10
#1164624
00
#1164648
01
#1164744
10
#1164936
00
#1164960
11
#1165248
01
#1165392
10
#1165536
00
#1165584
11
#1165632
10
#1165656
b10010001 B
#1165824
00
#1165848
01
#1165944
10
#1166016
00
#1166040
10
#1166136
00
#1166160
11
#1166232
10
#1166424
00
#1166448
01
#1166544
10
#1166736
00
#1166832
10
#1167024
00
#1167144
10
#1167336
00
#1167360
11
#1167432
10
#1167624
00
#1167648
01
#1167744
10
#1167936
00
#1167960
11
#1168344
01
#1168392
10
#1168416
b00011001 B
#1168536
00
#1168632
10
#1168824
00
#1168944
10
#1169136
00
#1169160
11
#1169232
10
#1169424
00
#1169544
10
#1169736
00
#1169760
01
#1169832
10
#1170024
00
#1170144
10
#1170336
00
#1170360
11
#1170432
10
#1170624
00
#1170648
01
#1170744
10
#1170936
00
#1170960
11
#1171488
01
#1171536
10
#1171560
bxxxxxxxx B
#1171728
00
#1171824
10
#1172040
11
#1172232
01
bxxxxxxxx B
#1172328
00
#1172400
11
#1172424
10
#1172448
b11101010 B
#1172640
00
#1172736
10
#1172808
00
01
#1172832
10
11
#1172928
00
#1172952
01
#1173024
10
#1173240
00
#1173264
11
#1173336
10
#1173528
00
#1173552
01
#1173624
10
#1173840
00
#1173864
11
#1173936
10
#1174128
00
#1174152
01
#1174224
10
#1174440
00
#1174536
10
#1174728
00
#1174752
11
#1175064
01
#1175208
10
#1175232
b01010001 B
#1175328
00
#1175376
11
#1175424
10
#1175640
00
#1175664
01
#1175736
10
#1175928
00
#1175952
11
#1176024
10
#1176240
00
#1176264
01
#1176336
10
#1176528
00
#1176624
10
#1176840
00
#1176936
10
#1177128
00
#1177152
11
#1177224
10
#1177440
00
#1177464
01
#1177536
10
#1177728
00
#1177752
11
#1178136
01
#1178184
10
#1178208
b00011001 B
#1178328
00
#1178424
10
#1178640
00
#1178736
10
#1178928
00
#1178952
11
#1179024
10
#1179240
00
#1179336
10
#1179528
00
#1179552
01
#1179624
10
#1179840
00
#1179936
10
#1180128
00
#1180152
11
#1180224
10
#1180440
00
#1180464
01
#1180536
10
#1180728
00
#1180752
11
#1181280
01
#1181328
10
#1181352
bxxxxxxxx B
#1181520
00
#1181640
10
#1181832
11
#1182024
01
bxxxxxxxx B
#1182120
00
#1182192
11
#1182240
10
#1182264
b11010111 B
#1182432
00
#1182528
10
#1182720
00
#1182744
01
#1182840
10
#1183032
00
#1183056
11
#1183128
10
#1183320
00
#1183344
01
#1183440
10
#1183632
00
#1183656
11
#1183680
10
#1183704
00
#1183728
10
#1183920
00
#1184040
10
#1184232
00
#1184256
01
#1184328
10
#1184520
00
#1184568
11
#1184856
01
#1185000
10
#1185024
b01010001 B
#1185120
00
#1185192
11
#1185240
10
#1185432
00
#1185456
01
#1185528
10
#1185720
00
#1185768
11
#1185840
10
#1186032
00
#1186056
01
#1186128
10
#1186320
00
#1186440
10
#1186632
00
#1186728
10
#1186920
00
#1186968
11
#1187040
10
#1187232
00
#1187256
01
#1187328
10
#1187520
00
#1187568
11
#1187952
01
#1188000
10
#1188024
b00110010 B
#1188120
00
#1188240
10
#1188432
00
#1188456
11
#1188528
10
#1188720
00
#1188840
10
#1189032
00
#1189056
01
#1189128
10
#1189320
00
#1189440
10
#1189632
00
#1189656
11
#1189728
10
#1189920
00
#1189944
01
#1190040
10
#1190232
00
#1190256
11
#1190328
10
#1190472
00
01
#1190496
10
11
#1190520
00
bxxxxxxxx B
#1191096
01
#1191144
10
#1191336
00
#1191384
11
#1193472
01
#1193520
10
#1193736
11
#1193928
01
bxxxxxxxx B
#1194024
00
#1194096
11
#1194120
10
#1194144
b11010000 B
#1194336
00
#1194432
10
#1194624
00
#1194648
01
#1194720
10
#1194936
00
#1194960
11
#1195032
10
#1195224
00
#1195248
01
#1195320
10
#1195536
00
#1195632
10
#1195824
00
#1195920
10
#1196136
00
#1196232
10
#1196424
00
#1196448
11
#1196760
01
#1196904
10
#1197024
00
#1197072
11
#1197120
10
#1197144
b10100010 B
#1197336
00
#1197360
01
#1197432
10
#1197624
00
#1197648
11
#1197720
10
#1197936
00
#1197960
01
#1198032
10
#1198224
00
#1198320
10
#1198536
00
#1198632
10
#1198824
00
#1198848
11
#1198920
10
#1199136
00
#1199160
01
#1199232
10
#1199424
00
#1199448
11
#1199832
01
#1199880
10
#1200024
00
#1200120
10
#1200144
b01000100 B
#1200336
00
#1200360
11
#1200432
10
#1200624
00
#1200648
01
#1200720
10
#1200936
00
#1201032
10
#1201224
00
#1201320
10
#1201536
00
#1201560
11
#1201632
10
#1201824
00
#1201848
01
#1201920
10
#1202136
00
#1202232
10
#1202424
00
#1202448
11
#1202976
01
#1203024
10
#1203216
00
#1203336
10
#1203360
bxxxxxxxx B
#1203528
11
#1212216
00
01
#1212240
10
11
#1219008
00
01
#1219032
10
11
#1229880
00
01
#1229904
10
11
#1240752
00
01
#1240776
10
11
#1251624
00
01
#1251648
10
11
#1258416
00
01
#1258440
10
11
#1262496
01
bxxxxxxxx B
#1262520
11
#1280160
00
01
#1280184
10
11
#1280208
bxxxxxxxx B
#1293744
00
01
#1293768
10
11
#1297824
00
01
#1297848
10
11
#1326360
00
01
#1326384
10
11
#1337232
00
01
#1337256
10
11
#1344024
00
01
#1344048
10
11
#1365600
01
bxxxxxxxx B
#1365720
00
#1365768
11
#1365816
10
#1365840
b11010010 B
#1366008
00
#1366104
10
#1366320
00
#1366344
01
#1366416
10
#1366608
00
#1366632
11
#1366704
10
#1366920
00
#1366944
01
#1367016
10
#1367208
00
#1367304
10
#1367520
00
#1367544
11
#1367616
10
#1367808
00
#1367832
01
#1367904
10
#1368120
00
#1368144
11
#1368432
01
#1368576
10
#1368720
00
#1368768
11
#1368816
10
#1368840
b10100010 B
#1369008
00
#1369032
01
#1369104
10
#1369320
00
#1369344
11
#1369416
10
#1369608
00
#1369632
01
#1369704
10
#1369920
00
#1370016
10
#1370208
00
#1370304
10
#1370520
00
#1370544
11
#1370616
10
#1370808
00
#1370832
01
#1370904
10
#1371120
00
#1371144
11
#1371528
01
#1371576
10
#1371720
00
#1371816
10
#1371840
b00110010 B
#1372008
00
#1372104
10
#1372320
00
#1372344
11
#1372416
10
#1372608
00
#1372704
10
#1372896
00
#1372944
01
#1373016
10
#1373208
00
#1373304
10
#1373496
00
#1373544
11
#1373616
10
#1373808
00
#1373832
01
#1373904
10
#1374096
00
#1374144
11
#1374672
01
#1374720
10
#1374912
00
#1375008
10
