sniffer/arranque_y_frenado/frenado4.vcd
$date
  febrero 12, 2012
$end
$version
  ChronoVu LA-8 Version 3,08 
$end
$comment
  File: /home/mat/Documentos/Facultad/uquad/Sniffer_I2C/Arranque/frenado4.kdt
  from sample 0 to sample 8388607
$end
$timescale 10 ns $end
$scope module la8 $end
$var wire 1 0 SCL_(clock) $end
$var wire 1 1 SDA_(data) $end
$var wire 8 B I2C Bus $end
$upscope $end
$enddefinitions $end
$dumpvars
10
11
bxxxxxxxx B
$end
#0
10
11
bxxxxxxxx B
#7
b11111111 B
#4998
00
01
#5005
10
11
#14532
00
01
#14539
10
11
#21343
00
01
#21350
10
11
#24066
00
01
#24073
10
11
#36323
00
01
#36330
10
11
#45857
00
01
#45864
10
11
#55391
00
01
#55398
10
11
#69013
00
01
#69020
10
11
#71736
00
01
#71743
10
11
#71750
bxxxxxxxx B
#75824
01
bxxxxxxxx B
#75831
11
#81270
00
01
#81277
10
11
#81284
b11111111 B
#90804
00
01
#90811
10
11
#111237
00
01
#111244
10
11
#123494
00
01
#123501
10
11
#128940
00
01
#128947
10
11
#138474
00
01
#138481
10
11
#141197
00
01
#141204
10
11
#149366
00
01
#149373
10
11
#152089
00
01
#152096
10
11
#161623
00
01
#161630
10
11
#161637
b11111111 B
#165711
00
01
#165718
10
11
#168434
00
01
#168441
10
11
#172522
00
01
#172529
10
11
#175245
00
01
#175252
10
11
#179333
00
01
#179340
10
11
#188867
00
01
#188874
10
11
#191590
00
01
#191597
10
11
#207935
00
01
#207942
10
11
#214746
00
01
#214753
10
11
#214760
b11111111 B
#224280
00
#224287
10
#248794
00
01
#248801
10
11
#255605
00
01
#255612
10
11
#265139
00
01
#265146
10
11
#271950
00
01
#271957
10
11
#278761
00
01
#278768
10
11
#295106
00
01
#295113
10
11
#322350
00
01
#322357
10
11
#323715
00
01
#323722
10
11
#323729
b11111111 B
#342783
00
01
#342790
10
11
#345506
00
01
#345513
10
11
#367297
00
01
#367304
10
11
#375466
00
01
#375473
10
11
#379554
00
01
#379561
10
11
#389088
00
01
#389095
10
11
#395899
00
01
#395906
10
11
#399987
00
01
#399994
10
11
#410886
00
01
#410893
10
11
#410900
b11111111 B
#414974
00
01
#414981
10
11
#421785
00
01
#421792
10
11
#423150
00
01
#423157
10
11
#425873
00
01
#425880
10
11
#438130
00
01
#438137
10
11
#443583
00
01
#443590
10
11
#446306
00
01
#446313
10
11
#449029
00
01
#449036
10
11
#453117
00
01
#453124
10
11
#453131
b11111111 B
#457205
00
01
#457212
10
11
#459928
00
01
#459935
10
11
#466739
00
01
#466746
10
11
#468097
00
01
#468104
10
11
#469462
00
01
#469469
10
11
#474908
00
01
#474915
10
11
#478996
00
01
#479003
10
11
#481719
00
01
#481726
10
11
#489888
00
01
#489895
10
11
#489902
bxxxxxxxx B
#491253
01
bxxxxxxxx B
#491260
11
#493976
00
01
#493983
10
11
#493990
b11111111 B
#499422
00
01
#499429
10
11
#500787
00
01
#500794
10
11
#503510
00
01
#503517
10
11
#513044
00
01
#513051
10
11
#514409
00
01
#514416
10
11
#526666
00
01
#526673
10
11
#529389
00
01
#529396
10
11
#536200
00
01
#536207
10
11
#538923
00
01
#538930
10
11
#538937
b11111111 B
#540288
00
#540295
10
#545734
00
01
#545741
10
11
#556633
00
01
#556640
10
11
#559356
00
01
#559363
10
11
#566167
00
01
#566174
10
11
#571613
00
01
#571620
10
11
#572978
00
01
#572985
10
11
#575701
00
01
#575708
10
11
#585235
00
01
#585242
10
11
#585249
b11111111 B
#586600
00
01
#586607
10
11
#587958
00
01
#587965
10
11
#589323
00
01
#589330
10
11
#590681
00
01
#590688
10
11
#594769
00
01
#594776
10
11
#600215
00
01
#600222
10
11
#601580
00
01
#601587
10
11
#607026
00
01
#607033
10
11
#619283
00
01
#619290
10
11
#619297
b11111111 B
#628817
00
01
#628824
10
11
#638351
00
01
#638358
10
11
#641074
00
01
#641081
10
11
#643797
00
01
#643804
10
11
#650608
00
01
#650615
10
11
#660142
00
01
#660149
10
11
#664230
00
01
#664237
10
11
#666953
00
01
#666960
10
11
#676487
00
01
#676494
10
11
#676501
b11111111 B
#681933
00
01
#681940
10
11
#686021
00
01
#686028
10
11
#698278
00
01
#698285
10
11
#705089
00
01
#705096
10
11
#714623
00
01
#714630
10
11
#724157
00
01
#724164
10
11
#736414
00
01
#736421
10
11
#739137
00
01
#739144
10
11
#750036
00
01
#750043
10
11
#750050
b11111111 B
#774557
00
01
#774564
10
11
#784091
00
01
#784098
10
11
#792267
00
01
#792274
10
11
#799078
00
01
#799085
10
11
#808612
00
01
#808619
10
11
#816788
00
01
#816795
10
11
#826322
00
01
#826329
10
11
#831768
00
01
#831775
10
11
#835856
00
01
#835863
10
11
#835870
b11111111 B
#838579
00
01
#838586
10
11
#841302
00
01
#841309
10
11
#852201
00
01
#852208
10
11
#861735
00
01
#861742
10
11
#872634
00
01
#872641
10
11
#884891
00
01
#884898
10
11
#887614
00
01
#887621
10
11
#894425
00
01
#894432
10
11
#903959
00
01
#903966
10
11
#903973
b11111111 B
#910770
00
01
#910777
10
11
#929838
00
01
#929845
10
11
#932561
00
01
#932568
10
11
#939372
00
01
#939379
10
11
#954352
00
01
#954359
10
11
#965251
00
01
#965258
10
11
#970697
00
01
#970704
10
11
#973420
00
01
#973427
10
11
#980231
00
01
#980238
10
11
#980245
b11111111 B
#992488
00
01
#992495
10
11
#1010191
00
01
#1010198
10
11
#1017002
00
01
#1017009
10
11
#1034705
00
01
#1034712
10
11
#1049685
00
01
#1049692
10
11
#1059219
00
01
#1059226
10
11
#1085098
00
01
#1085105
10
11
#1106889
00
01
#1106896
10
11
#1119146
00
01
#1119153
10
11
#1119160
b11111111 B
#1125957
00
01
#1125964
10
11
#1155917
00
01
#1155924
10
11
#1168174
00
01
#1168181
10
11
#1170897
00
01
#1170904
10
11
#1188600
00
01
#1188607
10
11
#1202222
00
01
#1202229
10
11
#1207668
00
01
#1207675
10
11
#1217202
00
01
#1217209
10
11
#1230824
00
01
#1230831
10
11
#1230838
b11111111 B
#1233547
00
01
#1233554
10
11
#1240358
00
01
#1240365
10
11
#1247169
00
01
#1247176
10
11
#1253980
00
01
#1253987
10
11
#1258068
00
01
#1258075
10
11
#1260791
00
01
#1260798
10
11
#1267602
00
01
#1267609
10
11
#1278501
00
01
#1278508
10
11
#1286677
00
01
#1286684
10
11
#1286691
b11111111 B
#1298934
00
01
#1298941
10
11
#1305745
00
01
#1305752
10
11
#1318002
00
01
#1318009
10
11
#1324813
00
01
#1324820
10
11
#1330259
00
01
#1330266
10
11
#1334347
00
01
#1334354
10
11
#1346604
00
01
#1346611
10
11
#1356138
00
01
#1356145
10
11
#1362949
00
01
#1362956
10
11
#1362963
b11111111 B
#1375206
00
01
#1375213
10
11
#1382017
00
01
#1382024
10
11
#1384740
00
01
#1384747
10
11
#1396997
00
01
#1397004
10
11
#1399720
00
01
#1399727
10
11
#1411977
00
01
#1411984
10
11
#1418788
00
01
#1418795
10
11
#1421511
00
01
#1421518
10
11
#1424234
00
01
#1424241
10
11
#1424248
b11111111 B
#1425599
00
01
#1425606
10
11
#1431045
00
01
#1431052
10
11
#1440579
00
01
#1440586
10
11
#1444667
00
01
#1444674
10
11
#1446032
00
#1446039
10
#1447390
00
01
#1447397
10
11
#1467823
00
01
#1467830
10
11
#1470546
00
01
#1470553
10
11
#1473269
00
01
#1473276
10
11
#1473283
b11111111 B
#1474634
00
01
#1474641
10
11
#1475992
00
01
#1475999
10
11
#1477357
00
01
#1477364
10
11
#1480080
00
01
#1480087
10
11
#1486891
00
01
#1486898
10
11
#1492337
00
01
#1492344
10
11
#1495060
00
01
#1495067
10
11
#1496425
00
01
#1496432
10
11
#1511405
00
01
#1511412
10
11
#1511419
b11111111 B
#1516851
00
01
#1516858
10
11
#1526385
00
01
#1526392
10
11
#1533196
00
01
#1533203
10
11
#1548176
00
01
#1548183
10
11
#1560433
00
01
#1560440
10
11
#1561798
00
01
#1561805
10
11
#1564521
00
01
#1564528
10
11
#1567244
00
01
#1567251
10
11
#1569967
00
01
#1569974
10
11
#1569981
b11111111 B
#1571332
00
01
#1571339
10
11
#1574055
00
01
#1574062
10
11
#1589035
00
01
#1589042
10
11
#1594481
00
01
#1594488
10
11
#1595846
00
01
#1595853
10
11
#1598569
00
01
#1598576
10
11
#1608103
00
01
#1608110
10
11
#1610826
00
01
#1610833
10
11
#1612191
00
01
#1612198
10
11
#1612205
b11111111 B
#1614914
00
01
#1614921
10
11
#1620360
00
01
#1620367
10
11
#1624448
00
01
#1624455
10
11
#1629894
00
01
#1629901
10
11
#1636705
00
01
#1636712
10
11
#1639428
00
01
#1639435
10
11
#1642151
00
01
#1642158
10
11
#1644874
00
01
#1644881
10
11
#1650320
00
01
#1650327
10
11
#1650334
b11111111 B
#1654408
00
01
#1654415
10
11
#1657131
00
01
#1657138
10
11
#1661219
00
01
#1661226
10
11
#1663942
00
01
#1663949
10
11
#1668030
00
01
#1668037
10
11
#1670753
00
01
#1670760
10
11
#1677564
00
01
#1677571
10
11
#1687098
00
01
#1687105
10
11
#1691186
00
01
#1691193
10
11
#1691200
b11111111 B
#1693909
00
01
#1693916
10
11
#1696632
00
01
#1696639
10
11
#1702078
00
#1702085
10
#1719781
00
01
#1719788
10
11
#1723869
00
01
#1723876
10
11
#1730680
00
01
#1730687
10
11
#1740214
00
01
#1740221
10
11
#1748390
00
01
#1748397
10
11
#1757924
00
01
#1757931
10
11
#1757938
b11111111 B
#1762012
00
01
#1762019
10
11
#1767458
00
01
#1767465
10
11
#1774269
00
01
#1774276
10
11
#1778357
00
01
#1778364
10
11
#1781080
00
01
#1781087
10
11
#1794702
00
01
#1794709
10
11
#1800148
00
01
#1800155
10
11
#1812405
00
01
#1812412
10
11
#1816493
00
01
#1816500
10
11
#1816507
b11111111 B
#1830108
00
01
#1830115
10
11
#1836919
00
01
#1836926
10
11
#1846453
00
01
#1846460
10
11
#1861433
00
01
#1861440
10
11
#1870967
00
01
#1870974
10
11
#1900934
00
01
#1900941
10
11
#1913191
00
01
#1913198
10
11
#1940428
00
01
#1940435
10
11
#1943151
00
01
#1943158
10
11
#1943165
b11111111 B
#1947239
00
01
#1947246
10
11
#1954050
00
01
#1954057
10
11
#1963584
00
01
#1963591
10
11
#1966307
00
01
#1966314
10
11
#1971753
00
01
#1971760
10
11
#1975841
00
01
#1975848
10
11
#1985375
00
01
#1985382
10
11
#1992186
00
01
#1992193
10
11
#1994909
00
01
#1994916
10
11
#1994923
b11111111 B
#2001720
00
01
#2001727
10
11
#2013977
00
01
#2013984
10
11
#2016700
00
01
#2016707
10
11
#2038491
00
01
#2038498
10
11
#2041214
00
01
#2041221
10
11
#2056194
00
01
#2056201
10
11
#2060282
00
01
#2060289
10
11
#2065728
00
01
#2065735
10
11
#2077985
00
01
#2077992
10
11
#2077999
b11111111 B
#2090242
00
#2090249
10
#2132466
00
01
#2132473
10
11
#2140635
00
01
#2140642
10
11
#2144723
00
01
#2144730
10
11
#2154257
00
01
#2154264
10
11
#2169237
00
01
#2169244
10
11
#2178771
00
01
#2178778
10
11
#2207373
00
01
#2207380
10
11
#2216907
00
01
#2216914
10
11
#2216921
b11111111 B
#2223718
00
01
#2223725
10
11
#2237340
00
01
#2237347
10
11
#2246874
00
01
#2246881
10
11
#2250962
00
01
#2250969
10
11
#2259138
00
01
#2259145
10
11
#2261861
00
01
#2261868
10
11
#2265949
00
01
#2265956
10
11
#2268672
00
01
#2268679
10
11
#2272760
00
01
#2272767
10
11
#2272774
b11111111 B
#2275483
00
01
#2275490
10
11
#2279571
00
01
#2279578
10
11
#2301362
00
01
#2301369
10
11
#2304085
00
01
#2304092
10
11
#2306808
00
01
#2306815
10
11
#2313619
00
01
#2313626
10
11
#2319065
00
01
#2319072
10
11
#2321788
00
01
#2321795
10
11
#2325876
00
01
#2325883
10
11
#2325890
b11111111 B
#2338133
00
01
#2338140
10
11
#2343579
00
01
#2343586
10
11
#2346302
00
01
#2346309
10
11
#2385803
00
01
#2385810
10
11
#2391249
00
01
#2391256
10
11
#2403506
00
01
#2403513
10
11
#2406229
00
01
#2406236
10
11
#2407594
00
01
#2407601
10
11
#2418486
00
01
#2418493
10
11
#2418500
b11111111 B
#2419851
00
01
#2419858
10
11
#2422574
00
01
#2422581
10
11
#2425297
00
01
#2425304
10
11
#2426662
00
01
#2426669
10
11
#2432108
00
01
#2432115
10
11
#2436196
00
01
#2436203
10
11
#2438919
00
01
#2438926
10
11
#2441642
00
01
#2441649
10
11
#2443007
00
01
#2443014
10
11
#2443021
b11111111 B
#2452541
00
01
#2452548
10
11
#2455264
00
01
#2455271
10
11
#2459352
00
01
#2459359
10
11
#2463440
00
01
#2463447
10
11
#2468886
00
01
#2468893
10
11
#2470251
00
01
#2470258
10
11
#2478420
00
01
#2478427
10
11
#2479785
00
01
#2479792
10
11
#2493407
00
01
#2493414
10
11
#2493421
b11111111 B
#2496130
00
01
#2496137
10
11
#2498853
00
#2498860
10
#2501576
00
01
#2501583
10
11
#2502941
00
01
#2502948
10
11
#2515198
00
01
#2515205
10
11
#2517921
00
01
#2517928
10
11
#2522009
00
01
#2522016
10
11
#2524732
00
01
#2524739
10
11
#2531543
00
01
#2531550
10
11
#2531557
b11111111 B
#2543807
00
01
#2543814
10
11
#2546530
00
01
#2546537
10
11
#2556064
00
#2556071
10
#2560152
00
01
#2560159
10
11
#2562875
00
01
#2562882
10
11
#2564240
00
01
#2564247
10
11
#2566963
00
01
#2566970
10
11
#2569686
00
01
#2569693
10
11
#2579220
00
01
#2579227
10
11
#2579234
bxxxxxxxx B
#2580585
00
01
#2580592
10
11
#2583308
01
bxxxxxxxx B
#2583315
11
#2587396
00
01
#2587403
10
11
#2587410
b11111111 B
#2590119
00
01
#2590126
10
11
#2594207
00
01
#2594214
10
11
#2596930
00
01
#2596937
10
11
#2603741
00
01
#2603748
10
11
#2606464
00
01
#2606471
10
11
#2610552
00
01
#2610559
10
11
#2613275
00
01
#2613282
10
11
#2624174
00
01
#2624181
10
11
#2628262
00
01
#2628269
10
11
#2628276
b11111111 B
#2643242
00
01
#2643249
10
11
#2650053
00
01
#2650060
10
11
#2658229
00
01
#2658236
10
11
#2665040
00
01
#2665047
10
11
#2674574
00
01
#2674581
10
11
#2681385
00
01
#2681392
10
11
#2686831
00
01
#2686838
10
11
#2693642
00
01
#2693649
10
11
#2697730
00
01
#2697737
10
11
#2697744
b11111111 B
#2708629
00
01
#2708636
10
11
#2720886
00
01
#2720893
10
11
#2726332
00
01
#2726339
10
11
#2733143
00
01
#2733150
10
11
#2748130
00
01
#2748137
10
11
#2750853
00
01
#2750860
10
11
#2760387
00
01
#2760394
10
11
#2763110
00
01
#2763117
10
11
#2769921
00
01
#2769928
10
11
#2769935
b11111111 B
#2772644
00
01
#2772651
10
11
#2784901
00
01
#2784908
10
11
#2794435
00
01
#2794442
10
11
#2801246
00
01
#2801253
10
11
#2810780
00
01
#2810787
10
11
#2816226
00
01
#2816233
10
11
#2818949
00
01
#2818956
10
11
#2835294
00
01
#2835301
10
11
#2838017
00
01
#2838024
10
11
#2838031
b11111111 B
#2844828
00
01
#2844835
10
11
#2854362
00
01
#2854369
10
11
#2861173
00
01
#2861180
10
11
#2865261
00
01
#2865268
10
11
#2867984
00
01
#2867991
10
11
#2870707
00
01
#2870714
10
11
#2880241
00
01
#2880248
10
11
#2887052
00
#2887059
10
#2892498
00
01
#2892505
10
11
#2892512
b11111111 B
#2899309
00
01
#2899316
10
11
#2902032
00
01
#2902039
10
11
#2907478
00
01
#2907485
10
11
#2910201
00
01
#2910208
10
11
#2912924
00
01
#2912931
10
11
#2922458
00
01
#2922465
10
11
#2927904
00
01
#2927911
10
11
#2930627
00
01
#2930634
10
11
#2940161
00
01
#2940168
10
11
#2940175
b11111111 B
#2946972
00
01
#2946979
10
11
#2955141
00
01
#2955148
10
11
#2964675
00
01
#2964682
10
11
#2968763
00
01
#2968770
10
11
#2991912
00
01
#2991919
10
11
#2998723
00
01
#2998730
10
11
#3002811
00
01
#3002818
10
11
#3005534
00
01
#3005541
10
11
#3012345
00
01
#3012352
10
11
#3012359
b11111111 B
#3024602
00
01
#3024609
10
11
#3034136
00
01
#3034143
10
11
#3038224
00
01
#3038231
10
11
#3040947
00
01
#3040954
10
11
#3055934
00
01
#3055941
10
11
#3072279
00
01
#3072286
10
11
#3079090
00
01
#3079097
10
11
#3084536
00
01
#3084543
10
11
#3095435
00
01
#3095442
10
11
#3095449
b11111111 B
#3098158
00
01
#3098165
10
11
#3102246
00
01
#3102253
10
11
#3109057
00
01
#3109064
10
11
#3113145
00
01
#3113152
10
11
#3122679
00
01
#3122686
10
11
#3125402
00
#3125409
10
#3134936
00
01
#3134943
10
11
#3144470
00
01
#3144477
10
11
#3148558
00
01
#3148565
10
11
#3148572
b11111111 B
#3152646
00
01
#3152653
10
11
#3159457
00
01
#3159464
10
11
#3164903
00
01
#3164910
10
11
#3175802
00
01
#3175809
10
11
#3182613
00
01
#3182620
10
11
#3189424
00
01
#3189431
10
11
#3196235
00
01
#3196242
10
11
#3227567
00
01
#3227574
10
11
#3238466
00
01
#3238473
10
11
#3238480
b11111111 B
#3248000
00
01
#3248007
10
11
#3254811
00
01
#3254818
10
11
#3261622
00
01
#3261629
10
11
#3267068
00
01
#3267075
10
11
#3271156
00
01
#3271163
10
11
#3273879
00
01
#3273886
10
11
#3276602
00
01
#3276609
10
11
#3286136
00
01
#3286143
10
11
#3297035
00
01
#3297042
10
11
#3297049
bxxxxxxxx B
#3299758
00
01
#3299765
10
11
#3306569
01
bxxxxxxxx B
#3306576
11
#3321549
00
01
#3321556
10
11
#3321563
b11111111 B
#3339252
00
01
#3339259
10
11
#3343340
00
01
#3343347
10
11
#3346063
00
01
#3346070
10
11
#3365131
00
01
#3365138
10
11
#3374665
00
01
#3374672
10
11
#3380111
00
01
#3380118
10
11
#3386922
00
01
#3386929
10
11
#3393733
00
01
#3393740
10
11
#3401902
00
01
#3401909
10
11
#3401916
b11111111 B
#3405990
00
01
#3405997
10
11
#3411436
00
01
#3411443
10
11
#3416882
00
01
#3416889
10
11
#3420970
00
01
#3420977
10
11
#3425058
00
01
#3425065
10
11
#3427781
00
01
#3427788
10
11
#3441403
00
01
#3441410
10
11
#3448214
00
01
#3448221
10
11
#3450937
00
01
#3450944
10
11
#3450951
b11111111 B
#3453660
00
#3453667
10
#3455025
00
01
#3455032
10
11
#3460471
00
01
#3460478
10
11
#3461836
00
01
#3461843
10
11
#3464559
00
01
#3464566
10
11
#3471370
00
01
#3471377
10
11
#3476816
00
01
#3476823
10
11
#3478181
00
01
#3478188
10
11
#3483627
00
#3483634
10
#3483641
b11111111 B
#3484992
00
01
#3484999
10
11
#3486350
00
01
#3486357
10
11
#3499972
00
01
#3499979
10
11
#3501337
00
01
#3501344
10
11
#3504060
00
01
#3504067
10
11
#3506783
00
01
#3506790
10
11
#3508148
00
01
#3508155
10
11
#3510871
00
01
#3510878
10
11
#3512236
00
01
#3512243
10
11
#3512250
b11111111 B
#3517682
00
01
#3517689
10
11
#3520405
00
01
#3520412
10
11
#3521770
00
#3521777
10
#3527216
00
01
#3527223
10
11
#3532662
00
01
#3532669
10
11
#3534027
00
01
#3534034
10
11
#3536750
00
01
#3536757
10
11
#3539473
00
01
#3539480
10
11
#3543561
01
bxxxxxxxx B
#3543568
11
#3549007
00
#3549014
10
#3549021
b11111111 B
#3555818
00
01
#3555825
10
11
#3558541
00
01
#3558548
10
11
#3562629
00
01
#3562636
10
11
#3568075
00
01
#3568082
10
11
#3569440
00
01
#3569447
10
11
#3572163
00
01
#3572170
10
11
#3588508
00
01
#3588515
10
11
#3595319
00
01
#3595326
10
11
#3596684
00
01
#3596691
10
11
#3596698
b11111111 B
#3602130
00
01
#3602137
10
11
#3607576
00
01
#3607583
10
11
#3611664
00
01
#3611671
10
11
#3614387
00
01
#3614394
10
11
#3628009
00
01
#3628016
10
11
#3630732
00
01
#3630739
10
11
#3637543
00
01
#3637550
10
11
#3640266
00
01
#3640273
10
11
#3649800
00
01
#3649807
10
11
#3649814
b11111111 B
#3653888
00
01
#3653895
10
11
#3660699
00
01
#3660706
10
11
#3663422
00
01
#3663429
10
11
#3667510
00
01
#3667517
10
11
#3674321
00
01
#3674328
10
11
#3681132
00
01
#3681139
10
11
#3687943
00
#3687950
10
#3697477
00
01
#3697484
10
11
#3717910
00
01
#3717917
10
11
#3717924
b11111111 B
#3721998
00
01
#3722005
10
11
#3727444
00
01
#3727451
10
11
#3734255
00
01
#3734262
10
11
#3742424
00
01
#3742431
10
11
#3746512
00
01
#3746519
10
11
#3749235
00
01
#3749242
10
11
#3756046
00
01
#3756053
10
11
#3758769
00
01
#3758776
10
11
#3762857
00
01
#3762864
10
11
#3762871
b11111111 B
#3791459
00
01
#3791466
10
11
#3803716
00
01
#3803723
10
11
#3810527
00
01
#3810534
10
11
#3820061
00
01
#3820068
10
11
#3832318
00
01
#3832325
10
11
#3841852
00
01
#3841859
10
11
#3845940
00
01
#3845947
10
11
#3855474
00
01
#3855481
10
11
#3862285
00
01
#3862292
10
11
#3862299
b11111111 B
#3865008
00
01
#3865015
10
11
#3875907
00
01
#3875914
10
11
#3890887
00
01
#3890894
10
11
#3912678
00
01
#3912685
10
11
#3918124
00
01
#3918131
10
11
#3931746
00
01
#3931753
10
11
#3941280
00
01
#3941287
10
11
#3948091
00
01
#3948098
10
11
#3950814
00
01
#3950821
10
11
#3950828
b11111111 B
#3954902
00
01
#3954909
10
11
#3957625
00
01
#3957632
10
11
#3961713
00
01
#3961720
10
11
#3975335
00
01
#3975342
10
11
#3978058
00
01
#3978065
10
11
#3987592
00
01
#3987599
10
11
#4001214
00
01
#4001221
10
11
#4010748
00
01
#4010755
10
11
#4020282
00
01
#4020289
10
11
#4020296
b11111111 B
#4033904
00
01
#4033911
10
11
#4046161
00
01
#4046168
10
11
#4050249
00
01
#4050256
10
11
#4059783
00
01
#4059790
10
11
#4065229
00
01
#4065236
10
11
#4078851
00
01
#4078858
10
11
#4091108
00
01
#4091115
10
11
#4100642
00
01
#4100649
10
11
#4103365
00
01
#4103372
10
11
#4103379
b11111111 B
#4119710
00
01
#4119717
10
11
#4125156
00
01
#4125163
10
11
#4142866
00
01
#4142873
10
11
#4149677
00
01
#4149684
10
11
#4153765
00
01
#4153772
10
11
#4156488
00
01
#4156495
10
11
#4163299
00
01
#4163306
10
11
#4170110
00
01
#4170117
10
11
#4176921
00
01
#4176928
10
11
#4176935
b11111111 B
#4185097
00
01
#4185104
10
11
#4191908
00
01
#4191915
10
11
#4198719
00
01
#4198726
10
11
#4205530
00
01
#4205537
10
11
#4224598
00
01
#4224605
10
11
#4246389
00
01
#4246396
10
11
#4249112
00
01
#4249119
10
11
#4255923
00
01
#4255930
10
11
#4265457
00
01
#4265464
10
11
#4265471
b11111111 B
#4270903
00
01
#4270910
10
11
#4287248
00
01
#4287255
10
11
#4309039
00
01
#4309046
10
11
#4311762
00
01
#4311769
10
11
#4315850
00
01
#4315857
10
11
#4328107
00
01
#4328114
10
11
#4334918
00
01
#4334925
10
11
#4341729
00
01
#4341736
10
11
#4347175
00
01
#4347182
10
11
#4347189
bxxxxxxxx B
#4353986
00
01
#4353993
10
11
#4388034
00
01
#4388041
10
11
#4392122
00
01
#4392129
10
11
#4394845
01
bxxxxxxxx B
#4394852
11
#4398933
00
01
#4398940
10
11
#4398947
b11111111 B
#4405744
00
01
#4405751
10
11
#4408467
00
01
#4408474
10
11
#4412555
00
01
#4412562
10
11
#4415278
00
01
#4415285
10
11
#4420731
00
01
#4420738
10
11
#4423454
00
01
#4423461
10
11
#4428900
00
01
#4428907
10
11
#4437069
00
01
#4437076
10
11
#4438434
00
01
#4438441
10
11
#4438448
b11111111 B
#4441157
00
01
#4441164
10
11
#4446603
00
01
#4446610
10
11
#4447968
00
01
#4447975
10
11
#4450691
00
01
#4450698
10
11
#4456137
00
01
#4456144
10
11
#4457502
00
01
#4457509
10
11
#4462948
00
01
#4462955
10
11
#4468401
00
01
#4468408
10
11
#4473847
00
01
#4473854
10
11
#4473861
bxxxxxxxx B
#4482023
00
01
#4482030
10
11
#4492922
00
01
#4492929
10
11
#4494280
00
01
#4494287
10
11
#4505179
00
01
#4505186
10
11
#4514713
00
01
#4514720
10
11
#4516078
01
bxxxxxxxx B
#4516085
11
#4521524
00
01
#4521531
10
11
#4521538
b11111111 B
#4525612
00
01
#4525619
10
11
#4529700
00
01
#4529707
10
11
#4532423
00
01
#4532430
10
11
#4537869
00
01
#4537876
10
11
#4541957
00
01
#4541964
10
11
#4544680
00
01
#4544687
10
11
#4551491
00
01
#4551498
10
11
#4558302
00
01
#4558309
10
11
#4565113
00
01
#4565120
10
11
#4565127
b11111111 B
#4577370
00
01
#4577377
10
11
#4578735
00
01
#4578742
10
11
#4580093
00
01
#4580100
10
11
#4584181
00
01
#4584188
10
11
#4586904
00
01
#4586911
10
11
#4590992
00
01
#4590999
10
11
#4595080
00
01
#4595087
10
11
#4597803
00
01
#4597810
10
11
#4611425
00
01
#4611432
10
11
#4611439
b11111111 B
#4615513
00
01
#4615520
10
11
#4620959
00
01
#4620966
10
11
#4627770
00
01
#4627777
10
11
#4630493
00
01
#4630500
10
11
#4638669
00
01
#4638676
10
11
#4645480
00
01
#4645487
10
11
#4648203
00
01
#4648210
10
11
#4656379
00
01
#4656386
10
11
#4676812
00
01
#4676819
10
11
#4676826
b11111111 B
#4679535
00
01
#4679542
10
11
#4690434
00
01
#4690441
10
11
#4697245
00
01
#4697252
10
11
#4702691
00
01
#4702698
10
11
#4706779
00
01
#4706786
10
11
#4709502
00
01
#4709509
10
11
#4713590
00
01
#4713597
10
11
#4716313
00
01
#4716320
10
11
#4723124
00
01
#4723131
10
11
#4723138
bxxxxxxxx B
#4725847
00
01
#4725854
10
11
#4729935
00
01
#4729942
10
11
#4744915
00
01
#4744922
10
11
#4749003
00
01
#4749010
10
11
#4761260
00
01
#4761267
10
11
#4770794
00
01
#4770801
10
11
#4774882
00
01
#4774889
10
11
#4784416
01
bxxxxxxxx B
#4784423
11
#4787139
00
01
#4787146
10
11
#4787153
b11111111 B
#4796673
00
01
#4796680
10
11
#4800761
00
01
#4800768
10
11
#4803484
00
01
#4803491
10
11
#4810295
00
01
#4810302
10
11
#4813018
00
01
#4813025
10
11
#4817106
00
01
#4817113
10
11
#4819829
00
01
#4819836
10
11
#4823917
00
01
#4823924
10
11
#4863418
00
01
#4863425
10
11
#4863432
bxxxxxxxx B
#4867506
00
01
#4867513
10
11
#4870229
00
01
#4870236
10
11
#4872952
00
01
#4872959
10
11
#4882486
01
bxxxxxxxx B
#4882493
11
#4889297
00
01
#4889304
10
11
#4889311
b11111111 B
#4900196
00
01
#4900203
10
11
#4902919
00
01
#4902926
10
11
#4909730
00
01
#4909737
10
11
#4916541
00
01
#4916548
10
11
#4947866
00
01
#4947873
10
11
#4951954
00
01
#4951961
10
11
#4958765
00
01
#4958772
10
11
#4972387
00
01
#4972394
10
11
#4979198
00
01
#4979205
10
11
#4979212
b11111111 B
#4981921
00
01
#4981928
10
11
#4998266
00
01
#4998273
10
11
#5005077
00
01
#5005084
10
11
#5017334
00
01
#5017341
10
11
#5048659
00
01
#5048666
10
11
#5077261
00
01
#5077268
10
11
#5093606
00
01
#5093613
10
11
#5107228
00
01
#5107235
10
11
#5109951
00
01
#5109958
10
11
#5109965
b11111111 B
#5116762
00
01
#5116769
10
11
#5134472
00
01
#5134479
10
11
#5138560
00
01
#5138567
10
11
#5142648
00
01
#5142655
10
11
#5145371
00
01
#5145378
10
11
#5149459
00
01
#5149466
10
11
#5153547
00
01
#5153554
10
11
#5156270
00
01
#5156277
10
11
#5163081
00
01
#5163088
10
11
#5163095
bxxxxxxxx B
#5169892
00
01
#5169899
10
11
#5172615
00
01
#5172622
10
11
#5182149
00
01
#5182156
10
11
#5191683
01
bxxxxxxxx B
#5191690
11
#5210751
00
01
#5210758
10
11
#5210765
b11111111 B
#5216197
00
01
#5216204
10
11
#5228454
00
01
#5228461
10
11
#5232542
00
01
#5232549
10
11
#5239353
00
01
#5239360
10
11
#5244799
00
01
#5244806
10
11
#5248887
00
01
#5248894
10
11
#5269320
00
01
#5269327
10
11
#5274766
00
01
#5274773
10
11
#5278854
00
01
#5278861
10
11
#5278868
b11111111 B
#5287023
00
01
#5287030
10
11
#5293834
00
01
#5293841
10
11
#5303368
00
01
#5303375
10
11
#5312902
00
01
#5312909
10
11
#5331970
00
01
#5331977
10
11
#5336058
00
01
#5336065
10
11
#5338781
00
01
#5338788
10
11
#5364660
00
01
#5364667
10
11
#5368748
00
01
#5368755
10
11
#5368762
b11111111 B
#5371471
00
#5371478
10
#5375559
00
01
#5375566
10
11
#5378282
00
01
#5378289
10
11
#5381005
00
01
#5381012
10
11
#5393262
00
01
#5393269
10
11
#5410972
00
01
#5410979
10
11
#5413695
00
01
#5413702
10
11
#5415060
00
01
#5415067
10
11
#5424594
00
01
#5424601
10
11
#5424608
b11111111 B
#5431405
00
01
#5431412
10
11
#5440939
00
01
#5440946
10
11
#5453196
00
01
#5453203
10
11
#5464095
00
01
#5464102
10
11
#5469541
00
01
#5469548
10
11
#5470906
00
01
#5470913
10
11
#5473629
00
01
#5473636
10
11
#5496785
00
01
#5496792
10
11
#5499508
00
01
#5499515
10
11
#5499522
b11111111 B
#5515860
00
01
#5515867
10
11
#5521306
00
01
#5521313
10
11
#5524029
00
01
#5524036
10
11
#5533563
00
01
#5533570
10
11
#5534928
00
01
#5534935
10
11
#5537651
00
#5537658
10
#5539016
00
01
#5539023
10
11
#5540374
00
01
#5540381
10
11
#5541739
00
01
#5541746
10
11
#5541753
b11111111 B
#5544462
00
01
