sniffer/arranque_y_frenado/frenado3.vcd
$date
  febrero 12, 2012
$end
$version
  ChronoVu LA-8 Version 3,08 
$end
$comment
  File: /home/mat/Documentos/Facultad/uquad/Sniffer_I2C/Arranque/frenado3.kdt
  from sample 0 to sample 8388607
$end
$timescale 10 ns $end
$scope module la8 $end
$var wire 1 0 SCL_(clock) $end
$var wire 1 1 SDA_(data) $end
$var wire 8 B I2C Bus $end
$upscope $end
$enddefinitions $end
$dumpvars
10
11
bxxxxxxxx B
$end
#0
10
11
bxxxxxxxx B
#24
bxxxxxxxx B
#27744
01
bxxxxxxxx B
#27840
00
#27912
11
#27936
10
#27960
b11010010 B
#28152
00
#28248
10
#28440
00
#28464
01
#28536
10
#28752
00
#28776
11
#28848
10
#29040
00
#29064
01
#29136
10
#29328
00
#29448
10
#29640
00
#29664
11
#29736
10
#29928
00
#29976
01
#30048
10
#30240
00
#30264
11
#30576
01
#30720
10
#30840
00
#30888
11
#30936
10
#30960
b10100010 B
#31128
00
#31176
01
#31248
10
#31440
00
#31464
11
#31536
10
#31728
00
#31776
01
#31848
10
#32040
00
#32136
10
#32328
00
#32448
10
#32640
00
#32664
11
#32736
10
#32928
00
#32976
01
#33048
10
#33240
00
#33264
11
#33648
01
#33696
10
#33840
00
#33936
10
#33960
b00110010 B
#34128
00
#34248
10
#34440
00
#34464
11
#34536
10
#34728
00
#34848
10
#35040
00
#35064
01
#35136
10
#35328
00
#35448
10
#35640
00
#35664
11
#35736
10
#35928
00
#35976
01
#36048
10
#36240
00
#36264
11
#36792
01
#36840
10
#37032
00
#37152
10
#37176
bxxxxxxxx B
#37344
11
#37536
01
bxxxxxxxx B
#37632
00
#37704
11
#37752
10
#37776
b11010100 B
#37944
00
#38040
10
#38232
00
#38256
01
#38352
10
#38544
00
#38568
11
#38640
10
#38832
00
#38856
01
#38952
10
#39144
00
#39168
11
#39240
10
#39432
00
#39456
01
#39552
10
#39744
00
#39840
10
#40032
00
#40080
11
#40368
01
#40512
10
#40632
00
#40704
11
#40752
10
#40776
b10100010 B
#40944
00
#40968
01
#41040
10
#41232
00
#41280
11
#41352
10
#41544
00
#41568
01
#41640
10
#41832
00
#41952
10
#42144
00
#42240
10
#42432
00
#42480
11
#42552
10
#42744
00
#42768
01
#42840
10
#43032
00
#43080
11
#43440
01
#43488
10
#43632
00
#43752
10
#43776
b00110010 B
#43944
00
#44040
10
#44232
00
#44280
11
#44352
10
#44544
00
#44640
10
#44832
00
#44856
01
#44952
10
#45144
00
#45240
10
#45432
00
#45480
11
#45552
10
#45744
00
#45768
10
#45792
00
01
#45840
10
#46032
00
#46080
11
#46584
01
#46632
10
#46656
bxxxxxxxx B
#46848
00
#46944
10
#47136
11
#47328
01
bxxxxxxxx B
#47448
00
#47496
11
#47544
10
#47568
b11010110 B
#47736
00
#47832
10
#48048
00
#48072
01
#48144
10
#48336
00
#48360
11
#48432
10
#48648
00
#48672
01
#48744
10
#48936
00
#48960
11
#49032
10
#49248
00
#49344
10
#49536
00
#49560
01
#49632
10
#49848
00
#49872
11
#50160
01
#50304
10
#50448
00
#50496
11
#50544
10
#50568
b10100010 B
#50736
00
#50760
01
#50832
10
#51048
00
#51072
11
#51144
10
#51336
00
#51360
01
#51432
10
#51648
00
#51744
10
#51936
00
#52032
10
#52248
00
#52272
11
#52344
10
#52536
00
#52560
01
#52632
10
#52848
00
#52872
11
#53256
01
#53304
10
#53448
00
#53544
10
#53568
b01100010 B
#53736
00
#53760
11
#53832
10
#54048
00
#54144
10
#54336
00
#54360
01
#54432
10
#54648
00
#54744
10
#54936
00
#55032
10
#55248
00
#55272
11
#55344
10
#55536
00
#55560
01
#55632
10
#55848
00
#55872
11
#56400
01
#56448
10
#56640
00
#56736
10
#56760
bxxxxxxxx B
#56952
11
#57144
01
bxxxxxxxx B
#57240
00
#57312
11
#57336
10
#57360
b11010000 B
#57528
00
#57648
10
#57840
00
#57864
01
#57936
10
#58128
00
#58176
11
#58248
10
#58440
00
#58464
01
#58536
10
#58728
00
#58848
10
#59040
00
#59136
10
#59328
00
#59448
10
#59640
00
#59664
11
#59952
01
#60120
10
#60240
00
#60288
11
#60336
10
#60360
b10100010 B
#60528
00
#60552
01
#60648
10
#60840
00
#60864
11
#60936
10
#61128
00
#61152
01
#61248
10
#61440
00
#61536
10
#61728
00
#61848
10
#62040
00
#62064
11
#62136
10
#62328
00
#62352
01
#62448
10
#62640
00
#62664
11
#63048
01
#63096
10
#63240
00
#63336
10
#63360
b01001111 B
#63528
00
#63576
11
#63648
10
#63840
00
#63864
01
#63936
10
#64128
00
#64248
10
#64440
00
#64464
11
#64536
10
#64728
00
#64848
10
#65040
00
#65136
10
#65328
00
#65448
10
#65640
00
#66192
01
#66240
10
#66432
00
#66528
10
#66552
bxxxxxxxx B
#66744
11
#75696
00
01
#75720
10
11
#105624
00
01
#105648
10
11
#135552
00
01
#135576
10
11
#165480
00
01
#165504
10
11
#169560
00
#169584
10
#230808
01
bxxxxxxxx B
#230928
00
#230976
11
#231024
10
#231048
b11010010 B
#231216
00
#231312
10
#231528
00
#231552
01
#231624
10
#231816
00
#231840
11
#231912
10
#232128
00
#232152
01
#232224
10
#232416
00
#232512
10
#232728
00
#232752
11
#232824
10
#233016
00
#233040
01
#233112
10
#233328
00
#233352
11
#233496
01
#233520
11
#233640
01
#233784
10
#233928
00
#233976
11
#234024
10
#234048
b10100010 B
#234216
00
#234240
01
#234312
10
#234528
00
#234552
11
#234624
10
#234816
00
#234840
01
#234912
10
#235128
00
#235224
10
#235416
00
#235512
10
#235728
00
#235752
11
#235824
10
#236016
00
#236040
01
#236112
10
#236328
00
#236352
11
#236736
01
#236784
10
#236928
00
#237024
10
#237048
b00110010 B
#237216
00
#237312
10
#237528
00
#237552
11
#237624
10
#237816
00
#237912
10
#238128
00
#238152
01
#238224
10
#238416
00
#238512
10
#238728
00
#238752
11
#238824
10
#239016
00
#239040
01
#239112
10
#239328
00
#239352
11
#239880
01
#239928
10
#240120
00
#240216
10
#240240
bxxxxxxxx B
#240432
11
#240624
01
bxxxxxxxx B
#240720
00
#240792
11
#240816
10
#240840
b11010100 B
#241008
00
#241128
10
#241320
00
#241344
01
#241416
10
#241608
00
#241656
11
#241728
10
#241920
00
#241944
01
#242016
10
#242208
00
#242256
11
#242328
10
#242520
00
#242544
01
#242616
10
#242808
00
#242928
10
#243120
00
#243144
11
#243432
01
#243576
10
#243720
00
#243768
11
#243816
10
#243840
b10100010 B
#244008
00
#244032
01
#244128
10
#244320
00
#244344
11
#244416
10
#244608
00
#244632
01
#244728
10
#244920
00
#245016
10
#245208
00
#245328
10
#245520
00
#245544
11
#245616
10
#245808
00
#245832
01
#245928
10
#246120
00
#246144
11
#246528
01
#246576
10
#246720
00
#246816
10
#246840
b00110010 B
#247008
00
#247128
10
#247320
00
#247344
11
#247416
10
#247608
00
#247728
10
#247920
00
#247944
01
#248016
10
#248208
00
#248328
10
#248520
00
#248544
11
#248616
10
#248808
00
#248832
01
#248928
10
#249120
00
#249144
11
#249672
01
#249720
10
#249912
00
#250008
10
#250032
bxxxxxxxx B
#250224
11
#250416
01
bxxxxxxxx B
#250512
00
#250584
11
#250608
10
#250632
b11010110 B
#250824
00
#250920
10
#251112
00
#251136
01
#251208
10
#251424
00
#251448
11
#251520
10
#251712
00
#251736
01
#251808
10
#252024
00
#252048
11
#252120
10
#252312
00
#252408
10
#252624
00
#252648
01
#252720
10
#252912
00
#252936
11
#253248
01
#253392
10
#253512
00
#253584
11
#253608
10
#253632
bxxxxxxxx B
#253824
00
#253848
01
#253920
10
#254112
00
#254136
11
#254208
10
#254424
00
#254448
01
#254520
10
#254712
00
#254808
10
#255024
00
#255120
10
#255264
11
#255288
01
bxxxxxxxx B
#255312
00
#255336
11
#255408
10
#255432
b10001100 B
#255624
00
#255648
01
#255720
10
#255912
00
#255936
11
#256320
01
#256368
10
#256512
00
#256608
10
#256824
00
#256848
11
#256920
10
#257112
00
#257208
10
#257424
00
#257448
01
#257520
10
#257712
00
#257808
10
#258024
00
#258120
10
#258312
00
#258408
10
#258432
bxxxxxxxx B
#258624
00
#258648
11
#258720
10
#258912
00
#259344
10
#259368
00
#259488
01
#259512
10
#259704
00
#259824
10
#260016
11
#260208
01
bxxxxxxxx B
#260304
00
#260376
11
#260424
10
#260448
b11010000 B
#260616
00
#260712
10
#260904
00
#260952
01
#261024
10
#261216
00
#261240
11
#261312
10
#261504
00
#261552
01
#261624
10
#261816
00
#261912
10
#262104
00
#262224
10
#262416
00
#262512
10
#262704
00
#262752
11
#263040
01
#263184
10
#263304
00
#263376
11
#263424
10
#263448
b10100010 B
#263616
00
#263640
01
#263712
10
#263904
00
#263952
11
#264024
10
#264216
00
#264240
01
#264312
10
#264504
00
#264624
10
#264816
00
#264912
10
#265104
00
#265152
11
#265224
10
#265416
00
#265440
01
#265512
10
#265704
00
#265752
11
#266136
01
#266160
10
#266304
00
#266424
10
#266448
b01001111 B
#266616
00
#266640
11
#266712
10
#266904
00
#266952
01
#267024
10
#267216
00
#267312
10
#267504
00
#267552
11
#267624
10
#267816
00
#267912
10
#268104
00
#268224
10
#268416
00
#268512
10
#268704
00
#269280
01
#269328
10
#269520
00
#269616
10
#269640
bxxxxxxxx B
#269808
11
#272952
00
01
#272976
10
11
#281112
00
01
#281136
10
11
#332808
00
01
#332832
10
11
#388584
00
01
#388608
10
11
#392664
00
01
#392688
10
11
#428592
01
bxxxxxxxx B
#428688
00
#428760
11
#428808
10
#428832
b11010010 B
#429000
00
#429096
10
#429288
00
#429336
01
#429408
10
#429600
00
#429624
11
#429696
10
#429888
00
#429936
01
#430008
10
#430200
00
#430296
10
#430488
00
#430536
11
#430608
10
#430800
00
#430824
01
#430896
10
#431088
00
#431136
11
#431424
01
#431568
10
#431688
00
#431760
11
#431808
10
#431832
b10100010 B
#432000
00
#432024
01
#432096
10
#432288
00
#432336
11
#432408
10
#432600
00
#432624
01
#432696
10
#432888
00
#433008
10
#433200
00
#433296
10
#433488
00
#433536
11
#433608
10
#433800
00
#433824
01
#433896
10
#434088
00
#434136
11
#434496
01
#434544
10
#434688
00
#434808
10
#434832
b00110010 B
#435000
00
#435096
10
#435288
00
#435336
11
#435408
10
#435600
00
#435696
10
#435888
00
#435912
01
#436008
10
#436200
00
#436296
10
#436488
00
#436536
11
#436608
10
#436800
00
#436824
01
#436896
10
#437088
00
#437136
11
#437664
01
#437712
10
#437904
00
#438000
10
#438024
bxxxxxxxx B
#438192
11
#438408
01
bxxxxxxxx B
#438504
00
#438576
11
#438600
10
#438624
b11010100 B
#438792
00
#438888
10
#439104
00
#439128
01
#439200
10
#439392
00
#439416
11
#439488
10
#439704
00
#439728
01
#439800
10
#439992
00
#440016
11
#440088
10
#440304
00
#440328
01
#440400
10
#440592
00
#440688
10
#440904
00
#440928
11
#441216
01
#441360
10
#441504
00
#441552
11
#441600
10
#441624
b10100010 B
#441792
00
#441816
01
#441888
10
#442104
00
#442128
11
#442200
10
#442392
00
#442416
01
#442488
10
#442704
00
#442800
10
#442992
00
#443088
10
#443304
00
#443328
11
#443400
10
#443592
00
#443616
01
#443688
10
#443904
00
#443928
11
#444312
01
#444360
10
#444504
00
#444600
10
#444624
b00110010 B
#444792
00
#444888
10
#445104
00
#445128
11
#445200
10
#445392
00
#445488
10
#445704
00
#445728
01
#445800
10
#445992
00
#446088
10
#446304
00
#446328
11
#446400
10
#446592
00
#446616
01
#446688
10
#446904
00
#446928
11
#447456
01
#447504
10
#447696
00
#447792
10
#447816
bxxxxxxxx B
#448008
11
#448200
01
bxxxxxxxx B
#448296
00
#448368
11
#448392
10
#448416
b11010111 B
#448584
00
#448704
10
#448896
00
#448920
01
#448992
10
#449184
00
#449232
11
#449304
10
#449496
00
#449520
01
#449592
10
#449784
00
#449808
10
11
#449832
00
#449904
10
#450096
00
#450192
10
#450384
00
#450432
01
#450504
10
#450696
00
#450720
11
#451008
01
#451152
10
#451176
b01010001 B
#451296
00
#451344
11
#451392
10
#451584
00
#451632
01
#451704
10
#451896
00
#451920
11
#451992
10
#452184
00
#452232
01
#452304
10
#452496
00
#452592
10
#452784
00
#452904
10
#453096
00
#453120
11
#453192
10
#453384
00
#453432
01
#453504
10
#453696
00
#453720
11
#454104
01
#454152
10
#454176
b00110001 B
#454296
00
#454344
11
#455376
01
#455496
10
#455688
00
#455736
11
#455808
10
#456000
00
#456096
10
#456288
00
#456312
01
#456408
10
#456600
00
#456696
10
#456888
00
#457008
10
#457200
00
#457224
11
#457296
10
#457488
00
#457512
01
#457608
10
#457800
00
#457824
11
#458352
01
#458400
10
#458424
bxxxxxxxx B
#458592
00
#458688
10
#458904
11
#459096
01
bxxxxxxxx B
#459192
00
#459264
11
#459288
10
#459312
b11010000 B
#459504
00
#459600
10
#459792
00
#459816
01
#459888
10
#460104
00
#460128
11
#460200
10
#460392
00
#460416
01
#460488
10
#460704
00
#460800
10
#460992
00
#461088
10
#461304
00
#461400
10
#461592
00
#461616
11
#461928
01
#462072
10
#462192
00
#462240
11
#462288
10
#462312
b10100010 B
#462504
00
#462528
01
#462600
10
#462792
00
#462816
11
#462888
10
#463104
00
#463128
01
#463200
10
#463392
00
#463488
10
#463704
00
#463800
10
#463992
00
#464016
11
#464088
10
#464304
00
#464328
01
#464400
10
#464592
00
#464616
11
#465000
01
#465048
10
#465192
00
#465288
10
#465312
b01001100 B
#465504
00
#465528
11
#465600
10
#465792
00
#465816
01
#465888
10
#466104
00
#466200
10
#466392
00
#466416
11
#466488
10
#466704
00
#466800
10
#466992
00
#467016
01
#467088
10
#467304
00
#467400
10
#467592
00
#467616
11
#468144
01
#468192
10
#468384
00
#468504
10
#468528
b01111111 B
#468696
11
#481104
00
01
#481128
10
11
#485184
00
01
#485208
10
11
#515112
00
01
#515136
10
11
#523272
00
01
#523296
10
11
#545040
00
01
#545064
10
11
#549120
00
01
#549144
10
11
#553200
00
01
#553224
10
11
#570888
00
01
#570912
10
11
#632112
00
01
#632136
10
11
#632160
bxxxxxxxx B
#636672
01
bxxxxxxxx B
#636768
00
#636840
11
#636888
10
#636912
b11010010 B
#637080
00
#637176
10
#637368
00
#637392
01
#637488
10
#637680
00
#637704
11
#637776
10
#637968
00
#637992
01
#638088
10
#638280
00
#638376
10
#638568
00
#638616
11
#638688
10
#638880
00
#638904
01
#638976
10
#639168
00
#639216
11
#639504
01
#639648
10
#639768
00
#639840
11
#639888
10
#639912
b10100010 B
#640080
00
#640104
01
#640176
10
#640368
00
#640416
11
#640488
10
#640680
00
#640704
01
#640776
10
#640968
00
#641088
10
#641280
00
#641376
10
#641568
00
#641616
11
#641688
10
#641880
00
#641904
01
#641976
10
#642168
00
#642216
11
#642576
01
#642624
10
#642768
00
#642888
10
#642912
b00110010 B
#643080
00
#643176
10
#643368
00
#643416
11
#643488
10
#643680
00
#643776
10
#643968
00
#643992
01
#644088
10
#644280
00
#644376
10
#644568
00
#644616
11
#644688
10
#644880
00
#644904
01
#644976
10
#645168
00
#645216
11
#645720
10
#645744
00
01
#645792
10
#645816
bxxxxxxxx B
#645984
00
#646080
10
#646272
11
#646464
01
bxxxxxxxx B
#646584
00
#646656
11
#646680
10
#646704
b11010100 B
#646872
00
#646968
10
#647184
00
#647208
01
#647280
10
#647472
00
#647496
11
#647568
10
#647784
00
#647808
01
#647880
10
#648072
00
#648096
11
#648168
10
#648384
00
#648408
01
#648480
10
#648672
00
#648768
10
#648984
00
#649008
11
#649296
01
#649440
10
#649584
00
#649632
11
#649680
10
#649704
b11010001 B
#649800
00
01
#649824
10
11
#649872
00
#649896
01
#649968
10
#650184
00
#650208
11
#650280
10
#650472
00
#650496
01
#650568
10
#650784
00
#650880
10
#651072
00
#651168
10
#651384
00
#651408
11
#651480
10
#651672
00
#651696
01
#651768
10
#651984
00
#652008
11
#652392
01
#652440
10
#652464
b00011001 B
#652584
00
#652680
10
#652872
00
#652968
10
#653184
00
#653208
11
#653280
10
#653472
00
#653568
10
#653784
00
#653808
01
#653880
10
#654072
00
#654168
10
#654384
00
#654408
11
#654480
10
#654672
00
#654696
01
#654768
10
#654984
00
#655008
11
#655536
01
#655584
10
#655608
bxxxxxxxx B
#655776
00
#655872
10
#656088
11
#656280
01
bxxxxxxxx B
#656376
00
#656448
11
#656472
10
#656496
b11010110 B
#656664
00
#656784
10
#656976
00
#657000
01
#657072
10
#657264
00
#657312
11
#657384
10
#657576
00
#657600
01
#657672
10
#657864
00
#657912
11
#657984
10
#658176
00
#658272
10
#658464
00
#658488
01
#658584
10
#658776
00
#658800
11
#659088
01
#659232
10
#659376
00
#659424
11
#659472
10
#659496
b10100010 B
#659664
00
#659688
01
#659784
10
#659976
00
#660000
11
#660072
10
#660264
00
#660288
01
#660384
10
#660576
00
#660672
10
#660864
00
#660984
10
#661176
00
#661200
11
#661272
10
#661464
00
#661488
01
#661584
10
#661776
00
#661800
11
#662184
01
#662232
10
#662376
00
#662472
10
#662496
b01100100 B
#662664
00
#662712
11
#662784
10
#662976
00
#663072
10
#663264
00
#663288
01
#663384
10
#663576
00
#663672
10
#663864
00
#663912
11
#663984
10
#664176
00
#664200
01
#664272
10
#664464
00
#664584
10
#664776
00
#664800
11
#665328
01
#665376
10
#665568
00
#665664
10
#665688
bxxxxxxxx B
#665880
11
#666072
01
bxxxxxxxx B
#666168
00
#666240
11
#666264
10
#666288
bxxxxxxxx B
#666480
00
#666576
10
#666768
00
#666792
01
#666864
10
#667080
00
#667104
11
#667176
10
#667368
00
#667392
01
#667464
10
#667488
11
#667512
01
bxxxxxxxx B
#667680
00
#667776
10
#667800
b00001010 B
#667968
00
#668064
10
#668280
00
#668376
10
#668568
00
#668592
11
#668904
01
#669048
10
#669168
00
#669240
11
#669264
10
#669480
00
#669504
01
#669576
10
#669768
00
#669792
11
#669864
10
#670080
00
#670104
01
#670176
10
#670368
00
#670464
10
#670680
00
#670776
10
#670800
b01000100 B
#670968
00
#670992
11
#671064
10
#671280
00
#671304
01
#671376
10
#671568
00
#671592
11
#671976
01
#672024
10
#672168
00
#672264
10
#672480
00
#672504
11
#672576
10
#672768
00
#672792
01
#672864
10
#673080
00
#673176
10
#673368
00
#673392
11
#673464
10
#673680
00
#673704
01
#673776
10
#673800
bxxxxxxxx B
#673968
00
#674064
10
#674280
00
#674304
11
#674376
10
#674568
00
#675120
01
#675168
10
#675360
00
#675480
10
#675672
11
#690624
00
01
#690648
10
11
#712392
00
01
#712416
10
11
#730080
01
bxxxxxxxx B
#730104
11
#791304
00
01
#791328
10
11
#791352
bxxxxxxxx B
#808992
00
01
#809016
10
11
#839064
01
bxxxxxxxx B
#839160
00
#839208
11
#839256
10
#839280
b11010010 B
#839448
00
#839568
10
#839760
00
#839784
01
#839856
10
#840048
00
#840072
11
#840168
10
#840360
00
#840384
01
#840456
10
#840648
00
#840768
10
#840960
00
#840984
11
#841056
10
#841248
00
#841272
01
#841344
10
#841560
00
#841584
11
#841872
01
#842016
10
#842160
00
#842208
11
#842256
10
#842280
b10100010 B
#842448
00
#842472
01
#842544
10
#842760
00
#842784
11
#842856
10
#843048
00
#843072
01
#843144
10
#843360
00
#843456
10
#843648
00
#843744
10
#843960
00
#843984
11
#844056
10
#844248
00
#844272
01
#844344
10
#844560
00
#844584
11
#844968
01
#845016
10
#845160
00
#845256
10
#845280
b00110001 B
#845448
00
#845544
10
#845760
00
#845784
11
#845856
10
#846048
00
#846144
10
#846360
00
#846384
01
#846456
10
#846648
00
#846744
10
#846960
00
#846984
11
#847056
10
#847080
00
01
#847104
10
11
#847248
00
#847272
01
#847344
10
#847560
00
#847584
11
#848112
01
#848160
10
#848184
bxxxxxxxx B
#848352
00
#848448
10
#848664
11
#848856
01
bxxxxxxxx B
#848952
00
#849024
11
#849048
10
#849072
b11010100 B
#849264
00
#849360
10
#849552
00
#849576
01
#849648
10
#849864
00
#849888
11
#849960
10
#850152
00
#850176
01
#850248
10
#850464
00
#850488
11
#850560
10
#850752
00
#850776
01
#850848
10
#851064
00
#851160
10
#851352
00
#851376
11
#851688
01
#851832
10
#851952
00
#852000
11
#852048
10
#852072
b10100010 B
#852240
00
#852288
01
#852360
10
#852552
00
#852576
11
#852648
10
#852840
00
#852888
01
#852960
10
#853152
00
#853248
10
#853440
00
#853560
10
#853752
00
#853776
11
#853848
10
#854040
00
#854088
01
#854160
10
#854352
00
#854376
11
#854760
01
#854808
10
#854952
00
#855048
10
#855072
b00110010 B
#855240
00
#855360
10
#855552
00
#855576
11
#855648
10
#855840
00
#855960
10
#856152
00
#856176
01
#856248
10
#856440
00
#856560
10
#856752
00
#856776
11
#856848
10
#857040
00
#857088
01
#857160
10
#857352
00
#857376
11
#857904
01
#857952
10
#858144
00
#858264
10
#858288
bxxxxxxxx B
#858456
11
#858648
01
bxxxxxxxx B
#858744
00
#858816
11
#858864
10
#858888
b11010110 B
#859056
00
#859152
10
#859344
00
#859368
01
#859464
10
#859656
00
#859680
11
#859752
10
#859944
00
#859968
01
#860064
10
#860256
00
#860280
11
#860352
10
#860544
00
#860664
10
#860856
00
#860880
01
#860952
10
#861144
00
#861192
11
#861480
01
#861624
10
#861744
00
#861816
11
#861864
10
#861888
b10100010 B
#862056
00
#862080
01
#862152
10
#862344
00
#862392
11
#862464
10
#862656
00
#862680
01
#862752
10
#862944
00
#863064
10
#863256
00
#863352
10
#863544
00
#863592
11
#863664
10
#863856
00
#863880
01
#863952
10
#864144
00
#864192
11
#864552
01
#864600
10
#864744
00
#864864
10
#864888
b01100010 B
#865056
00
#865080
11
#865152
10
#865344
00
#865464
10
#865656
00
#865680
01
#865752
10
#865944
00
#866064
10
#866256
00
#866352
10
#866544
00
#866592
11
#866664
10
#866856
00
#866880
01
#866952
10
#867144
00
#867192
11
#867720
01
#867768
10
#867960
00
#868056
10
#868080
bxxxxxxxx B
#868248
11
#868440
01
bxxxxxxxx B
#868560
00
#868608
11
#868656
10
#868680
b11010000 B
#868848
00
01
#868872
11
#868944
10
#869160
00
#869184
01
#869256
10
#869448
00
#869472
11
#869544
10
#869760
00
#869784
01
#869856
10
#870048
00
#870144
10
#870360
00
#870456
10
#870648
00
#870744
10
#870960
00
#870984
11
#871272
01
#871416
10
#871560
00
#871608
11
#871656
10
#871680
b10100001 B
#871848
00
#871872
01
#871944
10
#872160
00
#872184
11
#872256
10
#872448
00
#872472
01
#872544
10
#872760
00
#872856
10
#872928
00
#872952
10
#873048
00
#873144
10
#873360
00
#873384
11
#873456
10
#873648
00
#873672
01
#873744
10
#873960
00
#873984
11
#874368
01
#874416
10
#874440
b00100101 B
#874560
00
#874656
10
#874848
00
#874872
11
#874944
10
#875160
00
#875184
01
#875256
10
#875448
00
#875544
10
#875760
00
#875784
11
#875856
10
#876048
00
#876072
01
#876144
10
#876360
00
#876384
11
#876456
10
#876648
00
#876672
01
#876744
10
#876960
00
#876984
11
#877512
01
#877560
10
#877584
bxxxxxxxx B
#877752
00
#877800
11
#878496
01
#878544
10
#878760
11
#886536
00
01
#886560
10
11
#943680
00
01
#943704
10
11
#1015776
00
01
#1015800
10
11
#1028016
00
01
#1028040
10
11
#1035432
01
bxxxxxxxx B
#1035528
00
#1035600
11
#1035624
10
#1035648
b11010010 B
#1035840
00
#1035936
10
#1036128
00
#1036152
01
#1036224
10
#1036440
00
#1036464
11
#1036536
10
#1036728
00
#1036752
01
#1036824
10
#1037040
00
#1037136
10
#1037328
00
#1037352
11
#1037424
10
#1037640
00
#1037664
01
#1037736
10
#1037928
00
#1037952
11
#1038264
01
#1038408
10
#1038528
00
#1038576
11
#1038624
10
#1038648
b10100010 B
#1038840
00
#1038864
01
#1038936
10
#1039128
00
#1039152
11
#1039224
10
#1039440
00
#1039464
01
#1039536
10
#1039728
00
#1039824
10
#1040040
00
#1040136
10
#1040328
00
#1040352
11
#1040424
10
#1040640
00
#1040664
01
#1040736
10
#1040928
00
#1040952
11
#1041336
01
#1041384
10
#1041528
00
#1041624
10
#1041648
b00110010 B
#1041840
00
#1041936
10
#1042128
00
#1042152
11
#1042224
10
#1042440
00
#1042536
10
#1042728
00
#1042752
01
#1042824
10
#1043040
00
#1043136
10
#1043328
00
#1043352
11
#1043424
10
#1043640
00
#1043664
01
#1043736
10
#1043928
00
#1043952
11
#1044504
01
#1044552
10
#1044720
00
#1044840
10
#1044864
bxxxxxxxx B
#1045032
11
#1045224
01
bxxxxxxxx B
#1045320
00
#1045392
11
#1045440
10
#1045464
b11010100 B
#1045632
00
#1045728
10
#1045920
00
#1045968
01
#1046040
10
#1046232
00
#1046256
11
#1046328
10
#1046520
00
#1046568
01
#1046640
10
#1046832
00
#1046856
11
#1046928
10
#1047120
00
#1047168
01
#1047240
10
#1047432
00
#1047528
10
#1047720
00
#1047768
11
#1048056
01
#1048200
10
#1048320
00
#1048392
11
#1048632
10
#1048656
b10100010 B
#1048824
00
#1048848
01
#1048944
10
#1049136
00
#1049160
11
#1049232
10
#1049424
00
#1049448
01
#1049544
10
#1049736
00
#1049832
10
#1050024
00
#1050144
10
#1050336
00
#1050360
11
#1050432
10
#1050624
00
#1050648
01
#1050744
10
#1050936
00
#1050960
11
#1051344
01
#1051392
10
#1051536
00
#1051632
10
#1051656
b00110010 B
#1051824
00
#1051944
10
#1052136
00
#1052160
11
#1052232
10
#1052424
00
#1052544
10
#1052736
00
#1052760
01
#1052832
10
#1053024
00
#1053144
10
#1053336
00
#1053360
11
#1053432
10
#1053624
00
#1053648
01
#1053744
10
#1053936
00
#1053960
11
#1054488
01
#1054536
10
#1054728
00
#1054824
10
#1054848
bxxxxxxxx B
#1055040
11
#1055232
01
bxxxxxxxx B
#1055328
00
#1055400
11
#1055424
10
#1055448
b11010110 B
#1055640
00
#1055736
10
#1055928
00
#1055952
01
#1056024
10
#1056240
00
#1056264
11
#1056336
10
#1056528
00
#1056552
01
#1056624
10
#1056840
00
#1056864
11
#1056936
10
#1057128
00
#1057224
10
#1057440
00
#1057464
01
#1057536
10
#1057728
00
#1057752
11
#1058064
01
#1058208
10
#1058328
00
#1058376
11
#1058424
10
#1058448
b10100010 B
#1058640
00
#1058664
01
#1058736
10
#1058928
00
#1058952
11
#1059024
10
#1059240
00
#1059264
01
#1059336
10
#1059528
00
#1059624
10
#1059840
00
#1059936
10
#1060128
00
#1060152
11
#1060224
10
#1060440
00
#1060464
01
#1060536
10
#1060728
00
#1060752
11
#1061136
01
#1061184
10
#1061328
00
#1061424
10
#1061448
b01100000 B
#1061640
00
#1061664
11
#1061736
10
#1061928
00
#1062024
10
#1062240
00
#1062264
01
#1062336
10
#1062528
00
#1062624
10
#1062840
00
#1062936
10
#1063128
00
#1063224
10
#1063440
00
#1063536
10
#1063728
00
#1063752
11
#1064280
01
#1064328
10
#1064520
00
#1064640
10
#1064664
bxxxxxxxx B
#1064832
11
#1065024
01
bxxxxxxxx B
#1065120
00
#1065192
11
#1065240
10
#1065264
b11010000 B
#1065432
00
#1065528
10
#1065720
00
#1065768
01
#1065840
10
#1066032
00
#1066056
11
#1066128
10
#1066320
00
#1066368
01
#1066440
10
#1066632
00
#1066728
10
#1066920
00
#1067040
10
#1067232
00
#1067328
10
#1067520
00
#1067568
11
#1067856
01
#1068000
10
#1068120
00
#1068192
11
#1068240
10
#1068264
b10100010 B
#1068432
00
#1068456
01
#1068528
10
#1068720
00
#1068768
11
#1068840
10
#1069032
00
#1069056
01
#1069128
10
#1069320
00
#1069440
10
#1069632
00
#1069728
10
#1069920
00
#1069968
11
#1070040
10
#1070232
00
#1070256
01
#1070328
10
#1070520
00
#1070568
11
#1070952
01
#1071000
10
#1071120
00
#1071240
10
#1071264
b01001100 B
#1071432
00
#1071456
11
#1071528
10
#1071720
00
#1071744
01
#1071840
10
#1072032
00
#1072128
10
#1072320
00
#1072368
11
#1072440
10
#1072632
00
#1072728
10
#1072920
00
#1072944
01
#1073040
10
#1073232
00
#1073328
10
#1073520
00
#1073568
11
#1074096
01
#1074144
10
#1074336
00
#1074432
10
#1074456
bxxxxxxxx B
#1074624
11
#1079712
00
01
#1079736
10
11
#1105560
00
01
#1105584
10
11
#1157256
00
01
#1157280
10
11
#1233408
01
bxxxxxxxx B
#1233504
00
#1233576
11
#1233624
10
#1233648
b11010010 B
#1233816
00
#1233912
10
#1234104
00
#1234128
01
#1234224
10
#1234416
00
#1234440
11
#1234512
10
#1234704
00
#1234728
01
#1234800
10
#1235016
00
#1235112
10
#1235304
00
#1235352
11
#1235424
10
#1235616
00
#1235640
01
#1235712
10
#1235904
00
#1235952
11
#1236240
01
#1236384
10
#1236504
00
#1236576
11
#1236624
10
#1236648
b10100010 B
#1236816
00
#1236840
01
#1236912
10
#1237104
00
#1237152
11
#1237224
10
#1237416
00
#1237440
01
#1237512
10
#1237704
00
#1237824
10
#1238016
00
#1238112
10
#1238304
00
#1238352
11
#1238424
10
#1238616
00
#1238640
01
#1238712
10
#1238880
00
#1238952
11
#1239312
01
#1239360
10
#1239504
00
#1239624
10
#1239648
b00110010 B
#1239816
00
#1239912
10
#1240104
00
#1240152
11
#1240224
10
#1240416
00
#1240512
10
#1240704
00
#1240728
01
#1240824
10
#1241016
00
#1241112
10
#1241304
00
#1241352
11
#1241424
10
#1241616
00
#1241640
01
#1241712
10
#1241904
00
#1241952
11
#1242480
01
#1242528
10
#1242720
00
#1242816
10
#1242840
bxxxxxxxx B
#1243008
11
#1243200
01
bxxxxxxxx B
#1243320
00
#1243392
11
#1243416
10
#1243440
b11010100 B
#1243608
00
#1243704
10
#1243920
00
#1243944
01
#1244016
10
#1244208
00
#1244232
11
#1244304
10
#1244520
00
#1244544
01
#1244616
10
#1244808
00
#1244832
11
#1244904
10
#1245120
00
#1245144
01
#1245216
10
#1245408
00
#1245504
10
#1245720
00
#1245744
11
#1246032
01
#1246176
10
